{
 "actions": [],
 "creation": "2020-02-27 14:30:37.079112",
 "doctype": "DocType",
 "editable_grid": 1,
 "engine": "InnoDB",
 "field_order": [
  "addon_name",
  "addon_price",
  "addon_status"
 ],
 "fields": [
  {
   "fieldname": "addon_name",
   "fieldtype": "Data",
   "in_list_view": 1,
   "label": "Add on name",
   "reqd": 1
  },
  {
   "fieldname": "addon_price",
   "fieldtype": "Currency",
   "in_list_view": 1,
   "label": "Add on price",
   "reqd": 1
  },
  {
   "fieldname": "addon_status",
   "fieldtype": "Data",
   "in_list_view": 1,
   "label": "Add on status",
   "reqd": 1
  }
 ],
 "links": [],
 "modified": "2020-02-27 14:30:37.079112",
 "modified_by": "Administrator",
 "module": "Items",
 "name": "Addons",
 "owner": "Administrator",
 "permissions": [
  {
   "create": 1,
   "delete": 1,
   "email": 1,
   "export": 1,
   "print": 1,
   "read": 1,
   "report": 1,
   "role": "System Manager",
   "share": 1,
   "write": 1
  }
 ],
 "quick_entry": 1,
 "sort_field": "modified",
 "sort_order": "DESC",
 "track_changes": 1
}