{
 "actions": [],
 "creation": "2020-02-25 12:24:00.815850",
 "doctype": "DocType",
 "editable_grid": 1,
 "engine": "InnoDB",
 "field_order": [
  "category",
  "item_name",
  "notes",
  "description",
  "thumb_image",
  "tax_category",
  "is_offer",
  "is_special",
  "status",
  "cost",
  "image"
 ],
 "fields": [
  {
   "columns": 6,
   "fetch_from": "category.category_name",
   "fieldname": "category",
   "fieldtype": "Link",
   "in_list_view": 1,
   "label": "Category",
   "options": "Category",
   "reqd": 1
  },
  {
   "fieldname": "item_name",
   "fieldtype": "Data",
   "label": "Item Name",
   "reqd": 1
  },
  {
   "fieldname": "notes",
   "fieldtype": "Text",
   "label": "Notes"
  },
  {
   "fieldname": "description",
   "fieldtype": "Text",
   "label": "Description",
   "reqd": 1
  },
  {
   "fieldname": "thumb_image",
   "fieldtype": "Text",
   "label": "Thumbnail Image",
   "reqd": 1
  },
  {
   "fieldname": "tax_category",
   "fieldtype": "Data",
   "label": "Tax Category",
   "reqd": 1
  },
  {
   "default": "0",
   "fieldname": "is_offer",
   "fieldtype": "Check",
   "label": "Is Offer",
   "reqd": 1
  },
  {
   "default": "0",
   "fieldname": "is_special",
   "fieldtype": "Check",
   "label": "Is special",
   "reqd": 1
  },
  {
   "fieldname": "status",
   "fieldtype": "Select",
   "label": "Status",
   "options": "Available\nNot Available\nCancelled",
   "reqd": 1
  },
  {
   "fieldname": "cost",
   "fieldtype": "Currency",
   "label": "Cost",
   "reqd": 1
  },
  {
   "fieldname": "image",
   "fieldtype": "Attach Image",
   "label": "Image"
  }
 ],
 "image_field": "image",
 "links": [],
 "modified": "2020-03-06 19:34:37.157224",
 "modified_by": "Administrator",
 "module": "Items",
 "name": "Items",
 "owner": "Administrator",
 "permissions": [
  {
   "create": 1,
   "delete": 1,
   "email": 1,
   "export": 1,
   "print": 1,
   "read": 1,
   "report": 1,
   "role": "System Manager",
   "share": 1,
   "write": 1
  },
  {
   "create": 1,
   "delete": 1,
   "email": 1,
   "export": 1,
   "print": 1,
   "read": 1,
   "report": 1,
   "role": "Administrator",
   "share": 1,
   "write": 1
  }
 ],
 "quick_entry": 1,
 "sort_field": "modified",
 "sort_order": "DESC"
}