{
 "actions": [],
 "creation": "2020-02-27 19:16:45.163971",
 "doctype": "DocType",
 "editable_grid": 1,
 "engine": "InnoDB",
 "field_order": [
  "customer_name",
  "phone_no",
  "table_no",
  "no_guest",
  "start_time",
  "end_time",
  "date",
  "status",
  "data_9"
 ],
 "fields": [
  {
   "fetch_from": "customer_name.customer_name",
   "fieldname": "customer_name",
   "fieldtype": "Link",
   "in_list_view": 1,
   "label": "Customer Name",
   "options": "Customer",
   "reqd": 1
  },
  {
   "fetch_from": "phone_no.phone_no",
   "fieldname": "phone_no",
   "fieldtype": "Link",
   "in_list_view": 1,
   "label": "Customer Phone",
   "options": "Customer",
   "reqd": 1
  },
  {
   "fetch_from": "table_no.table_no",
   "fieldname": "table_no",
   "fieldtype": "Link",
   "in_list_view": 1,
   "label": "Table No",
   "options": "Tables",
   "reqd": 1
  },
  {
   "fieldname": "no_guest",
   "fieldtype": "Data",
   "in_list_view": 1,
   "label": "No of Guests",
   "reqd": 1
  },
  {
   "fieldname": "start_time",
   "fieldtype": "Time",
   "label": "Start time",
   "reqd": 1
  },
  {
   "fieldname": "end_time",
   "fieldtype": "Time",
   "label": "End Time",
   "reqd": 1
  },
  {
   "fieldname": "date",
   "fieldtype": "Date",
   "label": "Date",
   "reqd": 1
  },
  {
   "fieldname": "status",
   "fieldtype": "Select",
   "label": "Status",
   "options": "Available\nNo Available\nCancelled",
   "reqd": 1
  },
  {
   "fieldname": "data_9",
   "fieldtype": "Data"
  }
 ],
 "links": [],
 "modified": "2020-02-27 19:16:45.163971",
 "modified_by": "Administrator",
 "module": "Reservations",
 "name": "Reservations",
 "owner": "Administrator",
 "permissions": [
  {
   "create": 1,
   "delete": 1,
   "email": 1,
   "export": 1,
   "print": 1,
   "read": 1,
   "report": 1,
   "role": "System Manager",
   "share": 1,
   "write": 1
  }
 ],
 "quick_entry": 1,
 "sort_field": "modified",
 "sort_order": "DESC",
 "track_changes": 1
}