[INFO] 2020-03-12 19:38:03,403 | /home/abhishek/Documents/Development/frappe/frappe-bench/apps/frappe/frappe/core/doctype/scheduled_job_type/scheduled_job_type.py:
Site: pos
Scheduled Job Complete: frappe.utils.global_search.sync_global_search for pos
[INFO] 2020-03-12 19:38:03,453 | /home/abhishek/Documents/Development/frappe/frappe-bench/apps/frappe/frappe/core/doctype/scheduled_job_type/scheduled_job_type.py:
Site: pos
Scheduled Job Start: frappe.integrations.doctype.razorpay_settings.razorpay_settings.capture_payment for pos
[INFO] 2020-03-12 19:38:03,459 | /home/abhishek/Documents/Development/frappe/frappe-bench/apps/frappe/frappe/core/doctype/scheduled_job_type/scheduled_job_type.py:
Site: pos
Scheduled Job Complete: frappe.integrations.doctype.razorpay_settings.razorpay_settings.capture_payment for pos
[INFO] 2020-03-12 19:38:03,495 | /home/abhishek/Documents/Development/frappe/frappe-bench/apps/frappe/frappe/core/doctype/scheduled_job_type/scheduled_job_type.py:
Site: pos
Scheduled Job Start: frappe.email.doctype.email_account.email_account.notify_unreplied for pos
[INFO] 2020-03-12 19:38:03,525 | /home/abhishek/Documents/Development/frappe/frappe-bench/apps/frappe/frappe/core/doctype/scheduled_job_type/scheduled_job_type.py:
Site: pos
Scheduled Job Complete: frappe.email.doctype.email_account.email_account.notify_unreplied for pos
[INFO] 2020-03-12 19:38:03,560 | /home/abhishek/Documents/Development/frappe/frappe-bench/apps/frappe/frappe/core/doctype/scheduled_job_type/scheduled_job_type.py:
Site: pos
Scheduled Job Start: frappe.email.doctype.email_account.email_account.pull for pos
[INFO] 2020-03-12 19:38:03,595 | /home/abhishek/Documents/Development/frappe/frappe-bench/apps/frappe/frappe/core/doctype/scheduled_job_type/scheduled_job_type.py:
Site: pos
Scheduled Job Complete: frappe.email.doctype.email_account.email_account.pull for pos
[INFO] 2020-03-12 19:38:03,631 | /home/abhishek/Documents/Development/frappe/frappe-bench/apps/frappe/frappe/core/doctype/scheduled_job_type/scheduled_job_type.py:
Site: pos
Scheduled Job Start: frappe.email.queue.flush for pos
[INFO] 2020-03-12 19:38:03,647 | /home/abhishek/Documents/Development/frappe/frappe-bench/apps/frappe/frappe/core/doctype/scheduled_job_type/scheduled_job_type.py:
Site: pos
Scheduled Job Complete: frappe.email.queue.flush for pos
[INFO] 2020-03-12 19:39:03,547 | /home/abhishek/Documents/Development/frappe/frappe-bench/apps/frappe/frappe/core/doctype/scheduled_job_type/scheduled_job_type.py:
Site: pos
Scheduled Job Start: frappe.utils.global_search.sync_global_search for pos
[INFO] 2020-03-12 19:39:03,548 | /home/abhishek/Documents/Development/frappe/frappe-bench/apps/frappe/frappe/core/doctype/scheduled_job_type/scheduled_job_type.py:
Site: pos
Scheduled Job Complete: frappe.utils.global_search.sync_global_search for pos
[INFO] 2020-03-12 19:39:03,586 | /home/abhishek/Documents/Development/frappe/frappe-bench/apps/frappe/frappe/core/doctype/scheduled_job_type/scheduled_job_type.py:
Site: pos
Scheduled Job Start: frappe.integrations.doctype.razorpay_settings.razorpay_settings.capture_payment for pos
[INFO] 2020-03-12 19:39:03,592 | /home/abhishek/Documents/Development/frappe/frappe-bench/apps/frappe/frappe/core/doctype/scheduled_job_type/scheduled_job_type.py:
Site: pos
Scheduled Job Complete: frappe.integrations.doctype.razorpay_settings.razorpay_settings.capture_payment for pos
[INFO] 2020-03-12 19:39:03,626 | /home/abhishek/Documents/Development/frappe/frappe-bench/apps/frappe/frappe/core/doctype/scheduled_job_type/scheduled_job_type.py:
Site: pos
Scheduled Job Start: frappe.email.doctype.email_account.email_account.notify_unreplied for pos
[INFO] 2020-03-12 19:39:03,655 | /home/abhishek/Documents/Development/frappe/frappe-bench/apps/frappe/frappe/core/doctype/scheduled_job_type/scheduled_job_type.py:
Site: pos
Scheduled Job Complete: frappe.email.doctype.email_account.email_account.notify_unreplied for pos
[INFO] 2020-03-12 19:39:03,696 | /home/abhishek/Documents/Development/frappe/frappe-bench/apps/frappe/frappe/core/doctype/scheduled_job_type/scheduled_job_type.py:
Site: pos
Scheduled Job Start: frappe.email.doctype.email_account.email_account.pull for pos
[INFO] 2020-03-12 19:39:03,732 | /home/abhishek/Documents/Development/frappe/frappe-bench/apps/frappe/frappe/core/doctype/scheduled_job_type/scheduled_job_type.py:
Site: pos
Scheduled Job Complete: frappe.email.doctype.email_account.email_account.pull for pos
[INFO] 2020-03-12 19:39:03,770 | /home/abhishek/Documents/Development/frappe/frappe-bench/apps/frappe/frappe/core/doctype/scheduled_job_type/scheduled_job_type.py:
Site: pos
Scheduled Job Start: frappe.email.queue.flush for pos
[INFO] 2020-03-12 19:39:03,785 | /home/abhishek/Documents/Development/frappe/frappe-bench/apps/frappe/frappe/core/doctype/scheduled_job_type/scheduled_job_type.py:
Site: pos
Scheduled Job Complete: frappe.email.queue.flush for pos
