[INFO] 2020-03-12 19:01:56,328 | /home/abhishek/Documents/Development/frappe/frappe-bench/apps/frappe/frappe/core/doctype/scheduled_job_type/scheduled_job_type.py:
Site: pos
Scheduled Job Complete: frappe.integrations.doctype.razorpay_settings.razorpay_settings.capture_payment for pos
[INFO] 2020-03-12 19:01:56,377 | /home/abhishek/Documents/Development/frappe/frappe-bench/apps/frappe/frappe/core/doctype/scheduled_job_type/scheduled_job_type.py:
Site: pos
Scheduled Job Start: frappe.email.doctype.email_account.email_account.notify_unreplied for pos
[INFO] 2020-03-12 19:01:56,411 | /home/abhishek/Documents/Development/frappe/frappe-bench/apps/frappe/frappe/core/doctype/scheduled_job_type/scheduled_job_type.py:
Site: pos
Scheduled Job Complete: frappe.email.doctype.email_account.email_account.notify_unreplied for pos
[INFO] 2020-03-12 19:01:56,448 | /home/abhishek/Documents/Development/frappe/frappe-bench/apps/frappe/frappe/core/doctype/scheduled_job_type/scheduled_job_type.py:
Site: pos
Scheduled Job Start: frappe.email.doctype.email_account.email_account.pull for pos
[INFO] 2020-03-12 19:01:56,486 | /home/abhishek/Documents/Development/frappe/frappe-bench/apps/frappe/frappe/core/doctype/scheduled_job_type/scheduled_job_type.py:
Site: pos
Scheduled Job Complete: frappe.email.doctype.email_account.email_account.pull for pos
[INFO] 2020-03-12 19:01:56,521 | /home/abhishek/Documents/Development/frappe/frappe-bench/apps/frappe/frappe/core/doctype/scheduled_job_type/scheduled_job_type.py:
Site: pos
Scheduled Job Start: frappe.email.queue.flush for pos
[INFO] 2020-03-12 19:01:56,538 | /home/abhishek/Documents/Development/frappe/frappe-bench/apps/frappe/frappe/core/doctype/scheduled_job_type/scheduled_job_type.py:
Site: pos
Scheduled Job Complete: frappe.email.queue.flush for pos
