[DEBUG] 2020-03-12 17:48:21,760 | /home/abhishek/Documents/Development/frappe/frappe-bench/apps/frappe/frappe/utils/scheduler.py:
Site: pos
Queued events for site pos
[INFO] 2020-03-12 17:48:24,359 | /home/abhishek/Documents/Development/frappe/frappe-bench/apps/frappe/frappe/core/doctype/scheduled_job_type/scheduled_job_type.py:
Site: pos
Scheduled Job Start: frappe.utils.global_search.sync_global_search for pos
[INFO] 2020-03-12 17:48:24,642 | /home/abhishek/Documents/Development/frappe/frappe-bench/apps/frappe/frappe/core/doctype/scheduled_job_type/scheduled_job_type.py:
Site: pos
Scheduled Job Complete: frappe.utils.global_search.sync_global_search for pos
[INFO] 2020-03-12 17:48:27,195 | /home/abhishek/Documents/Development/frappe/frappe-bench/apps/frappe/frappe/core/doctype/scheduled_job_type/scheduled_job_type.py:
Site: pos
Scheduled Job Start: frappe.integrations.doctype.razorpay_settings.razorpay_settings.capture_payment for pos
[INFO] 2020-03-12 17:48:27,699 | /home/abhishek/Documents/Development/frappe/frappe-bench/apps/frappe/frappe/core/doctype/scheduled_job_type/scheduled_job_type.py:
Site: pos
Scheduled Job Complete: frappe.integrations.doctype.razorpay_settings.razorpay_settings.capture_payment for pos
[INFO] 2020-03-12 17:48:28,944 | /home/abhishek/Documents/Development/frappe/frappe-bench/apps/frappe/frappe/core/doctype/scheduled_job_type/scheduled_job_type.py:
Site: pos
Scheduled Job Start: frappe.email.doctype.email_account.email_account.notify_unreplied for pos
[INFO] 2020-03-12 17:48:29,505 | /home/abhishek/Documents/Development/frappe/frappe-bench/apps/frappe/frappe/core/doctype/scheduled_job_type/scheduled_job_type.py:
Site: pos
Scheduled Job Complete: frappe.email.doctype.email_account.email_account.notify_unreplied for pos
[INFO] 2020-03-12 17:48:30,076 | /home/abhishek/Documents/Development/frappe/frappe-bench/apps/frappe/frappe/core/doctype/scheduled_job_type/scheduled_job_type.py:
Site: pos
Scheduled Job Start: frappe.email.doctype.email_account.email_account.pull for pos
[INFO] 2020-03-12 17:48:30,886 | /home/abhishek/Documents/Development/frappe/frappe-bench/apps/frappe/frappe/core/doctype/scheduled_job_type/scheduled_job_type.py:
Site: pos
Scheduled Job Complete: frappe.email.doctype.email_account.email_account.pull for pos
[INFO] 2020-03-12 17:48:31,750 | /home/abhishek/Documents/Development/frappe/frappe-bench/apps/frappe/frappe/core/doctype/scheduled_job_type/scheduled_job_type.py:
Site: pos
Scheduled Job Start: frappe.email.queue.flush for pos
[INFO] 2020-03-12 17:48:32,770 | /home/abhishek/Documents/Development/frappe/frappe-bench/apps/frappe/frappe/core/doctype/scheduled_job_type/scheduled_job_type.py:
Site: pos
Scheduled Job Complete: frappe.email.queue.flush for pos
[DEBUG] 2020-03-12 17:49:22,320 | /home/abhishek/Documents/Development/frappe/frappe-bench/apps/frappe/frappe/utils/scheduler.py:
Site: pos
Queued events for site pos
[INFO] 2020-03-12 17:49:22,375 | /home/abhishek/Documents/Development/frappe/frappe-bench/apps/frappe/frappe/core/doctype/scheduled_job_type/scheduled_job_type.py:
Site: pos
Scheduled Job Start: frappe.utils.global_search.sync_global_search for pos
[INFO] 2020-03-12 17:49:22,375 | /home/abhishek/Documents/Development/frappe/frappe-bench/apps/frappe/frappe/core/doctype/scheduled_job_type/scheduled_job_type.py:
Site: pos
Scheduled Job Complete: frappe.utils.global_search.sync_global_search for pos
[INFO] 2020-03-12 17:49:22,415 | /home/abhishek/Documents/Development/frappe/frappe-bench/apps/frappe/frappe/core/doctype/scheduled_job_type/scheduled_job_type.py:
Site: pos
Scheduled Job Start: frappe.integrations.doctype.razorpay_settings.razorpay_settings.capture_payment for pos
[INFO] 2020-03-12 17:49:22,427 | /home/abhishek/Documents/Development/frappe/frappe-bench/apps/frappe/frappe/core/doctype/scheduled_job_type/scheduled_job_type.py:
Site: pos
Scheduled Job Complete: frappe.integrations.doctype.razorpay_settings.razorpay_settings.capture_payment for pos
[INFO] 2020-03-12 17:49:22,467 | /home/abhishek/Documents/Development/frappe/frappe-bench/apps/frappe/frappe/core/doctype/scheduled_job_type/scheduled_job_type.py:
Site: pos
Scheduled Job Start: frappe.email.doctype.email_account.email_account.notify_unreplied for pos
[INFO] 2020-03-12 17:49:22,535 | /home/abhishek/Documents/Development/frappe/frappe-bench/apps/frappe/frappe/core/doctype/scheduled_job_type/scheduled_job_type.py:
Site: pos
Scheduled Job Complete: frappe.email.doctype.email_account.email_account.notify_unreplied for pos
[INFO] 2020-03-12 17:49:22,576 | /home/abhishek/Documents/Development/frappe/frappe-bench/apps/frappe/frappe/core/doctype/scheduled_job_type/scheduled_job_type.py:
Site: pos
Scheduled Job Start: frappe.email.doctype.email_account.email_account.pull for pos
[INFO] 2020-03-12 17:49:22,620 | /home/abhishek/Documents/Development/frappe/frappe-bench/apps/frappe/frappe/core/doctype/scheduled_job_type/scheduled_job_type.py:
Site: pos
Scheduled Job Complete: frappe.email.doctype.email_account.email_account.pull for pos
[INFO] 2020-03-12 17:49:22,660 | /home/abhishek/Documents/Development/frappe/frappe-bench/apps/frappe/frappe/core/doctype/scheduled_job_type/scheduled_job_type.py:
Site: pos
Scheduled Job Start: frappe.email.queue.flush for pos
[INFO] 2020-03-12 17:49:22,677 | /home/abhishek/Documents/Development/frappe/frappe-bench/apps/frappe/frappe/core/doctype/scheduled_job_type/scheduled_job_type.py:
Site: pos
Scheduled Job Complete: frappe.email.queue.flush for pos
[DEBUG] 2020-03-12 17:50:22,575 | /home/abhishek/Documents/Development/frappe/frappe-bench/apps/frappe/frappe/utils/scheduler.py:
Site: pos
Queued events for site pos
[INFO] 2020-03-12 17:50:22,626 | /home/abhishek/Documents/Development/frappe/frappe-bench/apps/frappe/frappe/core/doctype/scheduled_job_type/scheduled_job_type.py:
Site: pos
Scheduled Job Start: frappe.utils.global_search.sync_global_search for pos
[INFO] 2020-03-12 17:50:22,626 | /home/abhishek/Documents/Development/frappe/frappe-bench/apps/frappe/frappe/core/doctype/scheduled_job_type/scheduled_job_type.py:
Site: pos
Scheduled Job Complete: frappe.utils.global_search.sync_global_search for pos
[INFO] 2020-03-12 17:50:22,666 | /home/abhishek/Documents/Development/frappe/frappe-bench/apps/frappe/frappe/core/doctype/scheduled_job_type/scheduled_job_type.py:
Site: pos
Scheduled Job Start: frappe.integrations.doctype.razorpay_settings.razorpay_settings.capture_payment for pos
[INFO] 2020-03-12 17:50:22,678 | /home/abhishek/Documents/Development/frappe/frappe-bench/apps/frappe/frappe/core/doctype/scheduled_job_type/scheduled_job_type.py:
Site: pos
Scheduled Job Complete: frappe.integrations.doctype.razorpay_settings.razorpay_settings.capture_payment for pos
[INFO] 2020-03-12 17:50:22,715 | /home/abhishek/Documents/Development/frappe/frappe-bench/apps/frappe/frappe/core/doctype/scheduled_job_type/scheduled_job_type.py:
Site: pos
Scheduled Job Start: frappe.email.doctype.email_account.email_account.notify_unreplied for pos
[INFO] 2020-03-12 17:50:22,771 | /home/abhishek/Documents/Development/frappe/frappe-bench/apps/frappe/frappe/core/doctype/scheduled_job_type/scheduled_job_type.py:
Site: pos
Scheduled Job Complete: frappe.email.doctype.email_account.email_account.notify_unreplied for pos
[INFO] 2020-03-12 17:50:22,810 | /home/abhishek/Documents/Development/frappe/frappe-bench/apps/frappe/frappe/core/doctype/scheduled_job_type/scheduled_job_type.py:
Site: pos
Scheduled Job Start: frappe.email.doctype.email_account.email_account.pull for pos
[INFO] 2020-03-12 17:50:22,860 | /home/abhishek/Documents/Development/frappe/frappe-bench/apps/frappe/frappe/core/doctype/scheduled_job_type/scheduled_job_type.py:
Site: pos
Scheduled Job Complete: frappe.email.doctype.email_account.email_account.pull for pos
[INFO] 2020-03-12 17:50:22,892 | /home/abhishek/Documents/Development/frappe/frappe-bench/apps/frappe/frappe/core/doctype/scheduled_job_type/scheduled_job_type.py:
Site: pos
Scheduled Job Start: frappe.email.queue.flush for pos
[INFO] 2020-03-12 17:50:22,909 | /home/abhishek/Documents/Development/frappe/frappe-bench/apps/frappe/frappe/core/doctype/scheduled_job_type/scheduled_job_type.py:
Site: pos
Scheduled Job Complete: frappe.email.queue.flush for pos
[DEBUG] 2020-03-12 17:51:22,753 | /home/abhishek/Documents/Development/frappe/frappe-bench/apps/frappe/frappe/utils/scheduler.py:
Site: pos
Queued events for site pos
[INFO] 2020-03-12 17:51:22,813 | /home/abhishek/Documents/Development/frappe/frappe-bench/apps/frappe/frappe/core/doctype/scheduled_job_type/scheduled_job_type.py:
Site: pos
Scheduled Job Start: frappe.utils.global_search.sync_global_search for pos
[INFO] 2020-03-12 17:51:22,814 | /home/abhishek/Documents/Development/frappe/frappe-bench/apps/frappe/frappe/core/doctype/scheduled_job_type/scheduled_job_type.py:
Site: pos
Scheduled Job Complete: frappe.utils.global_search.sync_global_search for pos
[INFO] 2020-03-12 17:51:22,859 | /home/abhishek/Documents/Development/frappe/frappe-bench/apps/frappe/frappe/core/doctype/scheduled_job_type/scheduled_job_type.py:
Site: pos
Scheduled Job Start: frappe.integrations.doctype.razorpay_settings.razorpay_settings.capture_payment for pos
[INFO] 2020-03-12 17:51:22,872 | /home/abhishek/Documents/Development/frappe/frappe-bench/apps/frappe/frappe/core/doctype/scheduled_job_type/scheduled_job_type.py:
Site: pos
Scheduled Job Complete: frappe.integrations.doctype.razorpay_settings.razorpay_settings.capture_payment for pos
[INFO] 2020-03-12 17:51:22,908 | /home/abhishek/Documents/Development/frappe/frappe-bench/apps/frappe/frappe/core/doctype/scheduled_job_type/scheduled_job_type.py:
Site: pos
Scheduled Job Start: frappe.email.doctype.email_account.email_account.notify_unreplied for pos
[INFO] 2020-03-12 17:51:22,976 | /home/abhishek/Documents/Development/frappe/frappe-bench/apps/frappe/frappe/core/doctype/scheduled_job_type/scheduled_job_type.py:
Site: pos
Scheduled Job Complete: frappe.email.doctype.email_account.email_account.notify_unreplied for pos
[INFO] 2020-03-12 17:51:23,015 | /home/abhishek/Documents/Development/frappe/frappe-bench/apps/frappe/frappe/core/doctype/scheduled_job_type/scheduled_job_type.py:
Site: pos
Scheduled Job Start: frappe.email.doctype.email_account.email_account.pull for pos
[INFO] 2020-03-12 17:51:23,062 | /home/abhishek/Documents/Development/frappe/frappe-bench/apps/frappe/frappe/core/doctype/scheduled_job_type/scheduled_job_type.py:
Site: pos
Scheduled Job Complete: frappe.email.doctype.email_account.email_account.pull for pos
[INFO] 2020-03-12 17:51:23,103 | /home/abhishek/Documents/Development/frappe/frappe-bench/apps/frappe/frappe/core/doctype/scheduled_job_type/scheduled_job_type.py:
Site: pos
Scheduled Job Start: frappe.email.queue.flush for pos
[INFO] 2020-03-12 17:51:23,121 | /home/abhishek/Documents/Development/frappe/frappe-bench/apps/frappe/frappe/core/doctype/scheduled_job_type/scheduled_job_type.py:
Site: pos
Scheduled Job Complete: frappe.email.queue.flush for pos
[DEBUG] 2020-03-12 17:52:23,131 | /home/abhishek/Documents/Development/frappe/frappe-bench/apps/frappe/frappe/utils/scheduler.py:
Site: pos
Queued events for site pos
[INFO] 2020-03-12 17:52:23,301 | /home/abhishek/Documents/Development/frappe/frappe-bench/apps/frappe/frappe/core/doctype/scheduled_job_type/scheduled_job_type.py:
Site: pos
Scheduled Job Start: frappe.utils.global_search.sync_global_search for pos
[INFO] 2020-03-12 17:52:23,302 | /home/abhishek/Documents/Development/frappe/frappe-bench/apps/frappe/frappe/core/doctype/scheduled_job_type/scheduled_job_type.py:
Site: pos
Scheduled Job Complete: frappe.utils.global_search.sync_global_search for pos
[INFO] 2020-03-12 17:52:23,406 | /home/abhishek/Documents/Development/frappe/frappe-bench/apps/frappe/frappe/core/doctype/scheduled_job_type/scheduled_job_type.py:
Site: pos
Scheduled Job Start: frappe.integrations.doctype.razorpay_settings.razorpay_settings.capture_payment for pos
[INFO] 2020-03-12 17:52:23,448 | /home/abhishek/Documents/Development/frappe/frappe-bench/apps/frappe/frappe/core/doctype/scheduled_job_type/scheduled_job_type.py:
Site: pos
Scheduled Job Complete: frappe.integrations.doctype.razorpay_settings.razorpay_settings.capture_payment for pos
[INFO] 2020-03-12 17:52:23,481 | /home/abhishek/Documents/Development/frappe/frappe-bench/apps/frappe/frappe/core/doctype/scheduled_job_type/scheduled_job_type.py:
Site: pos
Scheduled Job Start: frappe.email.doctype.email_account.email_account.notify_unreplied for pos
[INFO] 2020-03-12 17:52:23,730 | /home/abhishek/Documents/Development/frappe/frappe-bench/apps/frappe/frappe/core/doctype/scheduled_job_type/scheduled_job_type.py:
Site: pos
Scheduled Job Complete: frappe.email.doctype.email_account.email_account.notify_unreplied for pos
[INFO] 2020-03-12 17:52:23,942 | /home/abhishek/Documents/Development/frappe/frappe-bench/apps/frappe/frappe/core/doctype/scheduled_job_type/scheduled_job_type.py:
Site: pos
Scheduled Job Start: frappe.email.doctype.email_account.email_account.pull for pos
[INFO] 2020-03-12 17:52:24,149 | /home/abhishek/Documents/Development/frappe/frappe-bench/apps/frappe/frappe/core/doctype/scheduled_job_type/scheduled_job_type.py:
Site: pos
Scheduled Job Complete: frappe.email.doctype.email_account.email_account.pull for pos
[INFO] 2020-03-12 17:52:24,204 | /home/abhishek/Documents/Development/frappe/frappe-bench/apps/frappe/frappe/core/doctype/scheduled_job_type/scheduled_job_type.py:
Site: pos
Scheduled Job Start: frappe.email.queue.flush for pos
[INFO] 2020-03-12 17:52:24,229 | /home/abhishek/Documents/Development/frappe/frappe-bench/apps/frappe/frappe/core/doctype/scheduled_job_type/scheduled_job_type.py:
Site: pos
Scheduled Job Complete: frappe.email.queue.flush for pos
[DEBUG] 2020-03-12 17:53:24,122 | /home/abhishek/Documents/Development/frappe/frappe-bench/apps/frappe/frappe/utils/scheduler.py:
Site: pos
Queued events for site pos
[INFO] 2020-03-12 17:53:24,177 | /home/abhishek/Documents/Development/frappe/frappe-bench/apps/frappe/frappe/core/doctype/scheduled_job_type/scheduled_job_type.py:
Site: pos
Scheduled Job Start: frappe.utils.global_search.sync_global_search for pos
[INFO] 2020-03-12 17:53:24,178 | /home/abhishek/Documents/Development/frappe/frappe-bench/apps/frappe/frappe/core/doctype/scheduled_job_type/scheduled_job_type.py:
Site: pos
Scheduled Job Complete: frappe.utils.global_search.sync_global_search for pos
[INFO] 2020-03-12 17:53:24,219 | /home/abhishek/Documents/Development/frappe/frappe-bench/apps/frappe/frappe/core/doctype/scheduled_job_type/scheduled_job_type.py:
Site: pos
Scheduled Job Start: frappe.integrations.doctype.razorpay_settings.razorpay_settings.capture_payment for pos
[INFO] 2020-03-12 17:53:24,235 | /home/abhishek/Documents/Development/frappe/frappe-bench/apps/frappe/frappe/core/doctype/scheduled_job_type/scheduled_job_type.py:
Site: pos
Scheduled Job Complete: frappe.integrations.doctype.razorpay_settings.razorpay_settings.capture_payment for pos
[INFO] 2020-03-12 17:53:24,274 | /home/abhishek/Documents/Development/frappe/frappe-bench/apps/frappe/frappe/core/doctype/scheduled_job_type/scheduled_job_type.py:
Site: pos
Scheduled Job Start: frappe.email.doctype.email_account.email_account.notify_unreplied for pos
[INFO] 2020-03-12 17:53:24,341 | /home/abhishek/Documents/Development/frappe/frappe-bench/apps/frappe/frappe/core/doctype/scheduled_job_type/scheduled_job_type.py:
Site: pos
Scheduled Job Complete: frappe.email.doctype.email_account.email_account.notify_unreplied for pos
[INFO] 2020-03-12 17:53:24,378 | /home/abhishek/Documents/Development/frappe/frappe-bench/apps/frappe/frappe/core/doctype/scheduled_job_type/scheduled_job_type.py:
Site: pos
Scheduled Job Start: frappe.email.doctype.email_account.email_account.pull for pos
[INFO] 2020-03-12 17:53:24,422 | /home/abhishek/Documents/Development/frappe/frappe-bench/apps/frappe/frappe/core/doctype/scheduled_job_type/scheduled_job_type.py:
Site: pos
Scheduled Job Complete: frappe.email.doctype.email_account.email_account.pull for pos
[INFO] 2020-03-12 17:53:24,458 | /home/abhishek/Documents/Development/frappe/frappe-bench/apps/frappe/frappe/core/doctype/scheduled_job_type/scheduled_job_type.py:
Site: pos
Scheduled Job Start: frappe.email.queue.flush for pos
[INFO] 2020-03-12 17:53:24,475 | /home/abhishek/Documents/Development/frappe/frappe-bench/apps/frappe/frappe/core/doctype/scheduled_job_type/scheduled_job_type.py:
Site: pos
Scheduled Job Complete: frappe.email.queue.flush for pos
[DEBUG] 2020-03-12 17:54:24,370 | /home/abhishek/Documents/Development/frappe/frappe-bench/apps/frappe/frappe/utils/scheduler.py:
Site: pos
Queued events for site pos
[INFO] 2020-03-12 17:54:24,436 | /home/abhishek/Documents/Development/frappe/frappe-bench/apps/frappe/frappe/core/doctype/scheduled_job_type/scheduled_job_type.py:
Site: pos
Scheduled Job Start: frappe.utils.global_search.sync_global_search for pos
[INFO] 2020-03-12 17:54:24,437 | /home/abhishek/Documents/Development/frappe/frappe-bench/apps/frappe/frappe/core/doctype/scheduled_job_type/scheduled_job_type.py:
Site: pos
Scheduled Job Complete: frappe.utils.global_search.sync_global_search for pos
[INFO] 2020-03-12 17:54:24,479 | /home/abhishek/Documents/Development/frappe/frappe-bench/apps/frappe/frappe/core/doctype/scheduled_job_type/scheduled_job_type.py:
Site: pos
Scheduled Job Start: frappe.integrations.doctype.razorpay_settings.razorpay_settings.capture_payment for pos
[INFO] 2020-03-12 17:54:24,489 | /home/abhishek/Documents/Development/frappe/frappe-bench/apps/frappe/frappe/core/doctype/scheduled_job_type/scheduled_job_type.py:
Site: pos
Scheduled Job Complete: frappe.integrations.doctype.razorpay_settings.razorpay_settings.capture_payment for pos
[INFO] 2020-03-12 17:54:24,535 | /home/abhishek/Documents/Development/frappe/frappe-bench/apps/frappe/frappe/core/doctype/scheduled_job_type/scheduled_job_type.py:
Site: pos
Scheduled Job Start: frappe.email.doctype.email_account.email_account.notify_unreplied for pos
[INFO] 2020-03-12 17:54:24,601 | /home/abhishek/Documents/Development/frappe/frappe-bench/apps/frappe/frappe/core/doctype/scheduled_job_type/scheduled_job_type.py:
Site: pos
Scheduled Job Complete: frappe.email.doctype.email_account.email_account.notify_unreplied for pos
[INFO] 2020-03-12 17:54:24,644 | /home/abhishek/Documents/Development/frappe/frappe-bench/apps/frappe/frappe/core/doctype/scheduled_job_type/scheduled_job_type.py:
Site: pos
Scheduled Job Start: frappe.email.doctype.email_account.email_account.pull for pos
[INFO] 2020-03-12 17:54:24,687 | /home/abhishek/Documents/Development/frappe/frappe-bench/apps/frappe/frappe/core/doctype/scheduled_job_type/scheduled_job_type.py:
Site: pos
Scheduled Job Complete: frappe.email.doctype.email_account.email_account.pull for pos
[INFO] 2020-03-12 17:54:24,728 | /home/abhishek/Documents/Development/frappe/frappe-bench/apps/frappe/frappe/core/doctype/scheduled_job_type/scheduled_job_type.py:
Site: pos
Scheduled Job Start: frappe.email.queue.flush for pos
[INFO] 2020-03-12 17:54:24,745 | /home/abhishek/Documents/Development/frappe/frappe-bench/apps/frappe/frappe/core/doctype/scheduled_job_type/scheduled_job_type.py:
Site: pos
Scheduled Job Complete: frappe.email.queue.flush for pos
[DEBUG] 2020-03-12 17:55:24,568 | /home/abhishek/Documents/Development/frappe/frappe-bench/apps/frappe/frappe/utils/scheduler.py:
Site: pos
Queued events for site pos
[INFO] 2020-03-12 17:55:24,627 | /home/abhishek/Documents/Development/frappe/frappe-bench/apps/frappe/frappe/core/doctype/scheduled_job_type/scheduled_job_type.py:
Site: pos
Scheduled Job Start: frappe.utils.global_search.sync_global_search for pos
[INFO] 2020-03-12 17:55:24,628 | /home/abhishek/Documents/Development/frappe/frappe-bench/apps/frappe/frappe/core/doctype/scheduled_job_type/scheduled_job_type.py:
Site: pos
Scheduled Job Complete: frappe.utils.global_search.sync_global_search for pos
[INFO] 2020-03-12 17:55:24,669 | /home/abhishek/Documents/Development/frappe/frappe-bench/apps/frappe/frappe/core/doctype/scheduled_job_type/scheduled_job_type.py:
Site: pos
Scheduled Job Start: frappe.integrations.doctype.razorpay_settings.razorpay_settings.capture_payment for pos
[INFO] 2020-03-12 17:55:24,683 | /home/abhishek/Documents/Development/frappe/frappe-bench/apps/frappe/frappe/core/doctype/scheduled_job_type/scheduled_job_type.py:
Site: pos
Scheduled Job Complete: frappe.integrations.doctype.razorpay_settings.razorpay_settings.capture_payment for pos
[INFO] 2020-03-12 17:55:24,725 | /home/abhishek/Documents/Development/frappe/frappe-bench/apps/frappe/frappe/core/doctype/scheduled_job_type/scheduled_job_type.py:
Site: pos
Scheduled Job Start: frappe.email.doctype.email_account.email_account.notify_unreplied for pos
[INFO] 2020-03-12 17:55:24,796 | /home/abhishek/Documents/Development/frappe/frappe-bench/apps/frappe/frappe/core/doctype/scheduled_job_type/scheduled_job_type.py:
Site: pos
Scheduled Job Complete: frappe.email.doctype.email_account.email_account.notify_unreplied for pos
[INFO] 2020-03-12 17:55:24,834 | /home/abhishek/Documents/Development/frappe/frappe-bench/apps/frappe/frappe/core/doctype/scheduled_job_type/scheduled_job_type.py:
Site: pos
Scheduled Job Start: frappe.email.doctype.email_account.email_account.pull for pos
[INFO] 2020-03-12 17:55:24,884 | /home/abhishek/Documents/Development/frappe/frappe-bench/apps/frappe/frappe/core/doctype/scheduled_job_type/scheduled_job_type.py:
Site: pos
Scheduled Job Complete: frappe.email.doctype.email_account.email_account.pull for pos
[INFO] 2020-03-12 17:55:24,926 | /home/abhishek/Documents/Development/frappe/frappe-bench/apps/frappe/frappe/core/doctype/scheduled_job_type/scheduled_job_type.py:
Site: pos
Scheduled Job Start: frappe.email.queue.flush for pos
[INFO] 2020-03-12 17:55:24,946 | /home/abhishek/Documents/Development/frappe/frappe-bench/apps/frappe/frappe/core/doctype/scheduled_job_type/scheduled_job_type.py:
Site: pos
Scheduled Job Complete: frappe.email.queue.flush for pos
[DEBUG] 2020-03-12 17:56:24,745 | /home/abhishek/Documents/Development/frappe/frappe-bench/apps/frappe/frappe/utils/scheduler.py:
Site: pos
Queued events for site pos
[INFO] 2020-03-12 17:56:24,810 | /home/abhishek/Documents/Development/frappe/frappe-bench/apps/frappe/frappe/core/doctype/scheduled_job_type/scheduled_job_type.py:
Site: pos
Scheduled Job Start: frappe.utils.global_search.sync_global_search for pos
[INFO] 2020-03-12 17:56:24,811 | /home/abhishek/Documents/Development/frappe/frappe-bench/apps/frappe/frappe/core/doctype/scheduled_job_type/scheduled_job_type.py:
Site: pos
Scheduled Job Complete: frappe.utils.global_search.sync_global_search for pos
[INFO] 2020-03-12 17:56:24,856 | /home/abhishek/Documents/Development/frappe/frappe-bench/apps/frappe/frappe/core/doctype/scheduled_job_type/scheduled_job_type.py:
Site: pos
Scheduled Job Start: frappe.integrations.doctype.razorpay_settings.razorpay_settings.capture_payment for pos
[INFO] 2020-03-12 17:56:24,868 | /home/abhishek/Documents/Development/frappe/frappe-bench/apps/frappe/frappe/core/doctype/scheduled_job_type/scheduled_job_type.py:
Site: pos
Scheduled Job Complete: frappe.integrations.doctype.razorpay_settings.razorpay_settings.capture_payment for pos
[INFO] 2020-03-12 17:56:24,908 | /home/abhishek/Documents/Development/frappe/frappe-bench/apps/frappe/frappe/core/doctype/scheduled_job_type/scheduled_job_type.py:
Site: pos
Scheduled Job Start: frappe.email.doctype.email_account.email_account.notify_unreplied for pos
[INFO] 2020-03-12 17:56:24,983 | /home/abhishek/Documents/Development/frappe/frappe-bench/apps/frappe/frappe/core/doctype/scheduled_job_type/scheduled_job_type.py:
Site: pos
Scheduled Job Complete: frappe.email.doctype.email_account.email_account.notify_unreplied for pos
[INFO] 2020-03-12 17:56:25,020 | /home/abhishek/Documents/Development/frappe/frappe-bench/apps/frappe/frappe/core/doctype/scheduled_job_type/scheduled_job_type.py:
Site: pos
Scheduled Job Start: frappe.email.doctype.email_account.email_account.pull for pos
[INFO] 2020-03-12 17:56:25,073 | /home/abhishek/Documents/Development/frappe/frappe-bench/apps/frappe/frappe/core/doctype/scheduled_job_type/scheduled_job_type.py:
Site: pos
Scheduled Job Complete: frappe.email.doctype.email_account.email_account.pull for pos
[INFO] 2020-03-12 17:56:25,118 | /home/abhishek/Documents/Development/frappe/frappe-bench/apps/frappe/frappe/core/doctype/scheduled_job_type/scheduled_job_type.py:
Site: pos
Scheduled Job Start: frappe.email.queue.flush for pos
[INFO] 2020-03-12 17:56:25,137 | /home/abhishek/Documents/Development/frappe/frappe-bench/apps/frappe/frappe/core/doctype/scheduled_job_type/scheduled_job_type.py:
Site: pos
Scheduled Job Complete: frappe.email.queue.flush for pos
[DEBUG] 2020-03-12 17:57:35,473 | /home/abhishek/Documents/Development/frappe/frappe-bench/apps/frappe/frappe/utils/scheduler.py:
Site: pos
Queued events for site pos
[INFO] 2020-03-12 17:57:38,497 | /home/abhishek/Documents/Development/frappe/frappe-bench/apps/frappe/frappe/core/doctype/scheduled_job_type/scheduled_job_type.py:
Site: pos
Scheduled Job Start: frappe.utils.global_search.sync_global_search for pos
[INFO] 2020-03-12 17:57:38,740 | /home/abhishek/Documents/Development/frappe/frappe-bench/apps/frappe/frappe/core/doctype/scheduled_job_type/scheduled_job_type.py:
Site: pos
Scheduled Job Complete: frappe.utils.global_search.sync_global_search for pos
[INFO] 2020-03-12 17:57:39,565 | /home/abhishek/Documents/Development/frappe/frappe-bench/apps/frappe/frappe/core/doctype/scheduled_job_type/scheduled_job_type.py:
Site: pos
Scheduled Job Start: frappe.integrations.doctype.razorpay_settings.razorpay_settings.capture_payment for pos
[INFO] 2020-03-12 17:57:40,048 | /home/abhishek/Documents/Development/frappe/frappe-bench/apps/frappe/frappe/core/doctype/scheduled_job_type/scheduled_job_type.py:
Site: pos
Scheduled Job Complete: frappe.integrations.doctype.razorpay_settings.razorpay_settings.capture_payment for pos
[INFO] 2020-03-12 17:57:40,328 | /home/abhishek/Documents/Development/frappe/frappe-bench/apps/frappe/frappe/core/doctype/scheduled_job_type/scheduled_job_type.py:
Site: pos
Scheduled Job Start: frappe.email.doctype.email_account.email_account.notify_unreplied for pos
[INFO] 2020-03-12 17:57:42,074 | /home/abhishek/Documents/Development/frappe/frappe-bench/apps/frappe/frappe/core/doctype/scheduled_job_type/scheduled_job_type.py:
Site: pos
Scheduled Job Complete: frappe.email.doctype.email_account.email_account.notify_unreplied for pos
[INFO] 2020-03-12 17:57:42,256 | /home/abhishek/Documents/Development/frappe/frappe-bench/apps/frappe/frappe/core/doctype/scheduled_job_type/scheduled_job_type.py:
Site: pos
Scheduled Job Start: frappe.email.doctype.email_account.email_account.pull for pos
[INFO] 2020-03-12 17:57:42,479 | /home/abhishek/Documents/Development/frappe/frappe-bench/apps/frappe/frappe/core/doctype/scheduled_job_type/scheduled_job_type.py:
Site: pos
Scheduled Job Complete: frappe.email.doctype.email_account.email_account.pull for pos
[INFO] 2020-03-12 17:57:42,514 | /home/abhishek/Documents/Development/frappe/frappe-bench/apps/frappe/frappe/core/doctype/scheduled_job_type/scheduled_job_type.py:
Site: pos
Scheduled Job Start: frappe.email.queue.flush for pos
[INFO] 2020-03-12 17:57:42,591 | /home/abhishek/Documents/Development/frappe/frappe-bench/apps/frappe/frappe/core/doctype/scheduled_job_type/scheduled_job_type.py:
Site: pos
Scheduled Job Complete: frappe.email.queue.flush for pos
[DEBUG] 2020-03-12 17:58:35,718 | /home/abhishek/Documents/Development/frappe/frappe-bench/apps/frappe/frappe/utils/scheduler.py:
Site: pos
Queued events for site pos
[INFO] 2020-03-12 17:58:35,776 | /home/abhishek/Documents/Development/frappe/frappe-bench/apps/frappe/frappe/core/doctype/scheduled_job_type/scheduled_job_type.py:
Site: pos
Scheduled Job Start: frappe.utils.global_search.sync_global_search for pos
[INFO] 2020-03-12 17:58:35,777 | /home/abhishek/Documents/Development/frappe/frappe-bench/apps/frappe/frappe/core/doctype/scheduled_job_type/scheduled_job_type.py:
Site: pos
Scheduled Job Complete: frappe.utils.global_search.sync_global_search for pos
[INFO] 2020-03-12 17:58:35,817 | /home/abhishek/Documents/Development/frappe/frappe-bench/apps/frappe/frappe/core/doctype/scheduled_job_type/scheduled_job_type.py:
Site: pos
Scheduled Job Start: frappe.integrations.doctype.razorpay_settings.razorpay_settings.capture_payment for pos
[INFO] 2020-03-12 17:58:35,828 | /home/abhishek/Documents/Development/frappe/frappe-bench/apps/frappe/frappe/core/doctype/scheduled_job_type/scheduled_job_type.py:
Site: pos
Scheduled Job Complete: frappe.integrations.doctype.razorpay_settings.razorpay_settings.capture_payment for pos
[INFO] 2020-03-12 17:58:35,867 | /home/abhishek/Documents/Development/frappe/frappe-bench/apps/frappe/frappe/core/doctype/scheduled_job_type/scheduled_job_type.py:
Site: pos
Scheduled Job Start: frappe.email.doctype.email_account.email_account.notify_unreplied for pos
[INFO] 2020-03-12 17:58:35,935 | /home/abhishek/Documents/Development/frappe/frappe-bench/apps/frappe/frappe/core/doctype/scheduled_job_type/scheduled_job_type.py:
Site: pos
Scheduled Job Complete: frappe.email.doctype.email_account.email_account.notify_unreplied for pos
[INFO] 2020-03-12 17:58:35,976 | /home/abhishek/Documents/Development/frappe/frappe-bench/apps/frappe/frappe/core/doctype/scheduled_job_type/scheduled_job_type.py:
Site: pos
Scheduled Job Start: frappe.email.doctype.email_account.email_account.pull for pos
[INFO] 2020-03-12 17:58:36,022 | /home/abhishek/Documents/Development/frappe/frappe-bench/apps/frappe/frappe/core/doctype/scheduled_job_type/scheduled_job_type.py:
Site: pos
Scheduled Job Complete: frappe.email.doctype.email_account.email_account.pull for pos
[INFO] 2020-03-12 17:58:36,060 | /home/abhishek/Documents/Development/frappe/frappe-bench/apps/frappe/frappe/core/doctype/scheduled_job_type/scheduled_job_type.py:
Site: pos
Scheduled Job Start: frappe.email.queue.flush for pos
[INFO] 2020-03-12 17:58:36,076 | /home/abhishek/Documents/Development/frappe/frappe-bench/apps/frappe/frappe/core/doctype/scheduled_job_type/scheduled_job_type.py:
Site: pos
Scheduled Job Complete: frappe.email.queue.flush for pos
[DEBUG] 2020-03-12 17:59:35,853 | /home/abhishek/Documents/Development/frappe/frappe-bench/apps/frappe/frappe/utils/scheduler.py:
Site: pos
Queued events for site pos
[INFO] 2020-03-12 17:59:35,867 | /home/abhishek/Documents/Development/frappe/frappe-bench/apps/frappe/frappe/core/doctype/scheduled_job_type/scheduled_job_type.py:
Site: pos
Scheduled Job Start: frappe.utils.global_search.sync_global_search for pos
[INFO] 2020-03-12 17:59:35,868 | /home/abhishek/Documents/Development/frappe/frappe-bench/apps/frappe/frappe/core/doctype/scheduled_job_type/scheduled_job_type.py:
Site: pos
Scheduled Job Complete: frappe.utils.global_search.sync_global_search for pos
[INFO] 2020-03-12 17:59:35,905 | /home/abhishek/Documents/Development/frappe/frappe-bench/apps/frappe/frappe/core/doctype/scheduled_job_type/scheduled_job_type.py:
Site: pos
Scheduled Job Start: frappe.integrations.doctype.razorpay_settings.razorpay_settings.capture_payment for pos
[INFO] 2020-03-12 17:59:35,912 | /home/abhishek/Documents/Development/frappe/frappe-bench/apps/frappe/frappe/core/doctype/scheduled_job_type/scheduled_job_type.py:
Site: pos
Scheduled Job Complete: frappe.integrations.doctype.razorpay_settings.razorpay_settings.capture_payment for pos
[INFO] 2020-03-12 17:59:35,948 | /home/abhishek/Documents/Development/frappe/frappe-bench/apps/frappe/frappe/core/doctype/scheduled_job_type/scheduled_job_type.py:
Site: pos
Scheduled Job Start: frappe.email.doctype.email_account.email_account.notify_unreplied for pos
[INFO] 2020-03-12 17:59:35,977 | /home/abhishek/Documents/Development/frappe/frappe-bench/apps/frappe/frappe/core/doctype/scheduled_job_type/scheduled_job_type.py:
Site: pos
Scheduled Job Complete: frappe.email.doctype.email_account.email_account.notify_unreplied for pos
[INFO] 2020-03-12 17:59:36,012 | /home/abhishek/Documents/Development/frappe/frappe-bench/apps/frappe/frappe/core/doctype/scheduled_job_type/scheduled_job_type.py:
Site: pos
Scheduled Job Start: frappe.email.doctype.email_account.email_account.pull for pos
[INFO] 2020-03-12 17:59:36,048 | /home/abhishek/Documents/Development/frappe/frappe-bench/apps/frappe/frappe/core/doctype/scheduled_job_type/scheduled_job_type.py:
Site: pos
Scheduled Job Complete: frappe.email.doctype.email_account.email_account.pull for pos
[INFO] 2020-03-12 17:59:36,084 | /home/abhishek/Documents/Development/frappe/frappe-bench/apps/frappe/frappe/core/doctype/scheduled_job_type/scheduled_job_type.py:
Site: pos
Scheduled Job Start: frappe.email.queue.flush for pos
[INFO] 2020-03-12 17:59:36,102 | /home/abhishek/Documents/Development/frappe/frappe-bench/apps/frappe/frappe/core/doctype/scheduled_job_type/scheduled_job_type.py:
Site: pos
Scheduled Job Complete: frappe.email.queue.flush for pos
[DEBUG] 2020-03-12 18:00:36,029 | /home/abhishek/Documents/Development/frappe/frappe-bench/apps/frappe/frappe/utils/scheduler.py:
Site: pos
Queued events for site pos
[INFO] 2020-03-12 18:00:36,038 | /home/abhishek/Documents/Development/frappe/frappe-bench/apps/frappe/frappe/core/doctype/scheduled_job_type/scheduled_job_type.py:
Site: pos
Scheduled Job Start: frappe.integrations.doctype.google_calendar.google_calendar.sync for pos
[INFO] 2020-03-12 18:00:36,375 | /home/abhishek/Documents/Development/frappe/frappe-bench/apps/frappe/frappe/core/doctype/scheduled_job_type/scheduled_job_type.py:
Site: pos
Scheduled Job Complete: frappe.integrations.doctype.google_calendar.google_calendar.sync for pos
[INFO] 2020-03-12 18:00:36,428 | /home/abhishek/Documents/Development/frappe/frappe-bench/apps/frappe/frappe/core/doctype/scheduled_job_type/scheduled_job_type.py:
Site: pos
Scheduled Job Start: frappe.desk.form.document_follow.send_hourly_updates for pos
[INFO] 2020-03-12 18:00:36,497 | /home/abhishek/Documents/Development/frappe/frappe-bench/apps/frappe/frappe/core/doctype/scheduled_job_type/scheduled_job_type.py:
Site: pos
Scheduled Job Complete: frappe.desk.form.document_follow.send_hourly_updates for pos
[INFO] 2020-03-12 18:00:36,543 | /home/abhishek/Documents/Development/frappe/frappe-bench/apps/frappe/frappe/core/doctype/scheduled_job_type/scheduled_job_type.py:
Site: pos
Scheduled Job Start: frappe.deferred_insert.save_to_db for pos
[INFO] 2020-03-12 18:00:36,610 | /home/abhishek/Documents/Development/frappe/frappe-bench/apps/frappe/frappe/core/doctype/scheduled_job_type/scheduled_job_type.py:
Site: pos
Scheduled Job Complete: frappe.deferred_insert.save_to_db for pos
[INFO] 2020-03-12 18:00:36,658 | /home/abhishek/Documents/Development/frappe/frappe-bench/apps/frappe/frappe/core/doctype/scheduled_job_type/scheduled_job_type.py:
Site: pos
Scheduled Job Start: frappe.desk.page.backups.backups.delete_downloadable_backups for pos
[INFO] 2020-03-12 18:00:36,736 | /home/abhishek/Documents/Development/frappe/frappe-bench/apps/frappe/frappe/core/doctype/scheduled_job_type/scheduled_job_type.py:
Site: pos
Scheduled Job Complete: frappe.desk.page.backups.backups.delete_downloadable_backups for pos
[INFO] 2020-03-12 18:00:36,781 | /home/abhishek/Documents/Development/frappe/frappe-bench/apps/frappe/frappe/core/doctype/scheduled_job_type/scheduled_job_type.py:
Site: pos
Scheduled Job Start: frappe.utils.error.collect_error_snapshots for pos
[INFO] 2020-03-12 18:00:36,853 | /home/abhishek/Documents/Development/frappe/frappe-bench/apps/frappe/frappe/core/doctype/scheduled_job_type/scheduled_job_type.py:
Site: pos
Scheduled Job Complete: frappe.utils.error.collect_error_snapshots for pos
[INFO] 2020-03-12 18:00:36,901 | /home/abhishek/Documents/Development/frappe/frappe-bench/apps/frappe/frappe/core/doctype/scheduled_job_type/scheduled_job_type.py:
Site: pos
Scheduled Job Start: frappe.model.utils.user_settings.sync_user_settings for pos
[INFO] 2020-03-12 18:00:36,973 | /home/abhishek/Documents/Development/frappe/frappe-bench/apps/frappe/frappe/core/doctype/scheduled_job_type/scheduled_job_type.py:
Site: pos
Scheduled Job Complete: frappe.model.utils.user_settings.sync_user_settings for pos
[INFO] 2020-03-12 18:00:37,017 | /home/abhishek/Documents/Development/frappe/frappe-bench/apps/frappe/frappe/core/doctype/scheduled_job_type/scheduled_job_type.py:
Site: pos
Scheduled Job Start: frappe.model.utils.link_count.update_link_count for pos
[INFO] 2020-03-12 18:00:37,096 | /home/abhishek/Documents/Development/frappe/frappe-bench/apps/frappe/frappe/core/doctype/scheduled_job_type/scheduled_job_type.py:
Site: pos
Scheduled Job Complete: frappe.model.utils.link_count.update_link_count for pos
[INFO] 2020-03-12 18:00:37,140 | /home/abhishek/Documents/Development/frappe/frappe-bench/apps/frappe/frappe/core/doctype/scheduled_job_type/scheduled_job_type.py:
Site: pos
Scheduled Job Start: frappe.utils.global_search.sync_global_search for pos
[INFO] 2020-03-12 18:00:37,142 | /home/abhishek/Documents/Development/frappe/frappe-bench/apps/frappe/frappe/core/doctype/scheduled_job_type/scheduled_job_type.py:
Site: pos
Scheduled Job Complete: frappe.utils.global_search.sync_global_search for pos
[INFO] 2020-03-12 18:00:37,184 | /home/abhishek/Documents/Development/frappe/frappe-bench/apps/frappe/frappe/core/doctype/scheduled_job_type/scheduled_job_type.py:
Site: pos
Scheduled Job Start: frappe.integrations.doctype.razorpay_settings.razorpay_settings.capture_payment for pos
[INFO] 2020-03-12 18:00:37,208 | /home/abhishek/Documents/Development/frappe/frappe-bench/apps/frappe/frappe/core/doctype/scheduled_job_type/scheduled_job_type.py:
Site: pos
Scheduled Job Complete: frappe.integrations.doctype.razorpay_settings.razorpay_settings.capture_payment for pos
[INFO] 2020-03-12 18:00:37,257 | /home/abhishek/Documents/Development/frappe/frappe-bench/apps/frappe/frappe/core/doctype/scheduled_job_type/scheduled_job_type.py:
Site: pos
Scheduled Job Start: frappe.email.doctype.email_account.email_account.notify_unreplied for pos
[INFO] 2020-03-12 18:00:37,316 | /home/abhishek/Documents/Development/frappe/frappe-bench/apps/frappe/frappe/core/doctype/scheduled_job_type/scheduled_job_type.py:
Site: pos
Scheduled Job Complete: frappe.email.doctype.email_account.email_account.notify_unreplied for pos
[INFO] 2020-03-12 18:00:37,352 | /home/abhishek/Documents/Development/frappe/frappe-bench/apps/frappe/frappe/core/doctype/scheduled_job_type/scheduled_job_type.py:
Site: pos
Scheduled Job Start: frappe.email.doctype.email_account.email_account.pull for pos
[INFO] 2020-03-12 18:00:37,391 | /home/abhishek/Documents/Development/frappe/frappe-bench/apps/frappe/frappe/core/doctype/scheduled_job_type/scheduled_job_type.py:
Site: pos
Scheduled Job Complete: frappe.email.doctype.email_account.email_account.pull for pos
[INFO] 2020-03-12 18:00:37,427 | /home/abhishek/Documents/Development/frappe/frappe-bench/apps/frappe/frappe/core/doctype/scheduled_job_type/scheduled_job_type.py:
Site: pos
Scheduled Job Start: frappe.email.queue.flush for pos
[INFO] 2020-03-12 18:00:37,448 | /home/abhishek/Documents/Development/frappe/frappe-bench/apps/frappe/frappe/core/doctype/scheduled_job_type/scheduled_job_type.py:
Site: pos
Scheduled Job Complete: frappe.email.queue.flush for pos
[INFO] 2020-03-12 18:00:37,487 | /home/abhishek/Documents/Development/frappe/frappe-bench/apps/frappe/frappe/core/doctype/scheduled_job_type/scheduled_job_type.py:
Site: pos
Scheduled Job Start: frappe.twofactor.delete_all_barcodes_for_users for pos
[INFO] 2020-03-12 18:00:37,565 | /home/abhishek/Documents/Development/frappe/frappe-bench/apps/frappe/frappe/core/doctype/scheduled_job_type/scheduled_job_type.py:
Site: pos
Scheduled Job Complete: frappe.twofactor.delete_all_barcodes_for_users for pos
[INFO] 2020-03-12 18:00:37,609 | /home/abhishek/Documents/Development/frappe/frappe-bench/apps/frappe/frappe/core/doctype/scheduled_job_type/scheduled_job_type.py:
Site: pos
Scheduled Job Start: frappe.website.doctype.web_page.web_page.check_publish_status for pos
[INFO] 2020-03-12 18:00:37,698 | /home/abhishek/Documents/Development/frappe/frappe-bench/apps/frappe/frappe/core/doctype/scheduled_job_type/scheduled_job_type.py:
Site: pos
Scheduled Job Complete: frappe.website.doctype.web_page.web_page.check_publish_status for pos
[INFO] 2020-03-12 18:00:37,744 | /home/abhishek/Documents/Development/frappe/frappe-bench/apps/frappe/frappe/core/doctype/scheduled_job_type/scheduled_job_type.py:
Site: pos
Scheduled Job Start: frappe.oauth.delete_oauth2_data for pos
[INFO] 2020-03-12 18:00:37,858 | /home/abhishek/Documents/Development/frappe/frappe-bench/apps/frappe/frappe/core/doctype/scheduled_job_type/scheduled_job_type.py:
Site: pos
Scheduled Job Complete: frappe.oauth.delete_oauth2_data for pos
[DEBUG] 2020-03-12 18:01:36,532 | /home/abhishek/Documents/Development/frappe/frappe-bench/apps/frappe/frappe/utils/scheduler.py:
Site: pos
Queued events for site pos
[INFO] 2020-03-12 18:01:36,593 | /home/abhishek/Documents/Development/frappe/frappe-bench/apps/frappe/frappe/core/doctype/scheduled_job_type/scheduled_job_type.py:
Site: pos
Scheduled Job Start: frappe.utils.global_search.sync_global_search for pos
[INFO] 2020-03-12 18:01:36,594 | /home/abhishek/Documents/Development/frappe/frappe-bench/apps/frappe/frappe/core/doctype/scheduled_job_type/scheduled_job_type.py:
Site: pos
Scheduled Job Complete: frappe.utils.global_search.sync_global_search for pos
[INFO] 2020-03-12 18:01:36,638 | /home/abhishek/Documents/Development/frappe/frappe-bench/apps/frappe/frappe/core/doctype/scheduled_job_type/scheduled_job_type.py:
Site: pos
Scheduled Job Start: frappe.integrations.doctype.razorpay_settings.razorpay_settings.capture_payment for pos
[INFO] 2020-03-12 18:01:36,651 | /home/abhishek/Documents/Development/frappe/frappe-bench/apps/frappe/frappe/core/doctype/scheduled_job_type/scheduled_job_type.py:
Site: pos
Scheduled Job Complete: frappe.integrations.doctype.razorpay_settings.razorpay_settings.capture_payment for pos
[INFO] 2020-03-12 18:01:36,696 | /home/abhishek/Documents/Development/frappe/frappe-bench/apps/frappe/frappe/core/doctype/scheduled_job_type/scheduled_job_type.py:
Site: pos
Scheduled Job Start: frappe.email.doctype.email_account.email_account.notify_unreplied for pos
[INFO] 2020-03-12 18:01:36,754 | /home/abhishek/Documents/Development/frappe/frappe-bench/apps/frappe/frappe/core/doctype/scheduled_job_type/scheduled_job_type.py:
Site: pos
Scheduled Job Complete: frappe.email.doctype.email_account.email_account.notify_unreplied for pos
[INFO] 2020-03-12 18:01:36,788 | /home/abhishek/Documents/Development/frappe/frappe-bench/apps/frappe/frappe/core/doctype/scheduled_job_type/scheduled_job_type.py:
Site: pos
Scheduled Job Start: frappe.email.doctype.email_account.email_account.pull for pos
[INFO] 2020-03-12 18:01:36,836 | /home/abhishek/Documents/Development/frappe/frappe-bench/apps/frappe/frappe/core/doctype/scheduled_job_type/scheduled_job_type.py:
Site: pos
Scheduled Job Complete: frappe.email.doctype.email_account.email_account.pull for pos
[INFO] 2020-03-12 18:01:36,879 | /home/abhishek/Documents/Development/frappe/frappe-bench/apps/frappe/frappe/core/doctype/scheduled_job_type/scheduled_job_type.py:
Site: pos
Scheduled Job Start: frappe.email.queue.flush for pos
[INFO] 2020-03-12 18:01:36,896 | /home/abhishek/Documents/Development/frappe/frappe-bench/apps/frappe/frappe/core/doctype/scheduled_job_type/scheduled_job_type.py:
Site: pos
Scheduled Job Complete: frappe.email.queue.flush for pos
[ERROR] 2020-03-12 18:03:54,255 | /home/abhishek/Documents/Development/frappe/frappe-bench/apps/frappe/frappe/utils/scheduler.py:
Site: pos
Exception in Enqueue Events for Site pos
Traceback (most recent call last):
  File "/home/abhishek/Documents/Development/frappe/frappe-bench/env/lib/python3.6/site-packages/pymysql/connections.py", line 691, in _read_bytes
    data = self._rfile.read(num_bytes)
  File "/usr/lib/python3.6/socket.py", line 586, in readinto
    return self._sock.recv_into(b)
ConnectionResetError: [Errno 104] Connection reset by peer

During handling of the above exception, another exception occurred:

Traceback (most recent call last):
  File "/home/abhishek/Documents/Development/frappe/frappe-bench/apps/frappe/frappe/utils/scheduler.py", line 59, in enqueue_events_for_site
    if is_scheduler_inactive():
  File "/home/abhishek/Documents/Development/frappe/frappe-bench/apps/frappe/frappe/utils/scheduler.py", line 92, in is_scheduler_inactive
    if is_scheduler_disabled():
  File "/home/abhishek/Documents/Development/frappe/frappe-bench/apps/frappe/frappe/utils/scheduler.py", line 101, in is_scheduler_disabled
    return not frappe.utils.cint(frappe.db.get_single_value("System Settings", "enable_scheduler"))
  File "/home/abhishek/Documents/Development/frappe/frappe-bench/apps/frappe/frappe/database/database.py", line 553, in get_single_value
    `tabSingles` where `doctype`=%s and `field`=%s""", (doctype, fieldname))
  File "/home/abhishek/Documents/Development/frappe/frappe-bench/apps/frappe/frappe/database/database.py", line 122, in sql
    self.connect()
  File "/home/abhishek/Documents/Development/frappe/frappe-bench/apps/frappe/frappe/database/database.py", line 75, in connect
    self._conn = self.get_connection()
  File "/home/abhishek/Documents/Development/frappe/frappe-bench/apps/frappe/frappe/database/mariadb/database.py", line 90, in get_connection
    local_infile = frappe.conf.local_infile)
  File "/home/abhishek/Documents/Development/frappe/frappe-bench/env/lib/python3.6/site-packages/pymysql/__init__.py", line 94, in Connect
    return Connection(*args, **kwargs)
  File "/home/abhishek/Documents/Development/frappe/frappe-bench/env/lib/python3.6/site-packages/pymysql/connections.py", line 325, in __init__
    self.connect()
  File "/home/abhishek/Documents/Development/frappe/frappe-bench/env/lib/python3.6/site-packages/pymysql/connections.py", line 599, in connect
    self._request_authentication()
  File "/home/abhishek/Documents/Development/frappe/frappe-bench/env/lib/python3.6/site-packages/pymysql/connections.py", line 861, in _request_authentication
    auth_packet = self._read_packet()
  File "/home/abhishek/Documents/Development/frappe/frappe-bench/env/lib/python3.6/site-packages/pymysql/connections.py", line 657, in _read_packet
    packet_header = self._read_bytes(4)
  File "/home/abhishek/Documents/Development/frappe/frappe-bench/env/lib/python3.6/site-packages/pymysql/connections.py", line 699, in _read_bytes
    "Lost connection to MySQL server during query (%s)" % (e,))
pymysql.err.OperationalError: (2013, 'Lost connection to MySQL server during query ([Errno 104] Connection reset by peer)')

[DEBUG] 2020-03-12 18:04:55,838 | /home/abhishek/Documents/Development/frappe/frappe-bench/apps/frappe/frappe/utils/scheduler.py:
Site: pos
Queued events for site pos
[INFO] 2020-03-12 18:04:55,902 | /home/abhishek/Documents/Development/frappe/frappe-bench/apps/frappe/frappe/core/doctype/scheduled_job_type/scheduled_job_type.py:
Site: pos
Scheduled Job Start: frappe.utils.global_search.sync_global_search for pos
[INFO] 2020-03-12 18:04:55,903 | /home/abhishek/Documents/Development/frappe/frappe-bench/apps/frappe/frappe/core/doctype/scheduled_job_type/scheduled_job_type.py:
Site: pos
Scheduled Job Complete: frappe.utils.global_search.sync_global_search for pos
[INFO] 2020-03-12 18:04:55,951 | /home/abhishek/Documents/Development/frappe/frappe-bench/apps/frappe/frappe/core/doctype/scheduled_job_type/scheduled_job_type.py:
Site: pos
Scheduled Job Start: frappe.integrations.doctype.razorpay_settings.razorpay_settings.capture_payment for pos
[INFO] 2020-03-12 18:04:55,966 | /home/abhishek/Documents/Development/frappe/frappe-bench/apps/frappe/frappe/core/doctype/scheduled_job_type/scheduled_job_type.py:
Site: pos
Scheduled Job Complete: frappe.integrations.doctype.razorpay_settings.razorpay_settings.capture_payment for pos
[INFO] 2020-03-12 18:04:56,004 | /home/abhishek/Documents/Development/frappe/frappe-bench/apps/frappe/frappe/core/doctype/scheduled_job_type/scheduled_job_type.py:
Site: pos
Scheduled Job Start: frappe.email.doctype.email_account.email_account.notify_unreplied for pos
[INFO] 2020-03-12 18:04:56,074 | /home/abhishek/Documents/Development/frappe/frappe-bench/apps/frappe/frappe/core/doctype/scheduled_job_type/scheduled_job_type.py:
Site: pos
Scheduled Job Complete: frappe.email.doctype.email_account.email_account.notify_unreplied for pos
[INFO] 2020-03-12 18:04:56,115 | /home/abhishek/Documents/Development/frappe/frappe-bench/apps/frappe/frappe/core/doctype/scheduled_job_type/scheduled_job_type.py:
Site: pos
Scheduled Job Start: frappe.email.doctype.email_account.email_account.pull for pos
[INFO] 2020-03-12 18:04:56,164 | /home/abhishek/Documents/Development/frappe/frappe-bench/apps/frappe/frappe/core/doctype/scheduled_job_type/scheduled_job_type.py:
Site: pos
Scheduled Job Complete: frappe.email.doctype.email_account.email_account.pull for pos
[INFO] 2020-03-12 18:04:56,213 | /home/abhishek/Documents/Development/frappe/frappe-bench/apps/frappe/frappe/core/doctype/scheduled_job_type/scheduled_job_type.py:
Site: pos
Scheduled Job Start: frappe.email.queue.flush for pos
[INFO] 2020-03-12 18:04:56,233 | /home/abhishek/Documents/Development/frappe/frappe-bench/apps/frappe/frappe/core/doctype/scheduled_job_type/scheduled_job_type.py:
Site: pos
Scheduled Job Complete: frappe.email.queue.flush for pos
[DEBUG] 2020-03-12 18:05:55,987 | /home/abhishek/Documents/Development/frappe/frappe-bench/apps/frappe/frappe/utils/scheduler.py:
Site: pos
Queued events for site pos
[INFO] 2020-03-12 18:05:56,002 | /home/abhishek/Documents/Development/frappe/frappe-bench/apps/frappe/frappe/core/doctype/scheduled_job_type/scheduled_job_type.py:
Site: pos
Scheduled Job Start: frappe.utils.global_search.sync_global_search for pos
[INFO] 2020-03-12 18:05:56,003 | /home/abhishek/Documents/Development/frappe/frappe-bench/apps/frappe/frappe/core/doctype/scheduled_job_type/scheduled_job_type.py:
Site: pos
Scheduled Job Complete: frappe.utils.global_search.sync_global_search for pos
[INFO] 2020-03-12 18:05:56,040 | /home/abhishek/Documents/Development/frappe/frappe-bench/apps/frappe/frappe/core/doctype/scheduled_job_type/scheduled_job_type.py:
Site: pos
Scheduled Job Start: frappe.integrations.doctype.razorpay_settings.razorpay_settings.capture_payment for pos
[INFO] 2020-03-12 18:05:56,048 | /home/abhishek/Documents/Development/frappe/frappe-bench/apps/frappe/frappe/core/doctype/scheduled_job_type/scheduled_job_type.py:
Site: pos
Scheduled Job Complete: frappe.integrations.doctype.razorpay_settings.razorpay_settings.capture_payment for pos
[INFO] 2020-03-12 18:05:56,085 | /home/abhishek/Documents/Development/frappe/frappe-bench/apps/frappe/frappe/core/doctype/scheduled_job_type/scheduled_job_type.py:
Site: pos
Scheduled Job Start: frappe.email.doctype.email_account.email_account.notify_unreplied for pos
[INFO] 2020-03-12 18:05:56,119 | /home/abhishek/Documents/Development/frappe/frappe-bench/apps/frappe/frappe/core/doctype/scheduled_job_type/scheduled_job_type.py:
Site: pos
Scheduled Job Complete: frappe.email.doctype.email_account.email_account.notify_unreplied for pos
[INFO] 2020-03-12 18:05:56,156 | /home/abhishek/Documents/Development/frappe/frappe-bench/apps/frappe/frappe/core/doctype/scheduled_job_type/scheduled_job_type.py:
Site: pos
Scheduled Job Start: frappe.email.doctype.email_account.email_account.pull for pos
[INFO] 2020-03-12 18:05:56,197 | /home/abhishek/Documents/Development/frappe/frappe-bench/apps/frappe/frappe/core/doctype/scheduled_job_type/scheduled_job_type.py:
Site: pos
Scheduled Job Complete: frappe.email.doctype.email_account.email_account.pull for pos
[INFO] 2020-03-12 18:05:56,234 | /home/abhishek/Documents/Development/frappe/frappe-bench/apps/frappe/frappe/core/doctype/scheduled_job_type/scheduled_job_type.py:
Site: pos
Scheduled Job Start: frappe.email.queue.flush for pos
[INFO] 2020-03-12 18:05:56,254 | /home/abhishek/Documents/Development/frappe/frappe-bench/apps/frappe/frappe/core/doctype/scheduled_job_type/scheduled_job_type.py:
Site: pos
Scheduled Job Complete: frappe.email.queue.flush for pos
[DEBUG] 2020-03-12 18:06:56,140 | /home/abhishek/Documents/Development/frappe/frappe-bench/apps/frappe/frappe/utils/scheduler.py:
Site: pos
Queued events for site pos
[INFO] 2020-03-12 18:06:56,154 | /home/abhishek/Documents/Development/frappe/frappe-bench/apps/frappe/frappe/core/doctype/scheduled_job_type/scheduled_job_type.py:
Site: pos
Scheduled Job Start: frappe.utils.global_search.sync_global_search for pos
[INFO] 2020-03-12 18:06:56,155 | /home/abhishek/Documents/Development/frappe/frappe-bench/apps/frappe/frappe/core/doctype/scheduled_job_type/scheduled_job_type.py:
Site: pos
Scheduled Job Complete: frappe.utils.global_search.sync_global_search for pos
[INFO] 2020-03-12 18:06:56,196 | /home/abhishek/Documents/Development/frappe/frappe-bench/apps/frappe/frappe/core/doctype/scheduled_job_type/scheduled_job_type.py:
Site: pos
Scheduled Job Start: frappe.integrations.doctype.razorpay_settings.razorpay_settings.capture_payment for pos
[INFO] 2020-03-12 18:06:56,204 | /home/abhishek/Documents/Development/frappe/frappe-bench/apps/frappe/frappe/core/doctype/scheduled_job_type/scheduled_job_type.py:
Site: pos
Scheduled Job Complete: frappe.integrations.doctype.razorpay_settings.razorpay_settings.capture_payment for pos
[INFO] 2020-03-12 18:06:56,248 | /home/abhishek/Documents/Development/frappe/frappe-bench/apps/frappe/frappe/core/doctype/scheduled_job_type/scheduled_job_type.py:
Site: pos
Scheduled Job Start: frappe.email.doctype.email_account.email_account.notify_unreplied for pos
[INFO] 2020-03-12 18:06:56,281 | /home/abhishek/Documents/Development/frappe/frappe-bench/apps/frappe/frappe/core/doctype/scheduled_job_type/scheduled_job_type.py:
Site: pos
Scheduled Job Complete: frappe.email.doctype.email_account.email_account.notify_unreplied for pos
[INFO] 2020-03-12 18:06:56,321 | /home/abhishek/Documents/Development/frappe/frappe-bench/apps/frappe/frappe/core/doctype/scheduled_job_type/scheduled_job_type.py:
Site: pos
Scheduled Job Start: frappe.email.doctype.email_account.email_account.pull for pos
[INFO] 2020-03-12 18:06:56,359 | /home/abhishek/Documents/Development/frappe/frappe-bench/apps/frappe/frappe/core/doctype/scheduled_job_type/scheduled_job_type.py:
Site: pos
Scheduled Job Complete: frappe.email.doctype.email_account.email_account.pull for pos
[INFO] 2020-03-12 18:06:56,397 | /home/abhishek/Documents/Development/frappe/frappe-bench/apps/frappe/frappe/core/doctype/scheduled_job_type/scheduled_job_type.py:
Site: pos
Scheduled Job Start: frappe.email.queue.flush for pos
[INFO] 2020-03-12 18:06:56,415 | /home/abhishek/Documents/Development/frappe/frappe-bench/apps/frappe/frappe/core/doctype/scheduled_job_type/scheduled_job_type.py:
Site: pos
Scheduled Job Complete: frappe.email.queue.flush for pos
[DEBUG] 2020-03-12 18:07:56,287 | /home/abhishek/Documents/Development/frappe/frappe-bench/apps/frappe/frappe/utils/scheduler.py:
Site: pos
Queued events for site pos
[INFO] 2020-03-12 18:07:56,302 | /home/abhishek/Documents/Development/frappe/frappe-bench/apps/frappe/frappe/core/doctype/scheduled_job_type/scheduled_job_type.py:
Site: pos
Scheduled Job Start: frappe.utils.global_search.sync_global_search for pos
[INFO] 2020-03-12 18:07:56,304 | /home/abhishek/Documents/Development/frappe/frappe-bench/apps/frappe/frappe/core/doctype/scheduled_job_type/scheduled_job_type.py:
Site: pos
Scheduled Job Complete: frappe.utils.global_search.sync_global_search for pos
[INFO] 2020-03-12 18:07:56,341 | /home/abhishek/Documents/Development/frappe/frappe-bench/apps/frappe/frappe/core/doctype/scheduled_job_type/scheduled_job_type.py:
Site: pos
Scheduled Job Start: frappe.integrations.doctype.razorpay_settings.razorpay_settings.capture_payment for pos
[INFO] 2020-03-12 18:07:56,348 | /home/abhishek/Documents/Development/frappe/frappe-bench/apps/frappe/frappe/core/doctype/scheduled_job_type/scheduled_job_type.py:
Site: pos
Scheduled Job Complete: frappe.integrations.doctype.razorpay_settings.razorpay_settings.capture_payment for pos
[INFO] 2020-03-12 18:07:56,385 | /home/abhishek/Documents/Development/frappe/frappe-bench/apps/frappe/frappe/core/doctype/scheduled_job_type/scheduled_job_type.py:
Site: pos
Scheduled Job Start: frappe.email.doctype.email_account.email_account.notify_unreplied for pos
[INFO] 2020-03-12 18:07:56,420 | /home/abhishek/Documents/Development/frappe/frappe-bench/apps/frappe/frappe/core/doctype/scheduled_job_type/scheduled_job_type.py:
Site: pos
Scheduled Job Complete: frappe.email.doctype.email_account.email_account.notify_unreplied for pos
[INFO] 2020-03-12 18:07:56,457 | /home/abhishek/Documents/Development/frappe/frappe-bench/apps/frappe/frappe/core/doctype/scheduled_job_type/scheduled_job_type.py:
Site: pos
Scheduled Job Start: frappe.email.doctype.email_account.email_account.pull for pos
[INFO] 2020-03-12 18:07:56,495 | /home/abhishek/Documents/Development/frappe/frappe-bench/apps/frappe/frappe/core/doctype/scheduled_job_type/scheduled_job_type.py:
Site: pos
Scheduled Job Complete: frappe.email.doctype.email_account.email_account.pull for pos
[INFO] 2020-03-12 18:07:56,532 | /home/abhishek/Documents/Development/frappe/frappe-bench/apps/frappe/frappe/core/doctype/scheduled_job_type/scheduled_job_type.py:
Site: pos
Scheduled Job Start: frappe.email.queue.flush for pos
[INFO] 2020-03-12 18:07:56,551 | /home/abhishek/Documents/Development/frappe/frappe-bench/apps/frappe/frappe/core/doctype/scheduled_job_type/scheduled_job_type.py:
Site: pos
Scheduled Job Complete: frappe.email.queue.flush for pos
[DEBUG] 2020-03-12 18:08:56,433 | /home/abhishek/Documents/Development/frappe/frappe-bench/apps/frappe/frappe/utils/scheduler.py:
Site: pos
Queued events for site pos
[INFO] 2020-03-12 18:08:56,449 | /home/abhishek/Documents/Development/frappe/frappe-bench/apps/frappe/frappe/core/doctype/scheduled_job_type/scheduled_job_type.py:
Site: pos
Scheduled Job Start: frappe.utils.global_search.sync_global_search for pos
[INFO] 2020-03-12 18:08:56,450 | /home/abhishek/Documents/Development/frappe/frappe-bench/apps/frappe/frappe/core/doctype/scheduled_job_type/scheduled_job_type.py:
Site: pos
Scheduled Job Complete: frappe.utils.global_search.sync_global_search for pos
[INFO] 2020-03-12 18:08:56,489 | /home/abhishek/Documents/Development/frappe/frappe-bench/apps/frappe/frappe/core/doctype/scheduled_job_type/scheduled_job_type.py:
Site: pos
Scheduled Job Start: frappe.integrations.doctype.razorpay_settings.razorpay_settings.capture_payment for pos
[INFO] 2020-03-12 18:08:56,496 | /home/abhishek/Documents/Development/frappe/frappe-bench/apps/frappe/frappe/core/doctype/scheduled_job_type/scheduled_job_type.py:
Site: pos
Scheduled Job Complete: frappe.integrations.doctype.razorpay_settings.razorpay_settings.capture_payment for pos
[INFO] 2020-03-12 18:08:56,536 | /home/abhishek/Documents/Development/frappe/frappe-bench/apps/frappe/frappe/core/doctype/scheduled_job_type/scheduled_job_type.py:
Site: pos
Scheduled Job Start: frappe.email.doctype.email_account.email_account.notify_unreplied for pos
[INFO] 2020-03-12 18:08:56,571 | /home/abhishek/Documents/Development/frappe/frappe-bench/apps/frappe/frappe/core/doctype/scheduled_job_type/scheduled_job_type.py:
Site: pos
Scheduled Job Complete: frappe.email.doctype.email_account.email_account.notify_unreplied for pos
[INFO] 2020-03-12 18:08:56,607 | /home/abhishek/Documents/Development/frappe/frappe-bench/apps/frappe/frappe/core/doctype/scheduled_job_type/scheduled_job_type.py:
Site: pos
Scheduled Job Start: frappe.email.doctype.email_account.email_account.pull for pos
[INFO] 2020-03-12 18:08:56,647 | /home/abhishek/Documents/Development/frappe/frappe-bench/apps/frappe/frappe/core/doctype/scheduled_job_type/scheduled_job_type.py:
Site: pos
Scheduled Job Complete: frappe.email.doctype.email_account.email_account.pull for pos
[INFO] 2020-03-12 18:08:56,682 | /home/abhishek/Documents/Development/frappe/frappe-bench/apps/frappe/frappe/core/doctype/scheduled_job_type/scheduled_job_type.py:
Site: pos
Scheduled Job Start: frappe.email.queue.flush for pos
[INFO] 2020-03-12 18:08:56,699 | /home/abhishek/Documents/Development/frappe/frappe-bench/apps/frappe/frappe/core/doctype/scheduled_job_type/scheduled_job_type.py:
Site: pos
Scheduled Job Complete: frappe.email.queue.flush for pos
[DEBUG] 2020-03-12 18:09:56,566 | /home/abhishek/Documents/Development/frappe/frappe-bench/apps/frappe/frappe/utils/scheduler.py:
Site: pos
Queued events for site pos
[INFO] 2020-03-12 18:09:56,581 | /home/abhishek/Documents/Development/frappe/frappe-bench/apps/frappe/frappe/core/doctype/scheduled_job_type/scheduled_job_type.py:
Site: pos
Scheduled Job Start: frappe.utils.global_search.sync_global_search for pos
[INFO] 2020-03-12 18:09:56,582 | /home/abhishek/Documents/Development/frappe/frappe-bench/apps/frappe/frappe/core/doctype/scheduled_job_type/scheduled_job_type.py:
Site: pos
Scheduled Job Complete: frappe.utils.global_search.sync_global_search for pos
[INFO] 2020-03-12 18:09:56,619 | /home/abhishek/Documents/Development/frappe/frappe-bench/apps/frappe/frappe/core/doctype/scheduled_job_type/scheduled_job_type.py:
Site: pos
Scheduled Job Start: frappe.integrations.doctype.razorpay_settings.razorpay_settings.capture_payment for pos
[INFO] 2020-03-12 18:09:56,627 | /home/abhishek/Documents/Development/frappe/frappe-bench/apps/frappe/frappe/core/doctype/scheduled_job_type/scheduled_job_type.py:
Site: pos
Scheduled Job Complete: frappe.integrations.doctype.razorpay_settings.razorpay_settings.capture_payment for pos
[INFO] 2020-03-12 18:09:56,664 | /home/abhishek/Documents/Development/frappe/frappe-bench/apps/frappe/frappe/core/doctype/scheduled_job_type/scheduled_job_type.py:
Site: pos
Scheduled Job Start: frappe.email.doctype.email_account.email_account.notify_unreplied for pos
[INFO] 2020-03-12 18:09:56,696 | /home/abhishek/Documents/Development/frappe/frappe-bench/apps/frappe/frappe/core/doctype/scheduled_job_type/scheduled_job_type.py:
Site: pos
Scheduled Job Complete: frappe.email.doctype.email_account.email_account.notify_unreplied for pos
[INFO] 2020-03-12 18:09:56,733 | /home/abhishek/Documents/Development/frappe/frappe-bench/apps/frappe/frappe/core/doctype/scheduled_job_type/scheduled_job_type.py:
Site: pos
Scheduled Job Start: frappe.email.doctype.email_account.email_account.pull for pos
[INFO] 2020-03-12 18:09:56,774 | /home/abhishek/Documents/Development/frappe/frappe-bench/apps/frappe/frappe/core/doctype/scheduled_job_type/scheduled_job_type.py:
Site: pos
Scheduled Job Complete: frappe.email.doctype.email_account.email_account.pull for pos
[INFO] 2020-03-12 18:09:56,813 | /home/abhishek/Documents/Development/frappe/frappe-bench/apps/frappe/frappe/core/doctype/scheduled_job_type/scheduled_job_type.py:
Site: pos
Scheduled Job Start: frappe.email.queue.flush for pos
[INFO] 2020-03-12 18:09:56,832 | /home/abhishek/Documents/Development/frappe/frappe-bench/apps/frappe/frappe/core/doctype/scheduled_job_type/scheduled_job_type.py:
Site: pos
Scheduled Job Complete: frappe.email.queue.flush for pos
[DEBUG] 2020-03-12 18:10:56,722 | /home/abhishek/Documents/Development/frappe/frappe-bench/apps/frappe/frappe/utils/scheduler.py:
Site: pos
Queued events for site pos
[INFO] 2020-03-12 18:10:56,729 | /home/abhishek/Documents/Development/frappe/frappe-bench/apps/frappe/frappe/core/doctype/scheduled_job_type/scheduled_job_type.py:
Site: pos
Scheduled Job Start: frappe.utils.global_search.sync_global_search for pos
[INFO] 2020-03-12 18:10:56,734 | /home/abhishek/Documents/Development/frappe/frappe-bench/apps/frappe/frappe/core/doctype/scheduled_job_type/scheduled_job_type.py:
Site: pos
Scheduled Job Complete: frappe.utils.global_search.sync_global_search for pos
[INFO] 2020-03-12 18:10:56,779 | /home/abhishek/Documents/Development/frappe/frappe-bench/apps/frappe/frappe/core/doctype/scheduled_job_type/scheduled_job_type.py:
Site: pos
Scheduled Job Start: frappe.integrations.doctype.razorpay_settings.razorpay_settings.capture_payment for pos
[INFO] 2020-03-12 18:10:56,789 | /home/abhishek/Documents/Development/frappe/frappe-bench/apps/frappe/frappe/core/doctype/scheduled_job_type/scheduled_job_type.py:
Site: pos
Scheduled Job Complete: frappe.integrations.doctype.razorpay_settings.razorpay_settings.capture_payment for pos
[INFO] 2020-03-12 18:10:56,827 | /home/abhishek/Documents/Development/frappe/frappe-bench/apps/frappe/frappe/core/doctype/scheduled_job_type/scheduled_job_type.py:
Site: pos
Scheduled Job Start: frappe.email.doctype.email_account.email_account.notify_unreplied for pos
[INFO] 2020-03-12 18:10:56,872 | /home/abhishek/Documents/Development/frappe/frappe-bench/apps/frappe/frappe/core/doctype/scheduled_job_type/scheduled_job_type.py:
Site: pos
Scheduled Job Complete: frappe.email.doctype.email_account.email_account.notify_unreplied for pos
[INFO] 2020-03-12 18:10:56,914 | /home/abhishek/Documents/Development/frappe/frappe-bench/apps/frappe/frappe/core/doctype/scheduled_job_type/scheduled_job_type.py:
Site: pos
Scheduled Job Start: frappe.email.doctype.email_account.email_account.pull for pos
[INFO] 2020-03-12 18:10:56,958 | /home/abhishek/Documents/Development/frappe/frappe-bench/apps/frappe/frappe/core/doctype/scheduled_job_type/scheduled_job_type.py:
Site: pos
Scheduled Job Complete: frappe.email.doctype.email_account.email_account.pull for pos
[INFO] 2020-03-12 18:10:56,995 | /home/abhishek/Documents/Development/frappe/frappe-bench/apps/frappe/frappe/core/doctype/scheduled_job_type/scheduled_job_type.py:
Site: pos
Scheduled Job Start: frappe.email.queue.flush for pos
[INFO] 2020-03-12 18:10:57,019 | /home/abhishek/Documents/Development/frappe/frappe-bench/apps/frappe/frappe/core/doctype/scheduled_job_type/scheduled_job_type.py:
Site: pos
Scheduled Job Complete: frappe.email.queue.flush for pos
[DEBUG] 2020-03-12 18:11:56,871 | /home/abhishek/Documents/Development/frappe/frappe-bench/apps/frappe/frappe/utils/scheduler.py:
Site: pos
Queued events for site pos
[INFO] 2020-03-12 18:11:56,885 | /home/abhishek/Documents/Development/frappe/frappe-bench/apps/frappe/frappe/core/doctype/scheduled_job_type/scheduled_job_type.py:
Site: pos
Scheduled Job Start: frappe.utils.global_search.sync_global_search for pos
[INFO] 2020-03-12 18:11:56,886 | /home/abhishek/Documents/Development/frappe/frappe-bench/apps/frappe/frappe/core/doctype/scheduled_job_type/scheduled_job_type.py:
Site: pos
Scheduled Job Complete: frappe.utils.global_search.sync_global_search for pos
[INFO] 2020-03-12 18:11:56,925 | /home/abhishek/Documents/Development/frappe/frappe-bench/apps/frappe/frappe/core/doctype/scheduled_job_type/scheduled_job_type.py:
Site: pos
Scheduled Job Start: frappe.integrations.doctype.razorpay_settings.razorpay_settings.capture_payment for pos
[INFO] 2020-03-12 18:11:56,932 | /home/abhishek/Documents/Development/frappe/frappe-bench/apps/frappe/frappe/core/doctype/scheduled_job_type/scheduled_job_type.py:
Site: pos
Scheduled Job Complete: frappe.integrations.doctype.razorpay_settings.razorpay_settings.capture_payment for pos
[INFO] 2020-03-12 18:11:56,969 | /home/abhishek/Documents/Development/frappe/frappe-bench/apps/frappe/frappe/core/doctype/scheduled_job_type/scheduled_job_type.py:
Site: pos
Scheduled Job Start: frappe.email.doctype.email_account.email_account.notify_unreplied for pos
[INFO] 2020-03-12 18:11:57,001 | /home/abhishek/Documents/Development/frappe/frappe-bench/apps/frappe/frappe/core/doctype/scheduled_job_type/scheduled_job_type.py:
Site: pos
Scheduled Job Complete: frappe.email.doctype.email_account.email_account.notify_unreplied for pos
[INFO] 2020-03-12 18:11:57,037 | /home/abhishek/Documents/Development/frappe/frappe-bench/apps/frappe/frappe/core/doctype/scheduled_job_type/scheduled_job_type.py:
Site: pos
Scheduled Job Start: frappe.email.doctype.email_account.email_account.pull for pos
[INFO] 2020-03-12 18:11:57,075 | /home/abhishek/Documents/Development/frappe/frappe-bench/apps/frappe/frappe/core/doctype/scheduled_job_type/scheduled_job_type.py:
Site: pos
Scheduled Job Complete: frappe.email.doctype.email_account.email_account.pull for pos
[INFO] 2020-03-12 18:11:57,115 | /home/abhishek/Documents/Development/frappe/frappe-bench/apps/frappe/frappe/core/doctype/scheduled_job_type/scheduled_job_type.py:
Site: pos
Scheduled Job Start: frappe.email.queue.flush for pos
[INFO] 2020-03-12 18:11:57,135 | /home/abhishek/Documents/Development/frappe/frappe-bench/apps/frappe/frappe/core/doctype/scheduled_job_type/scheduled_job_type.py:
Site: pos
Scheduled Job Complete: frappe.email.queue.flush for pos
[DEBUG] 2020-03-12 18:12:57,021 | /home/abhishek/Documents/Development/frappe/frappe-bench/apps/frappe/frappe/utils/scheduler.py:
Site: pos
Queued events for site pos
[INFO] 2020-03-12 18:12:57,035 | /home/abhishek/Documents/Development/frappe/frappe-bench/apps/frappe/frappe/core/doctype/scheduled_job_type/scheduled_job_type.py:
Site: pos
Scheduled Job Start: frappe.utils.global_search.sync_global_search for pos
[INFO] 2020-03-12 18:12:57,036 | /home/abhishek/Documents/Development/frappe/frappe-bench/apps/frappe/frappe/core/doctype/scheduled_job_type/scheduled_job_type.py:
Site: pos
Scheduled Job Complete: frappe.utils.global_search.sync_global_search for pos
[INFO] 2020-03-12 18:12:57,074 | /home/abhishek/Documents/Development/frappe/frappe-bench/apps/frappe/frappe/core/doctype/scheduled_job_type/scheduled_job_type.py:
Site: pos
Scheduled Job Start: frappe.integrations.doctype.razorpay_settings.razorpay_settings.capture_payment for pos
[INFO] 2020-03-12 18:12:57,081 | /home/abhishek/Documents/Development/frappe/frappe-bench/apps/frappe/frappe/core/doctype/scheduled_job_type/scheduled_job_type.py:
Site: pos
Scheduled Job Complete: frappe.integrations.doctype.razorpay_settings.razorpay_settings.capture_payment for pos
[INFO] 2020-03-12 18:12:57,117 | /home/abhishek/Documents/Development/frappe/frappe-bench/apps/frappe/frappe/core/doctype/scheduled_job_type/scheduled_job_type.py:
Site: pos
Scheduled Job Start: frappe.email.doctype.email_account.email_account.notify_unreplied for pos
[INFO] 2020-03-12 18:12:57,149 | /home/abhishek/Documents/Development/frappe/frappe-bench/apps/frappe/frappe/core/doctype/scheduled_job_type/scheduled_job_type.py:
Site: pos
Scheduled Job Complete: frappe.email.doctype.email_account.email_account.notify_unreplied for pos
[INFO] 2020-03-12 18:12:57,189 | /home/abhishek/Documents/Development/frappe/frappe-bench/apps/frappe/frappe/core/doctype/scheduled_job_type/scheduled_job_type.py:
Site: pos
Scheduled Job Start: frappe.email.doctype.email_account.email_account.pull for pos
[INFO] 2020-03-12 18:12:57,227 | /home/abhishek/Documents/Development/frappe/frappe-bench/apps/frappe/frappe/core/doctype/scheduled_job_type/scheduled_job_type.py:
Site: pos
Scheduled Job Complete: frappe.email.doctype.email_account.email_account.pull for pos
[INFO] 2020-03-12 18:12:57,264 | /home/abhishek/Documents/Development/frappe/frappe-bench/apps/frappe/frappe/core/doctype/scheduled_job_type/scheduled_job_type.py:
Site: pos
Scheduled Job Start: frappe.email.queue.flush for pos
[INFO] 2020-03-12 18:12:57,281 | /home/abhishek/Documents/Development/frappe/frappe-bench/apps/frappe/frappe/core/doctype/scheduled_job_type/scheduled_job_type.py:
Site: pos
Scheduled Job Complete: frappe.email.queue.flush for pos
[DEBUG] 2020-03-12 18:13:57,185 | /home/abhishek/Documents/Development/frappe/frappe-bench/apps/frappe/frappe/utils/scheduler.py:
Site: pos
Queued events for site pos
[INFO] 2020-03-12 18:13:57,199 | /home/abhishek/Documents/Development/frappe/frappe-bench/apps/frappe/frappe/core/doctype/scheduled_job_type/scheduled_job_type.py:
Site: pos
Scheduled Job Start: frappe.utils.global_search.sync_global_search for pos
[INFO] 2020-03-12 18:13:57,200 | /home/abhishek/Documents/Development/frappe/frappe-bench/apps/frappe/frappe/core/doctype/scheduled_job_type/scheduled_job_type.py:
Site: pos
Scheduled Job Complete: frappe.utils.global_search.sync_global_search for pos
[INFO] 2020-03-12 18:13:57,239 | /home/abhishek/Documents/Development/frappe/frappe-bench/apps/frappe/frappe/core/doctype/scheduled_job_type/scheduled_job_type.py:
Site: pos
Scheduled Job Start: frappe.integrations.doctype.razorpay_settings.razorpay_settings.capture_payment for pos
[INFO] 2020-03-12 18:13:57,245 | /home/abhishek/Documents/Development/frappe/frappe-bench/apps/frappe/frappe/core/doctype/scheduled_job_type/scheduled_job_type.py:
Site: pos
Scheduled Job Complete: frappe.integrations.doctype.razorpay_settings.razorpay_settings.capture_payment for pos
[INFO] 2020-03-12 18:13:57,281 | /home/abhishek/Documents/Development/frappe/frappe-bench/apps/frappe/frappe/core/doctype/scheduled_job_type/scheduled_job_type.py:
Site: pos
Scheduled Job Start: frappe.email.doctype.email_account.email_account.notify_unreplied for pos
[INFO] 2020-03-12 18:13:57,312 | /home/abhishek/Documents/Development/frappe/frappe-bench/apps/frappe/frappe/core/doctype/scheduled_job_type/scheduled_job_type.py:
Site: pos
Scheduled Job Complete: frappe.email.doctype.email_account.email_account.notify_unreplied for pos
[INFO] 2020-03-12 18:13:57,350 | /home/abhishek/Documents/Development/frappe/frappe-bench/apps/frappe/frappe/core/doctype/scheduled_job_type/scheduled_job_type.py:
Site: pos
Scheduled Job Start: frappe.email.doctype.email_account.email_account.pull for pos
[INFO] 2020-03-12 18:13:57,388 | /home/abhishek/Documents/Development/frappe/frappe-bench/apps/frappe/frappe/core/doctype/scheduled_job_type/scheduled_job_type.py:
Site: pos
Scheduled Job Complete: frappe.email.doctype.email_account.email_account.pull for pos
[INFO] 2020-03-12 18:13:57,425 | /home/abhishek/Documents/Development/frappe/frappe-bench/apps/frappe/frappe/core/doctype/scheduled_job_type/scheduled_job_type.py:
Site: pos
Scheduled Job Start: frappe.email.queue.flush for pos
[INFO] 2020-03-12 18:13:57,442 | /home/abhishek/Documents/Development/frappe/frappe-bench/apps/frappe/frappe/core/doctype/scheduled_job_type/scheduled_job_type.py:
Site: pos
Scheduled Job Complete: frappe.email.queue.flush for pos
[DEBUG] 2020-03-12 18:14:57,332 | /home/abhishek/Documents/Development/frappe/frappe-bench/apps/frappe/frappe/utils/scheduler.py:
Site: pos
Queued events for site pos
[INFO] 2020-03-12 18:14:57,347 | /home/abhishek/Documents/Development/frappe/frappe-bench/apps/frappe/frappe/core/doctype/scheduled_job_type/scheduled_job_type.py:
Site: pos
Scheduled Job Start: frappe.utils.global_search.sync_global_search for pos
[INFO] 2020-03-12 18:14:57,348 | /home/abhishek/Documents/Development/frappe/frappe-bench/apps/frappe/frappe/core/doctype/scheduled_job_type/scheduled_job_type.py:
Site: pos
Scheduled Job Complete: frappe.utils.global_search.sync_global_search for pos
[INFO] 2020-03-12 18:14:57,388 | /home/abhishek/Documents/Development/frappe/frappe-bench/apps/frappe/frappe/core/doctype/scheduled_job_type/scheduled_job_type.py:
Site: pos
Scheduled Job Start: frappe.integrations.doctype.razorpay_settings.razorpay_settings.capture_payment for pos
[INFO] 2020-03-12 18:14:57,395 | /home/abhishek/Documents/Development/frappe/frappe-bench/apps/frappe/frappe/core/doctype/scheduled_job_type/scheduled_job_type.py:
Site: pos
Scheduled Job Complete: frappe.integrations.doctype.razorpay_settings.razorpay_settings.capture_payment for pos
[INFO] 2020-03-12 18:14:57,433 | /home/abhishek/Documents/Development/frappe/frappe-bench/apps/frappe/frappe/core/doctype/scheduled_job_type/scheduled_job_type.py:
Site: pos
Scheduled Job Start: frappe.email.doctype.email_account.email_account.notify_unreplied for pos
[INFO] 2020-03-12 18:14:57,465 | /home/abhishek/Documents/Development/frappe/frappe-bench/apps/frappe/frappe/core/doctype/scheduled_job_type/scheduled_job_type.py:
Site: pos
Scheduled Job Complete: frappe.email.doctype.email_account.email_account.notify_unreplied for pos
[INFO] 2020-03-12 18:14:57,502 | /home/abhishek/Documents/Development/frappe/frappe-bench/apps/frappe/frappe/core/doctype/scheduled_job_type/scheduled_job_type.py:
Site: pos
Scheduled Job Start: frappe.email.doctype.email_account.email_account.pull for pos
[INFO] 2020-03-12 18:14:57,539 | /home/abhishek/Documents/Development/frappe/frappe-bench/apps/frappe/frappe/core/doctype/scheduled_job_type/scheduled_job_type.py:
Site: pos
Scheduled Job Complete: frappe.email.doctype.email_account.email_account.pull for pos
[INFO] 2020-03-12 18:14:57,584 | /home/abhishek/Documents/Development/frappe/frappe-bench/apps/frappe/frappe/core/doctype/scheduled_job_type/scheduled_job_type.py:
Site: pos
Scheduled Job Start: frappe.email.queue.flush for pos
[INFO] 2020-03-12 18:14:57,605 | /home/abhishek/Documents/Development/frappe/frappe-bench/apps/frappe/frappe/core/doctype/scheduled_job_type/scheduled_job_type.py:
Site: pos
Scheduled Job Complete: frappe.email.queue.flush for pos
[DEBUG] 2020-03-12 18:15:57,487 | /home/abhishek/Documents/Development/frappe/frappe-bench/apps/frappe/frappe/utils/scheduler.py:
Site: pos
Queued events for site pos
[INFO] 2020-03-12 18:15:57,496 | /home/abhishek/Documents/Development/frappe/frappe-bench/apps/frappe/frappe/core/doctype/scheduled_job_type/scheduled_job_type.py:
Site: pos
Scheduled Job Start: frappe.utils.global_search.sync_global_search for pos
[INFO] 2020-03-12 18:15:57,497 | /home/abhishek/Documents/Development/frappe/frappe-bench/apps/frappe/frappe/core/doctype/scheduled_job_type/scheduled_job_type.py:
Site: pos
Scheduled Job Complete: frappe.utils.global_search.sync_global_search for pos
[INFO] 2020-03-12 18:15:57,538 | /home/abhishek/Documents/Development/frappe/frappe-bench/apps/frappe/frappe/core/doctype/scheduled_job_type/scheduled_job_type.py:
Site: pos
Scheduled Job Start: frappe.integrations.doctype.razorpay_settings.razorpay_settings.capture_payment for pos
[INFO] 2020-03-12 18:15:57,546 | /home/abhishek/Documents/Development/frappe/frappe-bench/apps/frappe/frappe/core/doctype/scheduled_job_type/scheduled_job_type.py:
Site: pos
Scheduled Job Complete: frappe.integrations.doctype.razorpay_settings.razorpay_settings.capture_payment for pos
[INFO] 2020-03-12 18:15:57,583 | /home/abhishek/Documents/Development/frappe/frappe-bench/apps/frappe/frappe/core/doctype/scheduled_job_type/scheduled_job_type.py:
Site: pos
Scheduled Job Start: frappe.email.doctype.email_account.email_account.notify_unreplied for pos
[INFO] 2020-03-12 18:15:57,615 | /home/abhishek/Documents/Development/frappe/frappe-bench/apps/frappe/frappe/core/doctype/scheduled_job_type/scheduled_job_type.py:
Site: pos
Scheduled Job Complete: frappe.email.doctype.email_account.email_account.notify_unreplied for pos
[INFO] 2020-03-12 18:15:57,653 | /home/abhishek/Documents/Development/frappe/frappe-bench/apps/frappe/frappe/core/doctype/scheduled_job_type/scheduled_job_type.py:
Site: pos
Scheduled Job Start: frappe.email.doctype.email_account.email_account.pull for pos
[INFO] 2020-03-12 18:15:57,692 | /home/abhishek/Documents/Development/frappe/frappe-bench/apps/frappe/frappe/core/doctype/scheduled_job_type/scheduled_job_type.py:
Site: pos
Scheduled Job Complete: frappe.email.doctype.email_account.email_account.pull for pos
[INFO] 2020-03-12 18:15:57,730 | /home/abhishek/Documents/Development/frappe/frappe-bench/apps/frappe/frappe/core/doctype/scheduled_job_type/scheduled_job_type.py:
Site: pos
Scheduled Job Start: frappe.email.queue.flush for pos
[INFO] 2020-03-12 18:15:57,747 | /home/abhishek/Documents/Development/frappe/frappe-bench/apps/frappe/frappe/core/doctype/scheduled_job_type/scheduled_job_type.py:
Site: pos
Scheduled Job Complete: frappe.email.queue.flush for pos
[INFO] 2020-03-12 18:15:57,784 | /home/abhishek/Documents/Development/frappe/frappe-bench/apps/frappe/frappe/core/doctype/scheduled_job_type/scheduled_job_type.py:
Site: pos
Scheduled Job Start: frappe.twofactor.delete_all_barcodes_for_users for pos
[INFO] 2020-03-12 18:15:57,926 | /home/abhishek/Documents/Development/frappe/frappe-bench/apps/frappe/frappe/core/doctype/scheduled_job_type/scheduled_job_type.py:
Site: pos
Scheduled Job Complete: frappe.twofactor.delete_all_barcodes_for_users for pos
[INFO] 2020-03-12 18:15:57,980 | /home/abhishek/Documents/Development/frappe/frappe-bench/apps/frappe/frappe/core/doctype/scheduled_job_type/scheduled_job_type.py:
Site: pos
Scheduled Job Start: frappe.website.doctype.web_page.web_page.check_publish_status for pos
[INFO] 2020-03-12 18:15:58,069 | /home/abhishek/Documents/Development/frappe/frappe-bench/apps/frappe/frappe/core/doctype/scheduled_job_type/scheduled_job_type.py:
Site: pos
Scheduled Job Complete: frappe.website.doctype.web_page.web_page.check_publish_status for pos
[INFO] 2020-03-12 18:15:58,118 | /home/abhishek/Documents/Development/frappe/frappe-bench/apps/frappe/frappe/core/doctype/scheduled_job_type/scheduled_job_type.py:
Site: pos
Scheduled Job Start: frappe.oauth.delete_oauth2_data for pos
[INFO] 2020-03-12 18:15:58,230 | /home/abhishek/Documents/Development/frappe/frappe-bench/apps/frappe/frappe/core/doctype/scheduled_job_type/scheduled_job_type.py:
Site: pos
Scheduled Job Complete: frappe.oauth.delete_oauth2_data for pos
[DEBUG] 2020-03-12 18:16:57,774 | /home/abhishek/Documents/Development/frappe/frappe-bench/apps/frappe/frappe/utils/scheduler.py:
Site: pos
Queued events for site pos
[INFO] 2020-03-12 18:16:57,831 | /home/abhishek/Documents/Development/frappe/frappe-bench/apps/frappe/frappe/core/doctype/scheduled_job_type/scheduled_job_type.py:
Site: pos
Scheduled Job Start: frappe.utils.global_search.sync_global_search for pos
[INFO] 2020-03-12 18:16:57,832 | /home/abhishek/Documents/Development/frappe/frappe-bench/apps/frappe/frappe/core/doctype/scheduled_job_type/scheduled_job_type.py:
Site: pos
Scheduled Job Complete: frappe.utils.global_search.sync_global_search for pos
[INFO] 2020-03-12 18:16:57,881 | /home/abhishek/Documents/Development/frappe/frappe-bench/apps/frappe/frappe/core/doctype/scheduled_job_type/scheduled_job_type.py:
Site: pos
Scheduled Job Start: frappe.integrations.doctype.razorpay_settings.razorpay_settings.capture_payment for pos
[INFO] 2020-03-12 18:16:57,894 | /home/abhishek/Documents/Development/frappe/frappe-bench/apps/frappe/frappe/core/doctype/scheduled_job_type/scheduled_job_type.py:
Site: pos
Scheduled Job Complete: frappe.integrations.doctype.razorpay_settings.razorpay_settings.capture_payment for pos
[INFO] 2020-03-12 18:16:57,931 | /home/abhishek/Documents/Development/frappe/frappe-bench/apps/frappe/frappe/core/doctype/scheduled_job_type/scheduled_job_type.py:
Site: pos
Scheduled Job Start: frappe.email.doctype.email_account.email_account.notify_unreplied for pos
[INFO] 2020-03-12 18:16:57,995 | /home/abhishek/Documents/Development/frappe/frappe-bench/apps/frappe/frappe/core/doctype/scheduled_job_type/scheduled_job_type.py:
Site: pos
Scheduled Job Complete: frappe.email.doctype.email_account.email_account.notify_unreplied for pos
[INFO] 2020-03-12 18:16:58,030 | /home/abhishek/Documents/Development/frappe/frappe-bench/apps/frappe/frappe/core/doctype/scheduled_job_type/scheduled_job_type.py:
Site: pos
Scheduled Job Start: frappe.email.doctype.email_account.email_account.pull for pos
[INFO] 2020-03-12 18:16:58,079 | /home/abhishek/Documents/Development/frappe/frappe-bench/apps/frappe/frappe/core/doctype/scheduled_job_type/scheduled_job_type.py:
Site: pos
Scheduled Job Complete: frappe.email.doctype.email_account.email_account.pull for pos
[INFO] 2020-03-12 18:16:58,122 | /home/abhishek/Documents/Development/frappe/frappe-bench/apps/frappe/frappe/core/doctype/scheduled_job_type/scheduled_job_type.py:
Site: pos
Scheduled Job Start: frappe.email.queue.flush for pos
[INFO] 2020-03-12 18:16:58,141 | /home/abhishek/Documents/Development/frappe/frappe-bench/apps/frappe/frappe/core/doctype/scheduled_job_type/scheduled_job_type.py:
Site: pos
Scheduled Job Complete: frappe.email.queue.flush for pos
[DEBUG] 2020-03-12 18:17:58,131 | /home/abhishek/Documents/Development/frappe/frappe-bench/apps/frappe/frappe/utils/scheduler.py:
Site: pos
Queued events for site pos
[INFO] 2020-03-12 18:17:58,848 | /home/abhishek/Documents/Development/frappe/frappe-bench/apps/frappe/frappe/core/doctype/scheduled_job_type/scheduled_job_type.py:
Site: pos
Scheduled Job Start: frappe.utils.global_search.sync_global_search for pos
[INFO] 2020-03-12 18:17:59,474 | /home/abhishek/Documents/Development/frappe/frappe-bench/apps/frappe/frappe/core/doctype/scheduled_job_type/scheduled_job_type.py:
Site: pos
Scheduled Job Complete: frappe.utils.global_search.sync_global_search for pos
[INFO] 2020-03-12 18:18:00,203 | /home/abhishek/Documents/Development/frappe/frappe-bench/apps/frappe/frappe/core/doctype/scheduled_job_type/scheduled_job_type.py:
Site: pos
Scheduled Job Start: frappe.integrations.doctype.razorpay_settings.razorpay_settings.capture_payment for pos
[INFO] 2020-03-12 18:18:00,324 | /home/abhishek/Documents/Development/frappe/frappe-bench/apps/frappe/frappe/core/doctype/scheduled_job_type/scheduled_job_type.py:
Site: pos
Scheduled Job Complete: frappe.integrations.doctype.razorpay_settings.razorpay_settings.capture_payment for pos
[INFO] 2020-03-12 18:18:00,907 | /home/abhishek/Documents/Development/frappe/frappe-bench/apps/frappe/frappe/core/doctype/scheduled_job_type/scheduled_job_type.py:
Site: pos
Scheduled Job Start: frappe.email.doctype.email_account.email_account.notify_unreplied for pos
[INFO] 2020-03-12 18:18:01,395 | /home/abhishek/Documents/Development/frappe/frappe-bench/apps/frappe/frappe/core/doctype/scheduled_job_type/scheduled_job_type.py:
Site: pos
Scheduled Job Complete: frappe.email.doctype.email_account.email_account.notify_unreplied for pos
[INFO] 2020-03-12 18:18:02,062 | /home/abhishek/Documents/Development/frappe/frappe-bench/apps/frappe/frappe/core/doctype/scheduled_job_type/scheduled_job_type.py:
Site: pos
Scheduled Job Start: frappe.email.doctype.email_account.email_account.pull for pos
[INFO] 2020-03-12 18:18:02,441 | /home/abhishek/Documents/Development/frappe/frappe-bench/apps/frappe/frappe/core/doctype/scheduled_job_type/scheduled_job_type.py:
Site: pos
Scheduled Job Complete: frappe.email.doctype.email_account.email_account.pull for pos
[INFO] 2020-03-12 18:18:02,864 | /home/abhishek/Documents/Development/frappe/frappe-bench/apps/frappe/frappe/core/doctype/scheduled_job_type/scheduled_job_type.py:
Site: pos
Scheduled Job Start: frappe.email.queue.flush for pos
[INFO] 2020-03-12 18:18:03,046 | /home/abhishek/Documents/Development/frappe/frappe-bench/apps/frappe/frappe/core/doctype/scheduled_job_type/scheduled_job_type.py:
Site: pos
Scheduled Job Complete: frappe.email.queue.flush for pos
[DEBUG] 2020-03-12 18:23:50,116 | /home/abhishek/Documents/Development/frappe/frappe-bench/apps/frappe/frappe/utils/scheduler.py:
Site: pos
Queued events for site pos
[INFO] 2020-03-12 18:23:50,130 | /home/abhishek/Documents/Development/frappe/frappe-bench/apps/frappe/frappe/core/doctype/scheduled_job_type/scheduled_job_type.py:
Site: pos
Scheduled Job Start: frappe.utils.global_search.sync_global_search for pos
[INFO] 2020-03-12 18:23:50,131 | /home/abhishek/Documents/Development/frappe/frappe-bench/apps/frappe/frappe/core/doctype/scheduled_job_type/scheduled_job_type.py:
Site: pos
Scheduled Job Complete: frappe.utils.global_search.sync_global_search for pos
[INFO] 2020-03-12 18:23:50,166 | /home/abhishek/Documents/Development/frappe/frappe-bench/apps/frappe/frappe/core/doctype/scheduled_job_type/scheduled_job_type.py:
Site: pos
Scheduled Job Start: frappe.integrations.doctype.razorpay_settings.razorpay_settings.capture_payment for pos
[INFO] 2020-03-12 18:23:50,211 | /home/abhishek/Documents/Development/frappe/frappe-bench/apps/frappe/frappe/core/doctype/scheduled_job_type/scheduled_job_type.py:
Site: pos
Scheduled Job Complete: frappe.integrations.doctype.razorpay_settings.razorpay_settings.capture_payment for pos
[INFO] 2020-03-12 18:23:50,250 | /home/abhishek/Documents/Development/frappe/frappe-bench/apps/frappe/frappe/core/doctype/scheduled_job_type/scheduled_job_type.py:
Site: pos
Scheduled Job Start: frappe.email.doctype.email_account.email_account.notify_unreplied for pos
[INFO] 2020-03-12 18:23:50,342 | /home/abhishek/Documents/Development/frappe/frappe-bench/apps/frappe/frappe/core/doctype/scheduled_job_type/scheduled_job_type.py:
Site: pos
Scheduled Job Complete: frappe.email.doctype.email_account.email_account.notify_unreplied for pos
[INFO] 2020-03-12 18:23:50,378 | /home/abhishek/Documents/Development/frappe/frappe-bench/apps/frappe/frappe/core/doctype/scheduled_job_type/scheduled_job_type.py:
Site: pos
Scheduled Job Start: frappe.email.doctype.email_account.email_account.pull for pos
[INFO] 2020-03-12 18:23:50,442 | /home/abhishek/Documents/Development/frappe/frappe-bench/apps/frappe/frappe/core/doctype/scheduled_job_type/scheduled_job_type.py:
Site: pos
Scheduled Job Complete: frappe.email.doctype.email_account.email_account.pull for pos
[INFO] 2020-03-12 18:23:50,487 | /home/abhishek/Documents/Development/frappe/frappe-bench/apps/frappe/frappe/core/doctype/scheduled_job_type/scheduled_job_type.py:
Site: pos
Scheduled Job Start: frappe.email.queue.flush for pos
[INFO] 2020-03-12 18:23:50,503 | /home/abhishek/Documents/Development/frappe/frappe-bench/apps/frappe/frappe/core/doctype/scheduled_job_type/scheduled_job_type.py:
Site: pos
Scheduled Job Complete: frappe.email.queue.flush for pos
[DEBUG] 2020-03-12 18:24:50,262 | /home/abhishek/Documents/Development/frappe/frappe-bench/apps/frappe/frappe/utils/scheduler.py:
Site: pos
Queued events for site pos
[INFO] 2020-03-12 18:24:50,287 | /home/abhishek/Documents/Development/frappe/frappe-bench/apps/frappe/frappe/core/doctype/scheduled_job_type/scheduled_job_type.py:
Site: pos
Scheduled Job Start: frappe.utils.global_search.sync_global_search for pos
[INFO] 2020-03-12 18:24:50,288 | /home/abhishek/Documents/Development/frappe/frappe-bench/apps/frappe/frappe/core/doctype/scheduled_job_type/scheduled_job_type.py:
Site: pos
Scheduled Job Complete: frappe.utils.global_search.sync_global_search for pos
[INFO] 2020-03-12 18:24:50,323 | /home/abhishek/Documents/Development/frappe/frappe-bench/apps/frappe/frappe/core/doctype/scheduled_job_type/scheduled_job_type.py:
Site: pos
Scheduled Job Start: frappe.integrations.doctype.razorpay_settings.razorpay_settings.capture_payment for pos
[INFO] 2020-03-12 18:24:50,333 | /home/abhishek/Documents/Development/frappe/frappe-bench/apps/frappe/frappe/core/doctype/scheduled_job_type/scheduled_job_type.py:
Site: pos
Scheduled Job Complete: frappe.integrations.doctype.razorpay_settings.razorpay_settings.capture_payment for pos
[INFO] 2020-03-12 18:24:50,373 | /home/abhishek/Documents/Development/frappe/frappe-bench/apps/frappe/frappe/core/doctype/scheduled_job_type/scheduled_job_type.py:
Site: pos
Scheduled Job Start: frappe.email.doctype.email_account.email_account.notify_unreplied for pos
[INFO] 2020-03-12 18:24:50,430 | /home/abhishek/Documents/Development/frappe/frappe-bench/apps/frappe/frappe/core/doctype/scheduled_job_type/scheduled_job_type.py:
Site: pos
Scheduled Job Complete: frappe.email.doctype.email_account.email_account.notify_unreplied for pos
[INFO] 2020-03-12 18:24:50,471 | /home/abhishek/Documents/Development/frappe/frappe-bench/apps/frappe/frappe/core/doctype/scheduled_job_type/scheduled_job_type.py:
Site: pos
Scheduled Job Start: frappe.email.doctype.email_account.email_account.pull for pos
[INFO] 2020-03-12 18:24:50,511 | /home/abhishek/Documents/Development/frappe/frappe-bench/apps/frappe/frappe/core/doctype/scheduled_job_type/scheduled_job_type.py:
Site: pos
Scheduled Job Complete: frappe.email.doctype.email_account.email_account.pull for pos
[INFO] 2020-03-12 18:24:50,550 | /home/abhishek/Documents/Development/frappe/frappe-bench/apps/frappe/frappe/core/doctype/scheduled_job_type/scheduled_job_type.py:
Site: pos
Scheduled Job Start: frappe.email.queue.flush for pos
[INFO] 2020-03-12 18:24:50,565 | /home/abhishek/Documents/Development/frappe/frappe-bench/apps/frappe/frappe/core/doctype/scheduled_job_type/scheduled_job_type.py:
Site: pos
Scheduled Job Complete: frappe.email.queue.flush for pos
[DEBUG] 2020-03-12 18:25:50,416 | /home/abhishek/Documents/Development/frappe/frappe-bench/apps/frappe/frappe/utils/scheduler.py:
Site: pos
Queued events for site pos
[INFO] 2020-03-12 18:25:50,428 | /home/abhishek/Documents/Development/frappe/frappe-bench/apps/frappe/frappe/core/doctype/scheduled_job_type/scheduled_job_type.py:
Site: pos
Scheduled Job Start: frappe.utils.global_search.sync_global_search for pos
[INFO] 2020-03-12 18:25:50,429 | /home/abhishek/Documents/Development/frappe/frappe-bench/apps/frappe/frappe/core/doctype/scheduled_job_type/scheduled_job_type.py:
Site: pos
Scheduled Job Complete: frappe.utils.global_search.sync_global_search for pos
[INFO] 2020-03-12 18:25:50,464 | /home/abhishek/Documents/Development/frappe/frappe-bench/apps/frappe/frappe/core/doctype/scheduled_job_type/scheduled_job_type.py:
Site: pos
Scheduled Job Start: frappe.integrations.doctype.razorpay_settings.razorpay_settings.capture_payment for pos
[INFO] 2020-03-12 18:25:50,470 | /home/abhishek/Documents/Development/frappe/frappe-bench/apps/frappe/frappe/core/doctype/scheduled_job_type/scheduled_job_type.py:
Site: pos
Scheduled Job Complete: frappe.integrations.doctype.razorpay_settings.razorpay_settings.capture_payment for pos
[INFO] 2020-03-12 18:25:50,503 | /home/abhishek/Documents/Development/frappe/frappe-bench/apps/frappe/frappe/core/doctype/scheduled_job_type/scheduled_job_type.py:
Site: pos
Scheduled Job Start: frappe.email.doctype.email_account.email_account.notify_unreplied for pos
[INFO] 2020-03-12 18:25:50,532 | /home/abhishek/Documents/Development/frappe/frappe-bench/apps/frappe/frappe/core/doctype/scheduled_job_type/scheduled_job_type.py:
Site: pos
Scheduled Job Complete: frappe.email.doctype.email_account.email_account.notify_unreplied for pos
[INFO] 2020-03-12 18:25:50,573 | /home/abhishek/Documents/Development/frappe/frappe-bench/apps/frappe/frappe/core/doctype/scheduled_job_type/scheduled_job_type.py:
Site: pos
Scheduled Job Start: frappe.email.doctype.email_account.email_account.pull for pos
[INFO] 2020-03-12 18:25:50,610 | /home/abhishek/Documents/Development/frappe/frappe-bench/apps/frappe/frappe/core/doctype/scheduled_job_type/scheduled_job_type.py:
Site: pos
Scheduled Job Complete: frappe.email.doctype.email_account.email_account.pull for pos
[INFO] 2020-03-12 18:25:50,645 | /home/abhishek/Documents/Development/frappe/frappe-bench/apps/frappe/frappe/core/doctype/scheduled_job_type/scheduled_job_type.py:
Site: pos
Scheduled Job Start: frappe.email.queue.flush for pos
[INFO] 2020-03-12 18:25:50,660 | /home/abhishek/Documents/Development/frappe/frappe-bench/apps/frappe/frappe/core/doctype/scheduled_job_type/scheduled_job_type.py:
Site: pos
Scheduled Job Complete: frappe.email.queue.flush for pos
[DEBUG] 2020-03-12 18:26:50,633 | /home/abhishek/Documents/Development/frappe/frappe-bench/apps/frappe/frappe/utils/scheduler.py:
Site: pos
Queued events for site pos
[INFO] 2020-03-12 18:26:50,684 | /home/abhishek/Documents/Development/frappe/frappe-bench/apps/frappe/frappe/core/doctype/scheduled_job_type/scheduled_job_type.py:
Site: pos
Scheduled Job Start: frappe.utils.global_search.sync_global_search for pos
[INFO] 2020-03-12 18:26:50,685 | /home/abhishek/Documents/Development/frappe/frappe-bench/apps/frappe/frappe/core/doctype/scheduled_job_type/scheduled_job_type.py:
Site: pos
Scheduled Job Complete: frappe.utils.global_search.sync_global_search for pos
[INFO] 2020-03-12 18:26:50,718 | /home/abhishek/Documents/Development/frappe/frappe-bench/apps/frappe/frappe/core/doctype/scheduled_job_type/scheduled_job_type.py:
Site: pos
Scheduled Job Start: frappe.integrations.doctype.razorpay_settings.razorpay_settings.capture_payment for pos
[INFO] 2020-03-12 18:26:50,731 | /home/abhishek/Documents/Development/frappe/frappe-bench/apps/frappe/frappe/core/doctype/scheduled_job_type/scheduled_job_type.py:
Site: pos
Scheduled Job Complete: frappe.integrations.doctype.razorpay_settings.razorpay_settings.capture_payment for pos
[INFO] 2020-03-12 18:26:50,769 | /home/abhishek/Documents/Development/frappe/frappe-bench/apps/frappe/frappe/core/doctype/scheduled_job_type/scheduled_job_type.py:
Site: pos
Scheduled Job Start: frappe.email.doctype.email_account.email_account.notify_unreplied for pos
[INFO] 2020-03-12 18:26:50,829 | /home/abhishek/Documents/Development/frappe/frappe-bench/apps/frappe/frappe/core/doctype/scheduled_job_type/scheduled_job_type.py:
Site: pos
Scheduled Job Complete: frappe.email.doctype.email_account.email_account.notify_unreplied for pos
[INFO] 2020-03-12 18:26:50,867 | /home/abhishek/Documents/Development/frappe/frappe-bench/apps/frappe/frappe/core/doctype/scheduled_job_type/scheduled_job_type.py:
Site: pos
Scheduled Job Start: frappe.email.doctype.email_account.email_account.pull for pos
[INFO] 2020-03-12 18:26:50,911 | /home/abhishek/Documents/Development/frappe/frappe-bench/apps/frappe/frappe/core/doctype/scheduled_job_type/scheduled_job_type.py:
Site: pos
Scheduled Job Complete: frappe.email.doctype.email_account.email_account.pull for pos
[INFO] 2020-03-12 18:26:50,951 | /home/abhishek/Documents/Development/frappe/frappe-bench/apps/frappe/frappe/core/doctype/scheduled_job_type/scheduled_job_type.py:
Site: pos
Scheduled Job Start: frappe.email.queue.flush for pos
[INFO] 2020-03-12 18:26:50,968 | /home/abhishek/Documents/Development/frappe/frappe-bench/apps/frappe/frappe/core/doctype/scheduled_job_type/scheduled_job_type.py:
Site: pos
Scheduled Job Complete: frappe.email.queue.flush for pos
[DEBUG] 2020-03-12 18:27:50,802 | /home/abhishek/Documents/Development/frappe/frappe-bench/apps/frappe/frappe/utils/scheduler.py:
Site: pos
Queued events for site pos
[INFO] 2020-03-12 18:27:50,851 | /home/abhishek/Documents/Development/frappe/frappe-bench/apps/frappe/frappe/core/doctype/scheduled_job_type/scheduled_job_type.py:
Site: pos
Scheduled Job Start: frappe.utils.global_search.sync_global_search for pos
[INFO] 2020-03-12 18:27:50,852 | /home/abhishek/Documents/Development/frappe/frappe-bench/apps/frappe/frappe/core/doctype/scheduled_job_type/scheduled_job_type.py:
Site: pos
Scheduled Job Complete: frappe.utils.global_search.sync_global_search for pos
[INFO] 2020-03-12 18:27:50,890 | /home/abhishek/Documents/Development/frappe/frappe-bench/apps/frappe/frappe/core/doctype/scheduled_job_type/scheduled_job_type.py:
Site: pos
Scheduled Job Start: frappe.integrations.doctype.razorpay_settings.razorpay_settings.capture_payment for pos
[INFO] 2020-03-12 18:27:50,901 | /home/abhishek/Documents/Development/frappe/frappe-bench/apps/frappe/frappe/core/doctype/scheduled_job_type/scheduled_job_type.py:
Site: pos
Scheduled Job Complete: frappe.integrations.doctype.razorpay_settings.razorpay_settings.capture_payment for pos
[INFO] 2020-03-12 18:27:50,938 | /home/abhishek/Documents/Development/frappe/frappe-bench/apps/frappe/frappe/core/doctype/scheduled_job_type/scheduled_job_type.py:
Site: pos
Scheduled Job Start: frappe.email.doctype.email_account.email_account.notify_unreplied for pos
[INFO] 2020-03-12 18:27:51,003 | /home/abhishek/Documents/Development/frappe/frappe-bench/apps/frappe/frappe/core/doctype/scheduled_job_type/scheduled_job_type.py:
Site: pos
Scheduled Job Complete: frappe.email.doctype.email_account.email_account.notify_unreplied for pos
[INFO] 2020-03-12 18:27:51,042 | /home/abhishek/Documents/Development/frappe/frappe-bench/apps/frappe/frappe/core/doctype/scheduled_job_type/scheduled_job_type.py:
Site: pos
Scheduled Job Start: frappe.email.doctype.email_account.email_account.pull for pos
