[DEBUG] 2020-03-12 15:20:47,720 | /home/abhishek/Documents/Development/frappe/frappe-bench/apps/frappe/frappe/utils/scheduler.py:
Site: pos
Queued events for site pos
[INFO] 2020-03-12 15:20:47,776 | /home/abhishek/Documents/Development/frappe/frappe-bench/apps/frappe/frappe/core/doctype/scheduled_job_type/scheduled_job_type.py:
Site: pos
Scheduled Job Start: frappe.utils.global_search.sync_global_search for pos
[INFO] 2020-03-12 15:20:47,777 | /home/abhishek/Documents/Development/frappe/frappe-bench/apps/frappe/frappe/core/doctype/scheduled_job_type/scheduled_job_type.py:
Site: pos
Scheduled Job Complete: frappe.utils.global_search.sync_global_search for pos
[INFO] 2020-03-12 15:20:47,817 | /home/abhishek/Documents/Development/frappe/frappe-bench/apps/frappe/frappe/core/doctype/scheduled_job_type/scheduled_job_type.py:
Site: pos
Scheduled Job Start: frappe.integrations.doctype.razorpay_settings.razorpay_settings.capture_payment for pos
[INFO] 2020-03-12 15:20:47,829 | /home/abhishek/Documents/Development/frappe/frappe-bench/apps/frappe/frappe/core/doctype/scheduled_job_type/scheduled_job_type.py:
Site: pos
Scheduled Job Complete: frappe.integrations.doctype.razorpay_settings.razorpay_settings.capture_payment for pos
[INFO] 2020-03-12 15:20:47,869 | /home/abhishek/Documents/Development/frappe/frappe-bench/apps/frappe/frappe/core/doctype/scheduled_job_type/scheduled_job_type.py:
Site: pos
Scheduled Job Start: frappe.email.doctype.email_account.email_account.notify_unreplied for pos
[INFO] 2020-03-12 15:20:47,936 | /home/abhishek/Documents/Development/frappe/frappe-bench/apps/frappe/frappe/core/doctype/scheduled_job_type/scheduled_job_type.py:
Site: pos
Scheduled Job Complete: frappe.email.doctype.email_account.email_account.notify_unreplied for pos
[INFO] 2020-03-12 15:20:47,977 | /home/abhishek/Documents/Development/frappe/frappe-bench/apps/frappe/frappe/core/doctype/scheduled_job_type/scheduled_job_type.py:
Site: pos
Scheduled Job Start: frappe.email.doctype.email_account.email_account.pull for pos
[INFO] 2020-03-12 15:20:48,024 | /home/abhishek/Documents/Development/frappe/frappe-bench/apps/frappe/frappe/core/doctype/scheduled_job_type/scheduled_job_type.py:
Site: pos
Scheduled Job Complete: frappe.email.doctype.email_account.email_account.pull for pos
[INFO] 2020-03-12 15:20:48,061 | /home/abhishek/Documents/Development/frappe/frappe-bench/apps/frappe/frappe/core/doctype/scheduled_job_type/scheduled_job_type.py:
Site: pos
Scheduled Job Start: frappe.email.queue.flush for pos
[INFO] 2020-03-12 15:20:48,081 | /home/abhishek/Documents/Development/frappe/frappe-bench/apps/frappe/frappe/core/doctype/scheduled_job_type/scheduled_job_type.py:
Site: pos
Scheduled Job Complete: frappe.email.queue.flush for pos
[DEBUG] 2020-03-12 15:21:48,771 | /home/abhishek/Documents/Development/frappe/frappe-bench/apps/frappe/frappe/utils/scheduler.py:
Site: pos
Queued events for site pos
[INFO] 2020-03-12 15:21:49,121 | /home/abhishek/Documents/Development/frappe/frappe-bench/apps/frappe/frappe/core/doctype/scheduled_job_type/scheduled_job_type.py:
Site: pos
Scheduled Job Start: frappe.utils.global_search.sync_global_search for pos
[INFO] 2020-03-12 15:21:49,146 | /home/abhishek/Documents/Development/frappe/frappe-bench/apps/frappe/frappe/core/doctype/scheduled_job_type/scheduled_job_type.py:
Site: pos
Scheduled Job Complete: frappe.utils.global_search.sync_global_search for pos
[INFO] 2020-03-12 15:21:49,587 | /home/abhishek/Documents/Development/frappe/frappe-bench/apps/frappe/frappe/core/doctype/scheduled_job_type/scheduled_job_type.py:
Site: pos
Scheduled Job Start: frappe.integrations.doctype.razorpay_settings.razorpay_settings.capture_payment for pos
[INFO] 2020-03-12 15:21:49,626 | /home/abhishek/Documents/Development/frappe/frappe-bench/apps/frappe/frappe/core/doctype/scheduled_job_type/scheduled_job_type.py:
Site: pos
Scheduled Job Complete: frappe.integrations.doctype.razorpay_settings.razorpay_settings.capture_payment for pos
[INFO] 2020-03-12 15:21:50,054 | /home/abhishek/Documents/Development/frappe/frappe-bench/apps/frappe/frappe/core/doctype/scheduled_job_type/scheduled_job_type.py:
Site: pos
Scheduled Job Start: frappe.email.doctype.email_account.email_account.notify_unreplied for pos
[INFO] 2020-03-12 15:21:50,567 | /home/abhishek/Documents/Development/frappe/frappe-bench/apps/frappe/frappe/core/doctype/scheduled_job_type/scheduled_job_type.py:
Site: pos
Scheduled Job Complete: frappe.email.doctype.email_account.email_account.notify_unreplied for pos
[INFO] 2020-03-12 15:21:51,469 | /home/abhishek/Documents/Development/frappe/frappe-bench/apps/frappe/frappe/core/doctype/scheduled_job_type/scheduled_job_type.py:
Site: pos
Scheduled Job Start: frappe.email.doctype.email_account.email_account.pull for pos
[INFO] 2020-03-12 15:21:52,181 | /home/abhishek/Documents/Development/frappe/frappe-bench/apps/frappe/frappe/core/doctype/scheduled_job_type/scheduled_job_type.py:
Site: pos
Scheduled Job Complete: frappe.email.doctype.email_account.email_account.pull for pos
[INFO] 2020-03-12 15:21:52,375 | /home/abhishek/Documents/Development/frappe/frappe-bench/apps/frappe/frappe/core/doctype/scheduled_job_type/scheduled_job_type.py:
Site: pos
Scheduled Job Start: frappe.email.queue.flush for pos
[INFO] 2020-03-12 15:21:52,409 | /home/abhishek/Documents/Development/frappe/frappe-bench/apps/frappe/frappe/core/doctype/scheduled_job_type/scheduled_job_type.py:
Site: pos
Scheduled Job Complete: frappe.email.queue.flush for pos
[DEBUG] 2020-03-12 15:27:52,147 | /home/abhishek/Documents/Development/frappe/frappe-bench/apps/frappe/frappe/utils/scheduler.py:
Site: pos
Queued events for site pos
[INFO] 2020-03-12 15:27:52,159 | /home/abhishek/Documents/Development/frappe/frappe-bench/apps/frappe/frappe/core/doctype/scheduled_job_type/scheduled_job_type.py:
Site: pos
Scheduled Job Start: frappe.utils.global_search.sync_global_search for pos
[INFO] 2020-03-12 15:27:52,160 | /home/abhishek/Documents/Development/frappe/frappe-bench/apps/frappe/frappe/core/doctype/scheduled_job_type/scheduled_job_type.py:
Site: pos
Scheduled Job Complete: frappe.utils.global_search.sync_global_search for pos
[INFO] 2020-03-12 15:27:52,193 | /home/abhishek/Documents/Development/frappe/frappe-bench/apps/frappe/frappe/core/doctype/scheduled_job_type/scheduled_job_type.py:
Site: pos
Scheduled Job Start: frappe.integrations.doctype.razorpay_settings.razorpay_settings.capture_payment for pos
[INFO] 2020-03-12 15:27:52,242 | /home/abhishek/Documents/Development/frappe/frappe-bench/apps/frappe/frappe/core/doctype/scheduled_job_type/scheduled_job_type.py:
Site: pos
Scheduled Job Complete: frappe.integrations.doctype.razorpay_settings.razorpay_settings.capture_payment for pos
[INFO] 2020-03-12 15:27:52,281 | /home/abhishek/Documents/Development/frappe/frappe-bench/apps/frappe/frappe/core/doctype/scheduled_job_type/scheduled_job_type.py:
Site: pos
Scheduled Job Start: frappe.email.doctype.email_account.email_account.notify_unreplied for pos
[INFO] 2020-03-12 15:27:52,371 | /home/abhishek/Documents/Development/frappe/frappe-bench/apps/frappe/frappe/core/doctype/scheduled_job_type/scheduled_job_type.py:
Site: pos
Scheduled Job Complete: frappe.email.doctype.email_account.email_account.notify_unreplied for pos
[INFO] 2020-03-12 15:27:52,405 | /home/abhishek/Documents/Development/frappe/frappe-bench/apps/frappe/frappe/core/doctype/scheduled_job_type/scheduled_job_type.py:
Site: pos
Scheduled Job Start: frappe.email.doctype.email_account.email_account.pull for pos
[INFO] 2020-03-12 15:27:52,470 | /home/abhishek/Documents/Development/frappe/frappe-bench/apps/frappe/frappe/core/doctype/scheduled_job_type/scheduled_job_type.py:
Site: pos
Scheduled Job Complete: frappe.email.doctype.email_account.email_account.pull for pos
[INFO] 2020-03-12 15:27:52,503 | /home/abhishek/Documents/Development/frappe/frappe-bench/apps/frappe/frappe/core/doctype/scheduled_job_type/scheduled_job_type.py:
Site: pos
Scheduled Job Start: frappe.email.queue.flush for pos
[INFO] 2020-03-12 15:27:52,522 | /home/abhishek/Documents/Development/frappe/frappe-bench/apps/frappe/frappe/core/doctype/scheduled_job_type/scheduled_job_type.py:
Site: pos
Scheduled Job Complete: frappe.email.queue.flush for pos
[DEBUG] 2020-03-12 15:28:52,617 | /home/abhishek/Documents/Development/frappe/frappe-bench/apps/frappe/frappe/utils/scheduler.py:
Site: pos
Queued events for site pos
[INFO] 2020-03-12 15:28:52,666 | /home/abhishek/Documents/Development/frappe/frappe-bench/apps/frappe/frappe/core/doctype/scheduled_job_type/scheduled_job_type.py:
Site: pos
Scheduled Job Start: frappe.utils.global_search.sync_global_search for pos
[INFO] 2020-03-12 15:28:52,675 | /home/abhishek/Documents/Development/frappe/frappe-bench/apps/frappe/frappe/core/doctype/scheduled_job_type/scheduled_job_type.py:
Site: pos
Scheduled Job Complete: frappe.utils.global_search.sync_global_search for pos
[INFO] 2020-03-12 15:28:52,714 | /home/abhishek/Documents/Development/frappe/frappe-bench/apps/frappe/frappe/core/doctype/scheduled_job_type/scheduled_job_type.py:
Site: pos
Scheduled Job Start: frappe.integrations.doctype.razorpay_settings.razorpay_settings.capture_payment for pos
[INFO] 2020-03-12 15:28:52,753 | /home/abhishek/Documents/Development/frappe/frappe-bench/apps/frappe/frappe/core/doctype/scheduled_job_type/scheduled_job_type.py:
Site: pos
Scheduled Job Complete: frappe.integrations.doctype.razorpay_settings.razorpay_settings.capture_payment for pos
[INFO] 2020-03-12 15:28:52,793 | /home/abhishek/Documents/Development/frappe/frappe-bench/apps/frappe/frappe/core/doctype/scheduled_job_type/scheduled_job_type.py:
Site: pos
Scheduled Job Start: frappe.email.doctype.email_account.email_account.notify_unreplied for pos
[INFO] 2020-03-12 15:28:52,885 | /home/abhishek/Documents/Development/frappe/frappe-bench/apps/frappe/frappe/core/doctype/scheduled_job_type/scheduled_job_type.py:
Site: pos
Scheduled Job Complete: frappe.email.doctype.email_account.email_account.notify_unreplied for pos
[INFO] 2020-03-12 15:28:52,921 | /home/abhishek/Documents/Development/frappe/frappe-bench/apps/frappe/frappe/core/doctype/scheduled_job_type/scheduled_job_type.py:
Site: pos
Scheduled Job Start: frappe.email.doctype.email_account.email_account.pull for pos
[INFO] 2020-03-12 15:28:52,967 | /home/abhishek/Documents/Development/frappe/frappe-bench/apps/frappe/frappe/core/doctype/scheduled_job_type/scheduled_job_type.py:
Site: pos
Scheduled Job Complete: frappe.email.doctype.email_account.email_account.pull for pos
[INFO] 2020-03-12 15:28:53,009 | /home/abhishek/Documents/Development/frappe/frappe-bench/apps/frappe/frappe/core/doctype/scheduled_job_type/scheduled_job_type.py:
Site: pos
Scheduled Job Start: frappe.email.queue.flush for pos
[INFO] 2020-03-12 15:28:53,026 | /home/abhishek/Documents/Development/frappe/frappe-bench/apps/frappe/frappe/core/doctype/scheduled_job_type/scheduled_job_type.py:
Site: pos
Scheduled Job Complete: frappe.email.queue.flush for pos
[DEBUG] 2020-03-12 15:29:52,777 | /home/abhishek/Documents/Development/frappe/frappe-bench/apps/frappe/frappe/utils/scheduler.py:
Site: pos
Queued events for site pos
[INFO] 2020-03-12 15:29:52,825 | /home/abhishek/Documents/Development/frappe/frappe-bench/apps/frappe/frappe/core/doctype/scheduled_job_type/scheduled_job_type.py:
Site: pos
Scheduled Job Start: frappe.utils.global_search.sync_global_search for pos
[INFO] 2020-03-12 15:29:52,827 | /home/abhishek/Documents/Development/frappe/frappe-bench/apps/frappe/frappe/core/doctype/scheduled_job_type/scheduled_job_type.py:
Site: pos
Scheduled Job Complete: frappe.utils.global_search.sync_global_search for pos
[INFO] 2020-03-12 15:29:52,862 | /home/abhishek/Documents/Development/frappe/frappe-bench/apps/frappe/frappe/core/doctype/scheduled_job_type/scheduled_job_type.py:
Site: pos
Scheduled Job Start: frappe.integrations.doctype.razorpay_settings.razorpay_settings.capture_payment for pos
[INFO] 2020-03-12 15:29:52,874 | /home/abhishek/Documents/Development/frappe/frappe-bench/apps/frappe/frappe/core/doctype/scheduled_job_type/scheduled_job_type.py:
Site: pos
Scheduled Job Complete: frappe.integrations.doctype.razorpay_settings.razorpay_settings.capture_payment for pos
[INFO] 2020-03-12 15:29:52,911 | /home/abhishek/Documents/Development/frappe/frappe-bench/apps/frappe/frappe/core/doctype/scheduled_job_type/scheduled_job_type.py:
Site: pos
Scheduled Job Start: frappe.email.doctype.email_account.email_account.notify_unreplied for pos
[INFO] 2020-03-12 15:29:52,975 | /home/abhishek/Documents/Development/frappe/frappe-bench/apps/frappe/frappe/core/doctype/scheduled_job_type/scheduled_job_type.py:
Site: pos
Scheduled Job Complete: frappe.email.doctype.email_account.email_account.notify_unreplied for pos
[INFO] 2020-03-12 15:29:53,013 | /home/abhishek/Documents/Development/frappe/frappe-bench/apps/frappe/frappe/core/doctype/scheduled_job_type/scheduled_job_type.py:
Site: pos
Scheduled Job Start: frappe.email.doctype.email_account.email_account.pull for pos
[INFO] 2020-03-12 15:29:53,057 | /home/abhishek/Documents/Development/frappe/frappe-bench/apps/frappe/frappe/core/doctype/scheduled_job_type/scheduled_job_type.py:
Site: pos
Scheduled Job Complete: frappe.email.doctype.email_account.email_account.pull for pos
[INFO] 2020-03-12 15:29:53,096 | /home/abhishek/Documents/Development/frappe/frappe-bench/apps/frappe/frappe/core/doctype/scheduled_job_type/scheduled_job_type.py:
Site: pos
Scheduled Job Start: frappe.email.queue.flush for pos
[INFO] 2020-03-12 15:29:53,120 | /home/abhishek/Documents/Development/frappe/frappe-bench/apps/frappe/frappe/core/doctype/scheduled_job_type/scheduled_job_type.py:
Site: pos
Scheduled Job Complete: frappe.email.queue.flush for pos
[INFO] 2020-03-12 15:30:52,928 | /home/abhishek/Documents/Development/frappe/frappe-bench/apps/frappe/frappe/core/doctype/scheduled_job_type/scheduled_job_type.py:
Site: pos
Scheduled Job Start: frappe.utils.global_search.sync_global_search for pos
[DEBUG] 2020-03-12 15:30:52,928 | /home/abhishek/Documents/Development/frappe/frappe-bench/apps/frappe/frappe/utils/scheduler.py:
Site: pos
Queued events for site pos
[INFO] 2020-03-12 15:30:52,929 | /home/abhishek/Documents/Development/frappe/frappe-bench/apps/frappe/frappe/core/doctype/scheduled_job_type/scheduled_job_type.py:
Site: pos
Scheduled Job Complete: frappe.utils.global_search.sync_global_search for pos
[INFO] 2020-03-12 15:30:52,967 | /home/abhishek/Documents/Development/frappe/frappe-bench/apps/frappe/frappe/core/doctype/scheduled_job_type/scheduled_job_type.py:
Site: pos
Scheduled Job Start: frappe.integrations.doctype.razorpay_settings.razorpay_settings.capture_payment for pos
[INFO] 2020-03-12 15:30:52,974 | /home/abhishek/Documents/Development/frappe/frappe-bench/apps/frappe/frappe/core/doctype/scheduled_job_type/scheduled_job_type.py:
Site: pos
Scheduled Job Complete: frappe.integrations.doctype.razorpay_settings.razorpay_settings.capture_payment for pos
[INFO] 2020-03-12 15:30:53,010 | /home/abhishek/Documents/Development/frappe/frappe-bench/apps/frappe/frappe/core/doctype/scheduled_job_type/scheduled_job_type.py:
Site: pos
Scheduled Job Start: frappe.email.doctype.email_account.email_account.notify_unreplied for pos
[INFO] 2020-03-12 15:30:53,042 | /home/abhishek/Documents/Development/frappe/frappe-bench/apps/frappe/frappe/core/doctype/scheduled_job_type/scheduled_job_type.py:
Site: pos
Scheduled Job Complete: frappe.email.doctype.email_account.email_account.notify_unreplied for pos
[INFO] 2020-03-12 15:30:53,079 | /home/abhishek/Documents/Development/frappe/frappe-bench/apps/frappe/frappe/core/doctype/scheduled_job_type/scheduled_job_type.py:
Site: pos
Scheduled Job Start: frappe.email.doctype.email_account.email_account.pull for pos
[INFO] 2020-03-12 15:30:53,119 | /home/abhishek/Documents/Development/frappe/frappe-bench/apps/frappe/frappe/core/doctype/scheduled_job_type/scheduled_job_type.py:
Site: pos
Scheduled Job Complete: frappe.email.doctype.email_account.email_account.pull for pos
[INFO] 2020-03-12 15:30:53,156 | /home/abhishek/Documents/Development/frappe/frappe-bench/apps/frappe/frappe/core/doctype/scheduled_job_type/scheduled_job_type.py:
Site: pos
Scheduled Job Start: frappe.email.queue.flush for pos
[INFO] 2020-03-12 15:30:53,173 | /home/abhishek/Documents/Development/frappe/frappe-bench/apps/frappe/frappe/core/doctype/scheduled_job_type/scheduled_job_type.py:
Site: pos
Scheduled Job Complete: frappe.email.queue.flush for pos
[INFO] 2020-03-12 15:30:53,208 | /home/abhishek/Documents/Development/frappe/frappe-bench/apps/frappe/frappe/core/doctype/scheduled_job_type/scheduled_job_type.py:
Site: pos
Scheduled Job Start: frappe.twofactor.delete_all_barcodes_for_users for pos
[INFO] 2020-03-12 15:30:53,483 | /home/abhishek/Documents/Development/frappe/frappe-bench/apps/frappe/frappe/core/doctype/scheduled_job_type/scheduled_job_type.py:
Site: pos
Scheduled Job Complete: frappe.twofactor.delete_all_barcodes_for_users for pos
[INFO] 2020-03-12 15:30:53,529 | /home/abhishek/Documents/Development/frappe/frappe-bench/apps/frappe/frappe/core/doctype/scheduled_job_type/scheduled_job_type.py:
Site: pos
Scheduled Job Start: frappe.website.doctype.web_page.web_page.check_publish_status for pos
[INFO] 2020-03-12 15:30:53,646 | /home/abhishek/Documents/Development/frappe/frappe-bench/apps/frappe/frappe/core/doctype/scheduled_job_type/scheduled_job_type.py:
Site: pos
Scheduled Job Complete: frappe.website.doctype.web_page.web_page.check_publish_status for pos
[INFO] 2020-03-12 15:30:53,689 | /home/abhishek/Documents/Development/frappe/frappe-bench/apps/frappe/frappe/core/doctype/scheduled_job_type/scheduled_job_type.py:
Site: pos
Scheduled Job Start: frappe.oauth.delete_oauth2_data for pos
[INFO] 2020-03-12 15:30:53,831 | /home/abhishek/Documents/Development/frappe/frappe-bench/apps/frappe/frappe/core/doctype/scheduled_job_type/scheduled_job_type.py:
Site: pos
Scheduled Job Complete: frappe.oauth.delete_oauth2_data for pos
[DEBUG] 2020-03-12 15:31:53,078 | /home/abhishek/Documents/Development/frappe/frappe-bench/apps/frappe/frappe/utils/scheduler.py:
Site: pos
Queued events for site pos
[INFO] 2020-03-12 15:31:53,101 | /home/abhishek/Documents/Development/frappe/frappe-bench/apps/frappe/frappe/core/doctype/scheduled_job_type/scheduled_job_type.py:
Site: pos
Scheduled Job Start: frappe.utils.global_search.sync_global_search for pos
[INFO] 2020-03-12 15:31:53,102 | /home/abhishek/Documents/Development/frappe/frappe-bench/apps/frappe/frappe/core/doctype/scheduled_job_type/scheduled_job_type.py:
Site: pos
Scheduled Job Complete: frappe.utils.global_search.sync_global_search for pos
[INFO] 2020-03-12 15:31:53,143 | /home/abhishek/Documents/Development/frappe/frappe-bench/apps/frappe/frappe/core/doctype/scheduled_job_type/scheduled_job_type.py:
Site: pos
Scheduled Job Start: frappe.integrations.doctype.razorpay_settings.razorpay_settings.capture_payment for pos
[INFO] 2020-03-12 15:31:53,150 | /home/abhishek/Documents/Development/frappe/frappe-bench/apps/frappe/frappe/core/doctype/scheduled_job_type/scheduled_job_type.py:
Site: pos
Scheduled Job Complete: frappe.integrations.doctype.razorpay_settings.razorpay_settings.capture_payment for pos
[INFO] 2020-03-12 15:31:53,186 | /home/abhishek/Documents/Development/frappe/frappe-bench/apps/frappe/frappe/core/doctype/scheduled_job_type/scheduled_job_type.py:
Site: pos
Scheduled Job Start: frappe.email.doctype.email_account.email_account.notify_unreplied for pos
[INFO] 2020-03-12 15:31:53,220 | /home/abhishek/Documents/Development/frappe/frappe-bench/apps/frappe/frappe/core/doctype/scheduled_job_type/scheduled_job_type.py:
Site: pos
Scheduled Job Complete: frappe.email.doctype.email_account.email_account.notify_unreplied for pos
[INFO] 2020-03-12 15:31:53,257 | /home/abhishek/Documents/Development/frappe/frappe-bench/apps/frappe/frappe/core/doctype/scheduled_job_type/scheduled_job_type.py:
Site: pos
Scheduled Job Start: frappe.email.doctype.email_account.email_account.pull for pos
[INFO] 2020-03-12 15:31:53,298 | /home/abhishek/Documents/Development/frappe/frappe-bench/apps/frappe/frappe/core/doctype/scheduled_job_type/scheduled_job_type.py:
Site: pos
Scheduled Job Complete: frappe.email.doctype.email_account.email_account.pull for pos
[INFO] 2020-03-12 15:31:53,334 | /home/abhishek/Documents/Development/frappe/frappe-bench/apps/frappe/frappe/core/doctype/scheduled_job_type/scheduled_job_type.py:
Site: pos
Scheduled Job Start: frappe.email.queue.flush for pos
[INFO] 2020-03-12 15:31:53,352 | /home/abhishek/Documents/Development/frappe/frappe-bench/apps/frappe/frappe/core/doctype/scheduled_job_type/scheduled_job_type.py:
Site: pos
Scheduled Job Complete: frappe.email.queue.flush for pos
[DEBUG] 2020-03-12 15:32:53,216 | /home/abhishek/Documents/Development/frappe/frappe-bench/apps/frappe/frappe/utils/scheduler.py:
Site: pos
Queued events for site pos
[INFO] 2020-03-12 15:32:53,230 | /home/abhishek/Documents/Development/frappe/frappe-bench/apps/frappe/frappe/core/doctype/scheduled_job_type/scheduled_job_type.py:
Site: pos
Scheduled Job Start: frappe.utils.global_search.sync_global_search for pos
[INFO] 2020-03-12 15:32:53,231 | /home/abhishek/Documents/Development/frappe/frappe-bench/apps/frappe/frappe/core/doctype/scheduled_job_type/scheduled_job_type.py:
Site: pos
Scheduled Job Complete: frappe.utils.global_search.sync_global_search for pos
[INFO] 2020-03-12 15:32:53,264 | /home/abhishek/Documents/Development/frappe/frappe-bench/apps/frappe/frappe/core/doctype/scheduled_job_type/scheduled_job_type.py:
Site: pos
Scheduled Job Start: frappe.integrations.doctype.razorpay_settings.razorpay_settings.capture_payment for pos
[INFO] 2020-03-12 15:32:53,270 | /home/abhishek/Documents/Development/frappe/frappe-bench/apps/frappe/frappe/core/doctype/scheduled_job_type/scheduled_job_type.py:
Site: pos
Scheduled Job Complete: frappe.integrations.doctype.razorpay_settings.razorpay_settings.capture_payment for pos
[INFO] 2020-03-12 15:32:53,307 | /home/abhishek/Documents/Development/frappe/frappe-bench/apps/frappe/frappe/core/doctype/scheduled_job_type/scheduled_job_type.py:
Site: pos
Scheduled Job Start: frappe.email.doctype.email_account.email_account.notify_unreplied for pos
[INFO] 2020-03-12 15:32:53,336 | /home/abhishek/Documents/Development/frappe/frappe-bench/apps/frappe/frappe/core/doctype/scheduled_job_type/scheduled_job_type.py:
Site: pos
Scheduled Job Complete: frappe.email.doctype.email_account.email_account.notify_unreplied for pos
[INFO] 2020-03-12 15:32:53,368 | /home/abhishek/Documents/Development/frappe/frappe-bench/apps/frappe/frappe/core/doctype/scheduled_job_type/scheduled_job_type.py:
Site: pos
Scheduled Job Start: frappe.email.doctype.email_account.email_account.pull for pos
[INFO] 2020-03-12 15:32:53,407 | /home/abhishek/Documents/Development/frappe/frappe-bench/apps/frappe/frappe/core/doctype/scheduled_job_type/scheduled_job_type.py:
Site: pos
Scheduled Job Complete: frappe.email.doctype.email_account.email_account.pull for pos
[INFO] 2020-03-12 15:32:53,441 | /home/abhishek/Documents/Development/frappe/frappe-bench/apps/frappe/frappe/core/doctype/scheduled_job_type/scheduled_job_type.py:
Site: pos
Scheduled Job Start: frappe.email.queue.flush for pos
[INFO] 2020-03-12 15:32:53,457 | /home/abhishek/Documents/Development/frappe/frappe-bench/apps/frappe/frappe/core/doctype/scheduled_job_type/scheduled_job_type.py:
Site: pos
Scheduled Job Complete: frappe.email.queue.flush for pos
[DEBUG] 2020-03-12 15:33:53,349 | /home/abhishek/Documents/Development/frappe/frappe-bench/apps/frappe/frappe/utils/scheduler.py:
Site: pos
Queued events for site pos
[INFO] 2020-03-12 15:33:53,362 | /home/abhishek/Documents/Development/frappe/frappe-bench/apps/frappe/frappe/core/doctype/scheduled_job_type/scheduled_job_type.py:
Site: pos
Scheduled Job Start: frappe.utils.global_search.sync_global_search for pos
[INFO] 2020-03-12 15:33:53,363 | /home/abhishek/Documents/Development/frappe/frappe-bench/apps/frappe/frappe/core/doctype/scheduled_job_type/scheduled_job_type.py:
Site: pos
Scheduled Job Complete: frappe.utils.global_search.sync_global_search for pos
[INFO] 2020-03-12 15:33:53,393 | /home/abhishek/Documents/Development/frappe/frappe-bench/apps/frappe/frappe/core/doctype/scheduled_job_type/scheduled_job_type.py:
Site: pos
Scheduled Job Start: frappe.integrations.doctype.razorpay_settings.razorpay_settings.capture_payment for pos
[INFO] 2020-03-12 15:33:53,399 | /home/abhishek/Documents/Development/frappe/frappe-bench/apps/frappe/frappe/core/doctype/scheduled_job_type/scheduled_job_type.py:
Site: pos
Scheduled Job Complete: frappe.integrations.doctype.razorpay_settings.razorpay_settings.capture_payment for pos
[INFO] 2020-03-12 15:33:53,431 | /home/abhishek/Documents/Development/frappe/frappe-bench/apps/frappe/frappe/core/doctype/scheduled_job_type/scheduled_job_type.py:
Site: pos
Scheduled Job Start: frappe.email.doctype.email_account.email_account.notify_unreplied for pos
[INFO] 2020-03-12 15:33:53,462 | /home/abhishek/Documents/Development/frappe/frappe-bench/apps/frappe/frappe/core/doctype/scheduled_job_type/scheduled_job_type.py:
Site: pos
Scheduled Job Complete: frappe.email.doctype.email_account.email_account.notify_unreplied for pos
[INFO] 2020-03-12 15:33:53,495 | /home/abhishek/Documents/Development/frappe/frappe-bench/apps/frappe/frappe/core/doctype/scheduled_job_type/scheduled_job_type.py:
Site: pos
Scheduled Job Start: frappe.email.doctype.email_account.email_account.pull for pos
[INFO] 2020-03-12 15:33:53,531 | /home/abhishek/Documents/Development/frappe/frappe-bench/apps/frappe/frappe/core/doctype/scheduled_job_type/scheduled_job_type.py:
Site: pos
Scheduled Job Complete: frappe.email.doctype.email_account.email_account.pull for pos
[INFO] 2020-03-12 15:33:53,576 | /home/abhishek/Documents/Development/frappe/frappe-bench/apps/frappe/frappe/core/doctype/scheduled_job_type/scheduled_job_type.py:
Site: pos
Scheduled Job Start: frappe.email.queue.flush for pos
[INFO] 2020-03-12 15:33:53,592 | /home/abhishek/Documents/Development/frappe/frappe-bench/apps/frappe/frappe/core/doctype/scheduled_job_type/scheduled_job_type.py:
Site: pos
Scheduled Job Complete: frappe.email.queue.flush for pos
[DEBUG] 2020-03-12 15:34:53,490 | /home/abhishek/Documents/Development/frappe/frappe-bench/apps/frappe/frappe/utils/scheduler.py:
Site: pos
Queued events for site pos
[INFO] 2020-03-12 15:34:53,502 | /home/abhishek/Documents/Development/frappe/frappe-bench/apps/frappe/frappe/core/doctype/scheduled_job_type/scheduled_job_type.py:
Site: pos
Scheduled Job Start: frappe.utils.global_search.sync_global_search for pos
[INFO] 2020-03-12 15:34:53,502 | /home/abhishek/Documents/Development/frappe/frappe-bench/apps/frappe/frappe/core/doctype/scheduled_job_type/scheduled_job_type.py:
Site: pos
Scheduled Job Complete: frappe.utils.global_search.sync_global_search for pos
[INFO] 2020-03-12 15:34:53,534 | /home/abhishek/Documents/Development/frappe/frappe-bench/apps/frappe/frappe/core/doctype/scheduled_job_type/scheduled_job_type.py:
Site: pos
Scheduled Job Start: frappe.integrations.doctype.razorpay_settings.razorpay_settings.capture_payment for pos
[INFO] 2020-03-12 15:34:53,540 | /home/abhishek/Documents/Development/frappe/frappe-bench/apps/frappe/frappe/core/doctype/scheduled_job_type/scheduled_job_type.py:
Site: pos
Scheduled Job Complete: frappe.integrations.doctype.razorpay_settings.razorpay_settings.capture_payment for pos
[INFO] 2020-03-12 15:34:53,574 | /home/abhishek/Documents/Development/frappe/frappe-bench/apps/frappe/frappe/core/doctype/scheduled_job_type/scheduled_job_type.py:
Site: pos
Scheduled Job Start: frappe.email.doctype.email_account.email_account.notify_unreplied for pos
[INFO] 2020-03-12 15:34:53,602 | /home/abhishek/Documents/Development/frappe/frappe-bench/apps/frappe/frappe/core/doctype/scheduled_job_type/scheduled_job_type.py:
Site: pos
Scheduled Job Complete: frappe.email.doctype.email_account.email_account.notify_unreplied for pos
[INFO] 2020-03-12 15:34:53,635 | /home/abhishek/Documents/Development/frappe/frappe-bench/apps/frappe/frappe/core/doctype/scheduled_job_type/scheduled_job_type.py:
Site: pos
Scheduled Job Start: frappe.email.doctype.email_account.email_account.pull for pos
[INFO] 2020-03-12 15:34:53,669 | /home/abhishek/Documents/Development/frappe/frappe-bench/apps/frappe/frappe/core/doctype/scheduled_job_type/scheduled_job_type.py:
Site: pos
Scheduled Job Complete: frappe.email.doctype.email_account.email_account.pull for pos
[INFO] 2020-03-12 15:34:53,703 | /home/abhishek/Documents/Development/frappe/frappe-bench/apps/frappe/frappe/core/doctype/scheduled_job_type/scheduled_job_type.py:
Site: pos
Scheduled Job Start: frappe.email.queue.flush for pos
[INFO] 2020-03-12 15:34:53,718 | /home/abhishek/Documents/Development/frappe/frappe-bench/apps/frappe/frappe/core/doctype/scheduled_job_type/scheduled_job_type.py:
Site: pos
Scheduled Job Complete: frappe.email.queue.flush for pos
[DEBUG] 2020-03-12 15:35:53,637 | /home/abhishek/Documents/Development/frappe/frappe-bench/apps/frappe/frappe/utils/scheduler.py:
Site: pos
Queued events for site pos
[INFO] 2020-03-12 15:35:53,650 | /home/abhishek/Documents/Development/frappe/frappe-bench/apps/frappe/frappe/core/doctype/scheduled_job_type/scheduled_job_type.py:
Site: pos
Scheduled Job Start: frappe.utils.global_search.sync_global_search for pos
[INFO] 2020-03-12 15:35:53,650 | /home/abhishek/Documents/Development/frappe/frappe-bench/apps/frappe/frappe/core/doctype/scheduled_job_type/scheduled_job_type.py:
Site: pos
Scheduled Job Complete: frappe.utils.global_search.sync_global_search for pos
[INFO] 2020-03-12 15:35:53,685 | /home/abhishek/Documents/Development/frappe/frappe-bench/apps/frappe/frappe/core/doctype/scheduled_job_type/scheduled_job_type.py:
Site: pos
Scheduled Job Start: frappe.integrations.doctype.razorpay_settings.razorpay_settings.capture_payment for pos
[INFO] 2020-03-12 15:35:53,691 | /home/abhishek/Documents/Development/frappe/frappe-bench/apps/frappe/frappe/core/doctype/scheduled_job_type/scheduled_job_type.py:
Site: pos
Scheduled Job Complete: frappe.integrations.doctype.razorpay_settings.razorpay_settings.capture_payment for pos
[INFO] 2020-03-12 15:35:53,726 | /home/abhishek/Documents/Development/frappe/frappe-bench/apps/frappe/frappe/core/doctype/scheduled_job_type/scheduled_job_type.py:
Site: pos
Scheduled Job Start: frappe.email.doctype.email_account.email_account.notify_unreplied for pos
[INFO] 2020-03-12 15:35:53,755 | /home/abhishek/Documents/Development/frappe/frappe-bench/apps/frappe/frappe/core/doctype/scheduled_job_type/scheduled_job_type.py:
Site: pos
Scheduled Job Complete: frappe.email.doctype.email_account.email_account.notify_unreplied for pos
[INFO] 2020-03-12 15:35:53,791 | /home/abhishek/Documents/Development/frappe/frappe-bench/apps/frappe/frappe/core/doctype/scheduled_job_type/scheduled_job_type.py:
Site: pos
Scheduled Job Start: frappe.email.doctype.email_account.email_account.pull for pos
[INFO] 2020-03-12 15:35:53,828 | /home/abhishek/Documents/Development/frappe/frappe-bench/apps/frappe/frappe/core/doctype/scheduled_job_type/scheduled_job_type.py:
Site: pos
Scheduled Job Complete: frappe.email.doctype.email_account.email_account.pull for pos
[INFO] 2020-03-12 15:35:53,864 | /home/abhishek/Documents/Development/frappe/frappe-bench/apps/frappe/frappe/core/doctype/scheduled_job_type/scheduled_job_type.py:
Site: pos
Scheduled Job Start: frappe.email.queue.flush for pos
[INFO] 2020-03-12 15:35:53,879 | /home/abhishek/Documents/Development/frappe/frappe-bench/apps/frappe/frappe/core/doctype/scheduled_job_type/scheduled_job_type.py:
Site: pos
Scheduled Job Complete: frappe.email.queue.flush for pos
[DEBUG] 2020-03-12 15:36:53,776 | /home/abhishek/Documents/Development/frappe/frappe-bench/apps/frappe/frappe/utils/scheduler.py:
Site: pos
Queued events for site pos
[INFO] 2020-03-12 15:36:53,787 | /home/abhishek/Documents/Development/frappe/frappe-bench/apps/frappe/frappe/core/doctype/scheduled_job_type/scheduled_job_type.py:
Site: pos
Scheduled Job Start: frappe.utils.global_search.sync_global_search for pos
[INFO] 2020-03-12 15:36:53,788 | /home/abhishek/Documents/Development/frappe/frappe-bench/apps/frappe/frappe/core/doctype/scheduled_job_type/scheduled_job_type.py:
Site: pos
Scheduled Job Complete: frappe.utils.global_search.sync_global_search for pos
[INFO] 2020-03-12 15:36:53,821 | /home/abhishek/Documents/Development/frappe/frappe-bench/apps/frappe/frappe/core/doctype/scheduled_job_type/scheduled_job_type.py:
Site: pos
Scheduled Job Start: frappe.integrations.doctype.razorpay_settings.razorpay_settings.capture_payment for pos
[INFO] 2020-03-12 15:36:53,828 | /home/abhishek/Documents/Development/frappe/frappe-bench/apps/frappe/frappe/core/doctype/scheduled_job_type/scheduled_job_type.py:
Site: pos
Scheduled Job Complete: frappe.integrations.doctype.razorpay_settings.razorpay_settings.capture_payment for pos
[INFO] 2020-03-12 15:36:53,863 | /home/abhishek/Documents/Development/frappe/frappe-bench/apps/frappe/frappe/core/doctype/scheduled_job_type/scheduled_job_type.py:
Site: pos
Scheduled Job Start: frappe.email.doctype.email_account.email_account.notify_unreplied for pos
[INFO] 2020-03-12 15:36:53,891 | /home/abhishek/Documents/Development/frappe/frappe-bench/apps/frappe/frappe/core/doctype/scheduled_job_type/scheduled_job_type.py:
Site: pos
Scheduled Job Complete: frappe.email.doctype.email_account.email_account.notify_unreplied for pos
[INFO] 2020-03-12 15:36:53,924 | /home/abhishek/Documents/Development/frappe/frappe-bench/apps/frappe/frappe/core/doctype/scheduled_job_type/scheduled_job_type.py:
Site: pos
Scheduled Job Start: frappe.email.doctype.email_account.email_account.pull for pos
[INFO] 2020-03-12 15:36:53,958 | /home/abhishek/Documents/Development/frappe/frappe-bench/apps/frappe/frappe/core/doctype/scheduled_job_type/scheduled_job_type.py:
Site: pos
Scheduled Job Complete: frappe.email.doctype.email_account.email_account.pull for pos
[INFO] 2020-03-12 15:36:53,992 | /home/abhishek/Documents/Development/frappe/frappe-bench/apps/frappe/frappe/core/doctype/scheduled_job_type/scheduled_job_type.py:
Site: pos
Scheduled Job Start: frappe.email.queue.flush for pos
[INFO] 2020-03-12 15:36:54,007 | /home/abhishek/Documents/Development/frappe/frappe-bench/apps/frappe/frappe/core/doctype/scheduled_job_type/scheduled_job_type.py:
Site: pos
Scheduled Job Complete: frappe.email.queue.flush for pos
[DEBUG] 2020-03-12 15:37:53,923 | /home/abhishek/Documents/Development/frappe/frappe-bench/apps/frappe/frappe/utils/scheduler.py:
Site: pos
Queued events for site pos
[INFO] 2020-03-12 15:37:53,941 | /home/abhishek/Documents/Development/frappe/frappe-bench/apps/frappe/frappe/core/doctype/scheduled_job_type/scheduled_job_type.py:
Site: pos
Scheduled Job Start: frappe.utils.global_search.sync_global_search for pos
[INFO] 2020-03-12 15:37:53,942 | /home/abhishek/Documents/Development/frappe/frappe-bench/apps/frappe/frappe/core/doctype/scheduled_job_type/scheduled_job_type.py:
Site: pos
Scheduled Job Complete: frappe.utils.global_search.sync_global_search for pos
[INFO] 2020-03-12 15:37:53,983 | /home/abhishek/Documents/Development/frappe/frappe-bench/apps/frappe/frappe/core/doctype/scheduled_job_type/scheduled_job_type.py:
Site: pos
Scheduled Job Start: frappe.integrations.doctype.razorpay_settings.razorpay_settings.capture_payment for pos
[INFO] 2020-03-12 15:37:53,989 | /home/abhishek/Documents/Development/frappe/frappe-bench/apps/frappe/frappe/core/doctype/scheduled_job_type/scheduled_job_type.py:
Site: pos
Scheduled Job Complete: frappe.integrations.doctype.razorpay_settings.razorpay_settings.capture_payment for pos
[INFO] 2020-03-12 15:37:54,023 | /home/abhishek/Documents/Development/frappe/frappe-bench/apps/frappe/frappe/core/doctype/scheduled_job_type/scheduled_job_type.py:
Site: pos
Scheduled Job Start: frappe.email.doctype.email_account.email_account.notify_unreplied for pos
[INFO] 2020-03-12 15:37:54,055 | /home/abhishek/Documents/Development/frappe/frappe-bench/apps/frappe/frappe/core/doctype/scheduled_job_type/scheduled_job_type.py:
Site: pos
Scheduled Job Complete: frappe.email.doctype.email_account.email_account.notify_unreplied for pos
[INFO] 2020-03-12 15:37:54,090 | /home/abhishek/Documents/Development/frappe/frappe-bench/apps/frappe/frappe/core/doctype/scheduled_job_type/scheduled_job_type.py:
Site: pos
Scheduled Job Start: frappe.email.doctype.email_account.email_account.pull for pos
[INFO] 2020-03-12 15:37:54,130 | /home/abhishek/Documents/Development/frappe/frappe-bench/apps/frappe/frappe/core/doctype/scheduled_job_type/scheduled_job_type.py:
Site: pos
Scheduled Job Complete: frappe.email.doctype.email_account.email_account.pull for pos
[INFO] 2020-03-12 15:37:54,165 | /home/abhishek/Documents/Development/frappe/frappe-bench/apps/frappe/frappe/core/doctype/scheduled_job_type/scheduled_job_type.py:
Site: pos
Scheduled Job Start: frappe.email.queue.flush for pos
[INFO] 2020-03-12 15:37:54,184 | /home/abhishek/Documents/Development/frappe/frappe-bench/apps/frappe/frappe/core/doctype/scheduled_job_type/scheduled_job_type.py:
Site: pos
Scheduled Job Complete: frappe.email.queue.flush for pos
[DEBUG] 2020-03-12 15:38:54,205 | /home/abhishek/Documents/Development/frappe/frappe-bench/apps/frappe/frappe/utils/scheduler.py:
Site: pos
Queued events for site pos
[INFO] 2020-03-12 15:38:54,376 | /home/abhishek/Documents/Development/frappe/frappe-bench/apps/frappe/frappe/core/doctype/scheduled_job_type/scheduled_job_type.py:
Site: pos
Scheduled Job Start: frappe.utils.global_search.sync_global_search for pos
[INFO] 2020-03-12 15:38:54,379 | /home/abhishek/Documents/Development/frappe/frappe-bench/apps/frappe/frappe/core/doctype/scheduled_job_type/scheduled_job_type.py:
Site: pos
Scheduled Job Complete: frappe.utils.global_search.sync_global_search for pos
[INFO] 2020-03-12 15:38:54,416 | /home/abhishek/Documents/Development/frappe/frappe-bench/apps/frappe/frappe/core/doctype/scheduled_job_type/scheduled_job_type.py:
Site: pos
Scheduled Job Start: frappe.integrations.doctype.razorpay_settings.razorpay_settings.capture_payment for pos
[INFO] 2020-03-12 15:38:54,433 | /home/abhishek/Documents/Development/frappe/frappe-bench/apps/frappe/frappe/core/doctype/scheduled_job_type/scheduled_job_type.py:
Site: pos
Scheduled Job Complete: frappe.integrations.doctype.razorpay_settings.razorpay_settings.capture_payment for pos
[INFO] 2020-03-12 15:38:54,468 | /home/abhishek/Documents/Development/frappe/frappe-bench/apps/frappe/frappe/core/doctype/scheduled_job_type/scheduled_job_type.py:
Site: pos
Scheduled Job Start: frappe.email.doctype.email_account.email_account.notify_unreplied for pos
[INFO] 2020-03-12 15:38:54,563 | /home/abhishek/Documents/Development/frappe/frappe-bench/apps/frappe/frappe/core/doctype/scheduled_job_type/scheduled_job_type.py:
Site: pos
Scheduled Job Complete: frappe.email.doctype.email_account.email_account.notify_unreplied for pos
[INFO] 2020-03-12 15:38:54,603 | /home/abhishek/Documents/Development/frappe/frappe-bench/apps/frappe/frappe/core/doctype/scheduled_job_type/scheduled_job_type.py:
Site: pos
Scheduled Job Start: frappe.email.doctype.email_account.email_account.pull for pos
[INFO] 2020-03-12 15:38:54,653 | /home/abhishek/Documents/Development/frappe/frappe-bench/apps/frappe/frappe/core/doctype/scheduled_job_type/scheduled_job_type.py:
Site: pos
Scheduled Job Complete: frappe.email.doctype.email_account.email_account.pull for pos
[INFO] 2020-03-12 15:38:54,693 | /home/abhishek/Documents/Development/frappe/frappe-bench/apps/frappe/frappe/core/doctype/scheduled_job_type/scheduled_job_type.py:
Site: pos
Scheduled Job Start: frappe.email.queue.flush for pos
[INFO] 2020-03-12 15:38:54,711 | /home/abhishek/Documents/Development/frappe/frappe-bench/apps/frappe/frappe/core/doctype/scheduled_job_type/scheduled_job_type.py:
Site: pos
Scheduled Job Complete: frappe.email.queue.flush for pos
[DEBUG] 2020-03-12 15:39:54,381 | /home/abhishek/Documents/Development/frappe/frappe-bench/apps/frappe/frappe/utils/scheduler.py:
Site: pos
Queued events for site pos
[INFO] 2020-03-12 15:39:54,600 | /home/abhishek/Documents/Development/frappe/frappe-bench/apps/frappe/frappe/core/doctype/scheduled_job_type/scheduled_job_type.py:
Site: pos
Scheduled Job Start: frappe.utils.global_search.sync_global_search for pos
[INFO] 2020-03-12 15:39:54,605 | /home/abhishek/Documents/Development/frappe/frappe-bench/apps/frappe/frappe/core/doctype/scheduled_job_type/scheduled_job_type.py:
Site: pos
Scheduled Job Complete: frappe.utils.global_search.sync_global_search for pos
[INFO] 2020-03-12 15:39:54,642 | /home/abhishek/Documents/Development/frappe/frappe-bench/apps/frappe/frappe/core/doctype/scheduled_job_type/scheduled_job_type.py:
Site: pos
Scheduled Job Start: frappe.integrations.doctype.razorpay_settings.razorpay_settings.capture_payment for pos
[INFO] 2020-03-12 15:39:54,662 | /home/abhishek/Documents/Development/frappe/frappe-bench/apps/frappe/frappe/core/doctype/scheduled_job_type/scheduled_job_type.py:
Site: pos
Scheduled Job Complete: frappe.integrations.doctype.razorpay_settings.razorpay_settings.capture_payment for pos
[INFO] 2020-03-12 15:39:54,695 | /home/abhishek/Documents/Development/frappe/frappe-bench/apps/frappe/frappe/core/doctype/scheduled_job_type/scheduled_job_type.py:
Site: pos
Scheduled Job Start: frappe.email.doctype.email_account.email_account.notify_unreplied for pos
[INFO] 2020-03-12 15:39:54,830 | /home/abhishek/Documents/Development/frappe/frappe-bench/apps/frappe/frappe/core/doctype/scheduled_job_type/scheduled_job_type.py:
Site: pos
Scheduled Job Complete: frappe.email.doctype.email_account.email_account.notify_unreplied for pos
[INFO] 2020-03-12 15:39:54,868 | /home/abhishek/Documents/Development/frappe/frappe-bench/apps/frappe/frappe/core/doctype/scheduled_job_type/scheduled_job_type.py:
Site: pos
Scheduled Job Start: frappe.email.doctype.email_account.email_account.pull for pos
[INFO] 2020-03-12 15:39:54,952 | /home/abhishek/Documents/Development/frappe/frappe-bench/apps/frappe/frappe/core/doctype/scheduled_job_type/scheduled_job_type.py:
Site: pos
Scheduled Job Complete: frappe.email.doctype.email_account.email_account.pull for pos
[INFO] 2020-03-12 15:39:55,005 | /home/abhishek/Documents/Development/frappe/frappe-bench/apps/frappe/frappe/core/doctype/scheduled_job_type/scheduled_job_type.py:
Site: pos
Scheduled Job Start: frappe.email.queue.flush for pos
[INFO] 2020-03-12 15:39:55,045 | /home/abhishek/Documents/Development/frappe/frappe-bench/apps/frappe/frappe/core/doctype/scheduled_job_type/scheduled_job_type.py:
Site: pos
Scheduled Job Complete: frappe.email.queue.flush for pos
[DEBUG] 2020-03-12 15:40:54,532 | /home/abhishek/Documents/Development/frappe/frappe-bench/apps/frappe/frappe/utils/scheduler.py:
Site: pos
Queued events for site pos
[INFO] 2020-03-12 15:40:54,544 | /home/abhishek/Documents/Development/frappe/frappe-bench/apps/frappe/frappe/core/doctype/scheduled_job_type/scheduled_job_type.py:
Site: pos
Scheduled Job Start: frappe.utils.global_search.sync_global_search for pos
[INFO] 2020-03-12 15:40:54,545 | /home/abhishek/Documents/Development/frappe/frappe-bench/apps/frappe/frappe/core/doctype/scheduled_job_type/scheduled_job_type.py:
Site: pos
Scheduled Job Complete: frappe.utils.global_search.sync_global_search for pos
[INFO] 2020-03-12 15:40:54,585 | /home/abhishek/Documents/Development/frappe/frappe-bench/apps/frappe/frappe/core/doctype/scheduled_job_type/scheduled_job_type.py:
Site: pos
Scheduled Job Start: frappe.integrations.doctype.razorpay_settings.razorpay_settings.capture_payment for pos
[INFO] 2020-03-12 15:40:54,596 | /home/abhishek/Documents/Development/frappe/frappe-bench/apps/frappe/frappe/core/doctype/scheduled_job_type/scheduled_job_type.py:
Site: pos
Scheduled Job Complete: frappe.integrations.doctype.razorpay_settings.razorpay_settings.capture_payment for pos
[INFO] 2020-03-12 15:40:54,636 | /home/abhishek/Documents/Development/frappe/frappe-bench/apps/frappe/frappe/core/doctype/scheduled_job_type/scheduled_job_type.py:
Site: pos
Scheduled Job Start: frappe.email.doctype.email_account.email_account.notify_unreplied for pos
[INFO] 2020-03-12 15:40:54,673 | /home/abhishek/Documents/Development/frappe/frappe-bench/apps/frappe/frappe/core/doctype/scheduled_job_type/scheduled_job_type.py:
Site: pos
Scheduled Job Complete: frappe.email.doctype.email_account.email_account.notify_unreplied for pos
[INFO] 2020-03-12 15:40:54,711 | /home/abhishek/Documents/Development/frappe/frappe-bench/apps/frappe/frappe/core/doctype/scheduled_job_type/scheduled_job_type.py:
Site: pos
Scheduled Job Start: frappe.email.doctype.email_account.email_account.pull for pos
[INFO] 2020-03-12 15:40:54,759 | /home/abhishek/Documents/Development/frappe/frappe-bench/apps/frappe/frappe/core/doctype/scheduled_job_type/scheduled_job_type.py:
Site: pos
Scheduled Job Complete: frappe.email.doctype.email_account.email_account.pull for pos
[INFO] 2020-03-12 15:40:54,799 | /home/abhishek/Documents/Development/frappe/frappe-bench/apps/frappe/frappe/core/doctype/scheduled_job_type/scheduled_job_type.py:
Site: pos
Scheduled Job Start: frappe.email.queue.flush for pos
[INFO] 2020-03-12 15:40:54,818 | /home/abhishek/Documents/Development/frappe/frappe-bench/apps/frappe/frappe/core/doctype/scheduled_job_type/scheduled_job_type.py:
Site: pos
Scheduled Job Complete: frappe.email.queue.flush for pos
[DEBUG] 2020-03-12 15:41:54,706 | /home/abhishek/Documents/Development/frappe/frappe-bench/apps/frappe/frappe/utils/scheduler.py:
Site: pos
Queued events for site pos
[INFO] 2020-03-12 15:41:54,764 | /home/abhishek/Documents/Development/frappe/frappe-bench/apps/frappe/frappe/core/doctype/scheduled_job_type/scheduled_job_type.py:
Site: pos
Scheduled Job Start: frappe.utils.global_search.sync_global_search for pos
[INFO] 2020-03-12 15:41:54,766 | /home/abhishek/Documents/Development/frappe/frappe-bench/apps/frappe/frappe/core/doctype/scheduled_job_type/scheduled_job_type.py:
Site: pos
Scheduled Job Complete: frappe.utils.global_search.sync_global_search for pos
[INFO] 2020-03-12 15:41:54,806 | /home/abhishek/Documents/Development/frappe/frappe-bench/apps/frappe/frappe/core/doctype/scheduled_job_type/scheduled_job_type.py:
Site: pos
Scheduled Job Start: frappe.integrations.doctype.razorpay_settings.razorpay_settings.capture_payment for pos
[INFO] 2020-03-12 15:41:54,818 | /home/abhishek/Documents/Development/frappe/frappe-bench/apps/frappe/frappe/core/doctype/scheduled_job_type/scheduled_job_type.py:
Site: pos
Scheduled Job Complete: frappe.integrations.doctype.razorpay_settings.razorpay_settings.capture_payment for pos
[INFO] 2020-03-12 15:41:54,853 | /home/abhishek/Documents/Development/frappe/frappe-bench/apps/frappe/frappe/core/doctype/scheduled_job_type/scheduled_job_type.py:
Site: pos
Scheduled Job Start: frappe.email.doctype.email_account.email_account.notify_unreplied for pos
[INFO] 2020-03-12 15:41:54,919 | /home/abhishek/Documents/Development/frappe/frappe-bench/apps/frappe/frappe/core/doctype/scheduled_job_type/scheduled_job_type.py:
Site: pos
Scheduled Job Complete: frappe.email.doctype.email_account.email_account.notify_unreplied for pos
[INFO] 2020-03-12 15:41:54,957 | /home/abhishek/Documents/Development/frappe/frappe-bench/apps/frappe/frappe/core/doctype/scheduled_job_type/scheduled_job_type.py:
Site: pos
Scheduled Job Start: frappe.email.doctype.email_account.email_account.pull for pos
[INFO] 2020-03-12 15:41:55,009 | /home/abhishek/Documents/Development/frappe/frappe-bench/apps/frappe/frappe/core/doctype/scheduled_job_type/scheduled_job_type.py:
Site: pos
Scheduled Job Complete: frappe.email.doctype.email_account.email_account.pull for pos
[INFO] 2020-03-12 15:41:55,046 | /home/abhishek/Documents/Development/frappe/frappe-bench/apps/frappe/frappe/core/doctype/scheduled_job_type/scheduled_job_type.py:
Site: pos
Scheduled Job Start: frappe.email.queue.flush for pos
[INFO] 2020-03-12 15:41:55,067 | /home/abhishek/Documents/Development/frappe/frappe-bench/apps/frappe/frappe/core/doctype/scheduled_job_type/scheduled_job_type.py:
Site: pos
Scheduled Job Complete: frappe.email.queue.flush for pos
[DEBUG] 2020-03-12 15:42:54,848 | /home/abhishek/Documents/Development/frappe/frappe-bench/apps/frappe/frappe/utils/scheduler.py:
Site: pos
Queued events for site pos
[INFO] 2020-03-12 15:42:54,864 | /home/abhishek/Documents/Development/frappe/frappe-bench/apps/frappe/frappe/core/doctype/scheduled_job_type/scheduled_job_type.py:
Site: pos
Scheduled Job Start: frappe.utils.global_search.sync_global_search for pos
[INFO] 2020-03-12 15:42:54,865 | /home/abhishek/Documents/Development/frappe/frappe-bench/apps/frappe/frappe/core/doctype/scheduled_job_type/scheduled_job_type.py:
Site: pos
Scheduled Job Complete: frappe.utils.global_search.sync_global_search for pos
[INFO] 2020-03-12 15:42:54,903 | /home/abhishek/Documents/Development/frappe/frappe-bench/apps/frappe/frappe/core/doctype/scheduled_job_type/scheduled_job_type.py:
Site: pos
Scheduled Job Start: frappe.integrations.doctype.razorpay_settings.razorpay_settings.capture_payment for pos
[INFO] 2020-03-12 15:42:54,909 | /home/abhishek/Documents/Development/frappe/frappe-bench/apps/frappe/frappe/core/doctype/scheduled_job_type/scheduled_job_type.py:
Site: pos
Scheduled Job Complete: frappe.integrations.doctype.razorpay_settings.razorpay_settings.capture_payment for pos
[INFO] 2020-03-12 15:42:54,946 | /home/abhishek/Documents/Development/frappe/frappe-bench/apps/frappe/frappe/core/doctype/scheduled_job_type/scheduled_job_type.py:
Site: pos
Scheduled Job Start: frappe.email.doctype.email_account.email_account.notify_unreplied for pos
[INFO] 2020-03-12 15:42:54,977 | /home/abhishek/Documents/Development/frappe/frappe-bench/apps/frappe/frappe/core/doctype/scheduled_job_type/scheduled_job_type.py:
Site: pos
Scheduled Job Complete: frappe.email.doctype.email_account.email_account.notify_unreplied for pos
[INFO] 2020-03-12 15:42:55,011 | /home/abhishek/Documents/Development/frappe/frappe-bench/apps/frappe/frappe/core/doctype/scheduled_job_type/scheduled_job_type.py:
Site: pos
Scheduled Job Start: frappe.email.doctype.email_account.email_account.pull for pos
[INFO] 2020-03-12 15:42:55,051 | /home/abhishek/Documents/Development/frappe/frappe-bench/apps/frappe/frappe/core/doctype/scheduled_job_type/scheduled_job_type.py:
Site: pos
Scheduled Job Complete: frappe.email.doctype.email_account.email_account.pull for pos
[INFO] 2020-03-12 15:42:55,086 | /home/abhishek/Documents/Development/frappe/frappe-bench/apps/frappe/frappe/core/doctype/scheduled_job_type/scheduled_job_type.py:
Site: pos
Scheduled Job Start: frappe.email.queue.flush for pos
[INFO] 2020-03-12 15:42:55,104 | /home/abhishek/Documents/Development/frappe/frappe-bench/apps/frappe/frappe/core/doctype/scheduled_job_type/scheduled_job_type.py:
Site: pos
Scheduled Job Complete: frappe.email.queue.flush for pos
[DEBUG] 2020-03-12 15:43:54,983 | /home/abhishek/Documents/Development/frappe/frappe-bench/apps/frappe/frappe/utils/scheduler.py:
Site: pos
Queued events for site pos
[INFO] 2020-03-12 15:43:54,998 | /home/abhishek/Documents/Development/frappe/frappe-bench/apps/frappe/frappe/core/doctype/scheduled_job_type/scheduled_job_type.py:
Site: pos
Scheduled Job Start: frappe.utils.global_search.sync_global_search for pos
[INFO] 2020-03-12 15:43:54,998 | /home/abhishek/Documents/Development/frappe/frappe-bench/apps/frappe/frappe/core/doctype/scheduled_job_type/scheduled_job_type.py:
Site: pos
Scheduled Job Complete: frappe.utils.global_search.sync_global_search for pos
[INFO] 2020-03-12 15:43:55,034 | /home/abhishek/Documents/Development/frappe/frappe-bench/apps/frappe/frappe/core/doctype/scheduled_job_type/scheduled_job_type.py:
Site: pos
Scheduled Job Start: frappe.integrations.doctype.razorpay_settings.razorpay_settings.capture_payment for pos
[INFO] 2020-03-12 15:43:55,041 | /home/abhishek/Documents/Development/frappe/frappe-bench/apps/frappe/frappe/core/doctype/scheduled_job_type/scheduled_job_type.py:
Site: pos
Scheduled Job Complete: frappe.integrations.doctype.razorpay_settings.razorpay_settings.capture_payment for pos
[INFO] 2020-03-12 15:43:55,077 | /home/abhishek/Documents/Development/frappe/frappe-bench/apps/frappe/frappe/core/doctype/scheduled_job_type/scheduled_job_type.py:
Site: pos
Scheduled Job Start: frappe.email.doctype.email_account.email_account.notify_unreplied for pos
[INFO] 2020-03-12 15:43:55,112 | /home/abhishek/Documents/Development/frappe/frappe-bench/apps/frappe/frappe/core/doctype/scheduled_job_type/scheduled_job_type.py:
Site: pos
Scheduled Job Complete: frappe.email.doctype.email_account.email_account.notify_unreplied for pos
[INFO] 2020-03-12 15:43:55,150 | /home/abhishek/Documents/Development/frappe/frappe-bench/apps/frappe/frappe/core/doctype/scheduled_job_type/scheduled_job_type.py:
Site: pos
Scheduled Job Start: frappe.email.doctype.email_account.email_account.pull for pos
[INFO] 2020-03-12 15:43:55,190 | /home/abhishek/Documents/Development/frappe/frappe-bench/apps/frappe/frappe/core/doctype/scheduled_job_type/scheduled_job_type.py:
Site: pos
Scheduled Job Complete: frappe.email.doctype.email_account.email_account.pull for pos
[INFO] 2020-03-12 15:43:55,226 | /home/abhishek/Documents/Development/frappe/frappe-bench/apps/frappe/frappe/core/doctype/scheduled_job_type/scheduled_job_type.py:
Site: pos
Scheduled Job Start: frappe.email.queue.flush for pos
[INFO] 2020-03-12 15:43:55,244 | /home/abhishek/Documents/Development/frappe/frappe-bench/apps/frappe/frappe/core/doctype/scheduled_job_type/scheduled_job_type.py:
Site: pos
Scheduled Job Complete: frappe.email.queue.flush for pos
[DEBUG] 2020-03-12 15:44:55,133 | /home/abhishek/Documents/Development/frappe/frappe-bench/apps/frappe/frappe/utils/scheduler.py:
Site: pos
Queued events for site pos
[INFO] 2020-03-12 15:44:55,152 | /home/abhishek/Documents/Development/frappe/frappe-bench/apps/frappe/frappe/core/doctype/scheduled_job_type/scheduled_job_type.py:
Site: pos
Scheduled Job Start: frappe.utils.global_search.sync_global_search for pos
[INFO] 2020-03-12 15:44:55,153 | /home/abhishek/Documents/Development/frappe/frappe-bench/apps/frappe/frappe/core/doctype/scheduled_job_type/scheduled_job_type.py:
Site: pos
Scheduled Job Complete: frappe.utils.global_search.sync_global_search for pos
[INFO] 2020-03-12 15:44:55,189 | /home/abhishek/Documents/Development/frappe/frappe-bench/apps/frappe/frappe/core/doctype/scheduled_job_type/scheduled_job_type.py:
Site: pos
Scheduled Job Start: frappe.integrations.doctype.razorpay_settings.razorpay_settings.capture_payment for pos
[INFO] 2020-03-12 15:44:55,196 | /home/abhishek/Documents/Development/frappe/frappe-bench/apps/frappe/frappe/core/doctype/scheduled_job_type/scheduled_job_type.py:
Site: pos
Scheduled Job Complete: frappe.integrations.doctype.razorpay_settings.razorpay_settings.capture_payment for pos
[INFO] 2020-03-12 15:44:55,231 | /home/abhishek/Documents/Development/frappe/frappe-bench/apps/frappe/frappe/core/doctype/scheduled_job_type/scheduled_job_type.py:
Site: pos
Scheduled Job Start: frappe.email.doctype.email_account.email_account.notify_unreplied for pos
[INFO] 2020-03-12 15:44:55,264 | /home/abhishek/Documents/Development/frappe/frappe-bench/apps/frappe/frappe/core/doctype/scheduled_job_type/scheduled_job_type.py:
Site: pos
Scheduled Job Complete: frappe.email.doctype.email_account.email_account.notify_unreplied for pos
[INFO] 2020-03-12 15:44:55,301 | /home/abhishek/Documents/Development/frappe/frappe-bench/apps/frappe/frappe/core/doctype/scheduled_job_type/scheduled_job_type.py:
Site: pos
Scheduled Job Start: frappe.email.doctype.email_account.email_account.pull for pos
[INFO] 2020-03-12 15:44:55,341 | /home/abhishek/Documents/Development/frappe/frappe-bench/apps/frappe/frappe/core/doctype/scheduled_job_type/scheduled_job_type.py:
Site: pos
Scheduled Job Complete: frappe.email.doctype.email_account.email_account.pull for pos
[INFO] 2020-03-12 15:44:55,378 | /home/abhishek/Documents/Development/frappe/frappe-bench/apps/frappe/frappe/core/doctype/scheduled_job_type/scheduled_job_type.py:
Site: pos
Scheduled Job Start: frappe.email.queue.flush for pos
[INFO] 2020-03-12 15:44:55,396 | /home/abhishek/Documents/Development/frappe/frappe-bench/apps/frappe/frappe/core/doctype/scheduled_job_type/scheduled_job_type.py:
Site: pos
Scheduled Job Complete: frappe.email.queue.flush for pos
[DEBUG] 2020-03-12 15:45:55,309 | /home/abhishek/Documents/Development/frappe/frappe-bench/apps/frappe/frappe/utils/scheduler.py:
Site: pos
Queued events for site pos
[INFO] 2020-03-12 15:45:55,314 | /home/abhishek/Documents/Development/frappe/frappe-bench/apps/frappe/frappe/core/doctype/scheduled_job_type/scheduled_job_type.py:
Site: pos
Scheduled Job Start: frappe.utils.global_search.sync_global_search for pos
[INFO] 2020-03-12 15:45:55,315 | /home/abhishek/Documents/Development/frappe/frappe-bench/apps/frappe/frappe/core/doctype/scheduled_job_type/scheduled_job_type.py:
Site: pos
Scheduled Job Complete: frappe.utils.global_search.sync_global_search for pos
[INFO] 2020-03-12 15:45:55,353 | /home/abhishek/Documents/Development/frappe/frappe-bench/apps/frappe/frappe/core/doctype/scheduled_job_type/scheduled_job_type.py:
Site: pos
Scheduled Job Start: frappe.integrations.doctype.razorpay_settings.razorpay_settings.capture_payment for pos
[INFO] 2020-03-12 15:45:55,362 | /home/abhishek/Documents/Development/frappe/frappe-bench/apps/frappe/frappe/core/doctype/scheduled_job_type/scheduled_job_type.py:
Site: pos
Scheduled Job Complete: frappe.integrations.doctype.razorpay_settings.razorpay_settings.capture_payment for pos
[INFO] 2020-03-12 15:45:55,397 | /home/abhishek/Documents/Development/frappe/frappe-bench/apps/frappe/frappe/core/doctype/scheduled_job_type/scheduled_job_type.py:
Site: pos
Scheduled Job Start: frappe.email.doctype.email_account.email_account.notify_unreplied for pos
[INFO] 2020-03-12 15:45:55,431 | /home/abhishek/Documents/Development/frappe/frappe-bench/apps/frappe/frappe/core/doctype/scheduled_job_type/scheduled_job_type.py:
Site: pos
Scheduled Job Complete: frappe.email.doctype.email_account.email_account.notify_unreplied for pos
[INFO] 2020-03-12 15:45:55,476 | /home/abhishek/Documents/Development/frappe/frappe-bench/apps/frappe/frappe/core/doctype/scheduled_job_type/scheduled_job_type.py:
Site: pos
Scheduled Job Start: frappe.email.doctype.email_account.email_account.pull for pos
[INFO] 2020-03-12 15:45:55,518 | /home/abhishek/Documents/Development/frappe/frappe-bench/apps/frappe/frappe/core/doctype/scheduled_job_type/scheduled_job_type.py:
Site: pos
Scheduled Job Complete: frappe.email.doctype.email_account.email_account.pull for pos
[INFO] 2020-03-12 15:45:55,552 | /home/abhishek/Documents/Development/frappe/frappe-bench/apps/frappe/frappe/core/doctype/scheduled_job_type/scheduled_job_type.py:
Site: pos
Scheduled Job Start: frappe.email.queue.flush for pos
[INFO] 2020-03-12 15:45:55,570 | /home/abhishek/Documents/Development/frappe/frappe-bench/apps/frappe/frappe/core/doctype/scheduled_job_type/scheduled_job_type.py:
Site: pos
Scheduled Job Complete: frappe.email.queue.flush for pos
[INFO] 2020-03-12 15:45:55,607 | /home/abhishek/Documents/Development/frappe/frappe-bench/apps/frappe/frappe/core/doctype/scheduled_job_type/scheduled_job_type.py:
Site: pos
Scheduled Job Start: frappe.twofactor.delete_all_barcodes_for_users for pos
[INFO] 2020-03-12 15:45:55,785 | /home/abhishek/Documents/Development/frappe/frappe-bench/apps/frappe/frappe/core/doctype/scheduled_job_type/scheduled_job_type.py:
Site: pos
Scheduled Job Complete: frappe.twofactor.delete_all_barcodes_for_users for pos
[INFO] 2020-03-12 15:45:55,832 | /home/abhishek/Documents/Development/frappe/frappe-bench/apps/frappe/frappe/core/doctype/scheduled_job_type/scheduled_job_type.py:
Site: pos
Scheduled Job Start: frappe.website.doctype.web_page.web_page.check_publish_status for pos
[INFO] 2020-03-12 15:45:55,922 | /home/abhishek/Documents/Development/frappe/frappe-bench/apps/frappe/frappe/core/doctype/scheduled_job_type/scheduled_job_type.py:
Site: pos
Scheduled Job Complete: frappe.website.doctype.web_page.web_page.check_publish_status for pos
[INFO] 2020-03-12 15:45:55,965 | /home/abhishek/Documents/Development/frappe/frappe-bench/apps/frappe/frappe/core/doctype/scheduled_job_type/scheduled_job_type.py:
Site: pos
Scheduled Job Start: frappe.oauth.delete_oauth2_data for pos
[INFO] 2020-03-12 15:45:56,069 | /home/abhishek/Documents/Development/frappe/frappe-bench/apps/frappe/frappe/core/doctype/scheduled_job_type/scheduled_job_type.py:
Site: pos
Scheduled Job Complete: frappe.oauth.delete_oauth2_data for pos
[DEBUG] 2020-03-12 15:46:55,460 | /home/abhishek/Documents/Development/frappe/frappe-bench/apps/frappe/frappe/utils/scheduler.py:
Site: pos
Queued events for site pos
[INFO] 2020-03-12 15:46:55,477 | /home/abhishek/Documents/Development/frappe/frappe-bench/apps/frappe/frappe/core/doctype/scheduled_job_type/scheduled_job_type.py:
Site: pos
Scheduled Job Start: frappe.utils.global_search.sync_global_search for pos
[INFO] 2020-03-12 15:46:55,478 | /home/abhishek/Documents/Development/frappe/frappe-bench/apps/frappe/frappe/core/doctype/scheduled_job_type/scheduled_job_type.py:
Site: pos
Scheduled Job Complete: frappe.utils.global_search.sync_global_search for pos
[INFO] 2020-03-12 15:46:55,517 | /home/abhishek/Documents/Development/frappe/frappe-bench/apps/frappe/frappe/core/doctype/scheduled_job_type/scheduled_job_type.py:
Site: pos
Scheduled Job Start: frappe.integrations.doctype.razorpay_settings.razorpay_settings.capture_payment for pos
[INFO] 2020-03-12 15:46:55,526 | /home/abhishek/Documents/Development/frappe/frappe-bench/apps/frappe/frappe/core/doctype/scheduled_job_type/scheduled_job_type.py:
Site: pos
Scheduled Job Complete: frappe.integrations.doctype.razorpay_settings.razorpay_settings.capture_payment for pos
[INFO] 2020-03-12 15:46:55,569 | /home/abhishek/Documents/Development/frappe/frappe-bench/apps/frappe/frappe/core/doctype/scheduled_job_type/scheduled_job_type.py:
Site: pos
Scheduled Job Start: frappe.email.doctype.email_account.email_account.notify_unreplied for pos
[INFO] 2020-03-12 15:46:55,600 | /home/abhishek/Documents/Development/frappe/frappe-bench/apps/frappe/frappe/core/doctype/scheduled_job_type/scheduled_job_type.py:
Site: pos
Scheduled Job Complete: frappe.email.doctype.email_account.email_account.notify_unreplied for pos
[INFO] 2020-03-12 15:46:55,633 | /home/abhishek/Documents/Development/frappe/frappe-bench/apps/frappe/frappe/core/doctype/scheduled_job_type/scheduled_job_type.py:
Site: pos
Scheduled Job Start: frappe.email.doctype.email_account.email_account.pull for pos
[INFO] 2020-03-12 15:46:55,669 | /home/abhishek/Documents/Development/frappe/frappe-bench/apps/frappe/frappe/core/doctype/scheduled_job_type/scheduled_job_type.py:
Site: pos
Scheduled Job Complete: frappe.email.doctype.email_account.email_account.pull for pos
[INFO] 2020-03-12 15:46:55,704 | /home/abhishek/Documents/Development/frappe/frappe-bench/apps/frappe/frappe/core/doctype/scheduled_job_type/scheduled_job_type.py:
Site: pos
Scheduled Job Start: frappe.email.queue.flush for pos
[INFO] 2020-03-12 15:46:55,721 | /home/abhishek/Documents/Development/frappe/frappe-bench/apps/frappe/frappe/core/doctype/scheduled_job_type/scheduled_job_type.py:
Site: pos
Scheduled Job Complete: frappe.email.queue.flush for pos
[DEBUG] 2020-03-12 15:47:55,606 | /home/abhishek/Documents/Development/frappe/frappe-bench/apps/frappe/frappe/utils/scheduler.py:
Site: pos
Queued events for site pos
[INFO] 2020-03-12 15:47:55,623 | /home/abhishek/Documents/Development/frappe/frappe-bench/apps/frappe/frappe/core/doctype/scheduled_job_type/scheduled_job_type.py:
Site: pos
Scheduled Job Start: frappe.utils.global_search.sync_global_search for pos
[INFO] 2020-03-12 15:47:55,624 | /home/abhishek/Documents/Development/frappe/frappe-bench/apps/frappe/frappe/core/doctype/scheduled_job_type/scheduled_job_type.py:
Site: pos
Scheduled Job Complete: frappe.utils.global_search.sync_global_search for pos
[INFO] 2020-03-12 15:47:55,661 | /home/abhishek/Documents/Development/frappe/frappe-bench/apps/frappe/frappe/core/doctype/scheduled_job_type/scheduled_job_type.py:
Site: pos
Scheduled Job Start: frappe.integrations.doctype.razorpay_settings.razorpay_settings.capture_payment for pos
[INFO] 2020-03-12 15:47:55,668 | /home/abhishek/Documents/Development/frappe/frappe-bench/apps/frappe/frappe/core/doctype/scheduled_job_type/scheduled_job_type.py:
Site: pos
Scheduled Job Complete: frappe.integrations.doctype.razorpay_settings.razorpay_settings.capture_payment for pos
[INFO] 2020-03-12 15:47:55,705 | /home/abhishek/Documents/Development/frappe/frappe-bench/apps/frappe/frappe/core/doctype/scheduled_job_type/scheduled_job_type.py:
Site: pos
Scheduled Job Start: frappe.email.doctype.email_account.email_account.notify_unreplied for pos
[INFO] 2020-03-12 15:47:55,739 | /home/abhishek/Documents/Development/frappe/frappe-bench/apps/frappe/frappe/core/doctype/scheduled_job_type/scheduled_job_type.py:
Site: pos
Scheduled Job Complete: frappe.email.doctype.email_account.email_account.notify_unreplied for pos
[INFO] 2020-03-12 15:47:55,775 | /home/abhishek/Documents/Development/frappe/frappe-bench/apps/frappe/frappe/core/doctype/scheduled_job_type/scheduled_job_type.py:
Site: pos
Scheduled Job Start: frappe.email.doctype.email_account.email_account.pull for pos
[INFO] 2020-03-12 15:47:55,814 | /home/abhishek/Documents/Development/frappe/frappe-bench/apps/frappe/frappe/core/doctype/scheduled_job_type/scheduled_job_type.py:
Site: pos
Scheduled Job Complete: frappe.email.doctype.email_account.email_account.pull for pos
[INFO] 2020-03-12 15:47:55,852 | /home/abhishek/Documents/Development/frappe/frappe-bench/apps/frappe/frappe/core/doctype/scheduled_job_type/scheduled_job_type.py:
Site: pos
Scheduled Job Start: frappe.email.queue.flush for pos
[INFO] 2020-03-12 15:47:55,872 | /home/abhishek/Documents/Development/frappe/frappe-bench/apps/frappe/frappe/core/doctype/scheduled_job_type/scheduled_job_type.py:
Site: pos
Scheduled Job Complete: frappe.email.queue.flush for pos
[DEBUG] 2020-03-12 15:48:55,756 | /home/abhishek/Documents/Development/frappe/frappe-bench/apps/frappe/frappe/utils/scheduler.py:
Site: pos
Queued events for site pos
[INFO] 2020-03-12 15:48:55,769 | /home/abhishek/Documents/Development/frappe/frappe-bench/apps/frappe/frappe/core/doctype/scheduled_job_type/scheduled_job_type.py:
Site: pos
Scheduled Job Start: frappe.utils.global_search.sync_global_search for pos
[INFO] 2020-03-12 15:48:55,770 | /home/abhishek/Documents/Development/frappe/frappe-bench/apps/frappe/frappe/core/doctype/scheduled_job_type/scheduled_job_type.py:
Site: pos
Scheduled Job Complete: frappe.utils.global_search.sync_global_search for pos
[INFO] 2020-03-12 15:48:55,807 | /home/abhishek/Documents/Development/frappe/frappe-bench/apps/frappe/frappe/core/doctype/scheduled_job_type/scheduled_job_type.py:
Site: pos
Scheduled Job Start: frappe.integrations.doctype.razorpay_settings.razorpay_settings.capture_payment for pos
[INFO] 2020-03-12 15:48:55,815 | /home/abhishek/Documents/Development/frappe/frappe-bench/apps/frappe/frappe/core/doctype/scheduled_job_type/scheduled_job_type.py:
Site: pos
Scheduled Job Complete: frappe.integrations.doctype.razorpay_settings.razorpay_settings.capture_payment for pos
[INFO] 2020-03-12 15:48:55,855 | /home/abhishek/Documents/Development/frappe/frappe-bench/apps/frappe/frappe/core/doctype/scheduled_job_type/scheduled_job_type.py:
Site: pos
Scheduled Job Start: frappe.email.doctype.email_account.email_account.notify_unreplied for pos
[INFO] 2020-03-12 15:48:55,892 | /home/abhishek/Documents/Development/frappe/frappe-bench/apps/frappe/frappe/core/doctype/scheduled_job_type/scheduled_job_type.py:
Site: pos
Scheduled Job Complete: frappe.email.doctype.email_account.email_account.notify_unreplied for pos
[INFO] 2020-03-12 15:48:55,930 | /home/abhishek/Documents/Development/frappe/frappe-bench/apps/frappe/frappe/core/doctype/scheduled_job_type/scheduled_job_type.py:
Site: pos
Scheduled Job Start: frappe.email.doctype.email_account.email_account.pull for pos
[INFO] 2020-03-12 15:48:55,971 | /home/abhishek/Documents/Development/frappe/frappe-bench/apps/frappe/frappe/core/doctype/scheduled_job_type/scheduled_job_type.py:
Site: pos
Scheduled Job Complete: frappe.email.doctype.email_account.email_account.pull for pos
[INFO] 2020-03-12 15:48:56,011 | /home/abhishek/Documents/Development/frappe/frappe-bench/apps/frappe/frappe/core/doctype/scheduled_job_type/scheduled_job_type.py:
Site: pos
Scheduled Job Start: frappe.email.queue.flush for pos
[INFO] 2020-03-12 15:48:56,028 | /home/abhishek/Documents/Development/frappe/frappe-bench/apps/frappe/frappe/core/doctype/scheduled_job_type/scheduled_job_type.py:
Site: pos
Scheduled Job Complete: frappe.email.queue.flush for pos
[DEBUG] 2020-03-12 15:49:55,901 | /home/abhishek/Documents/Development/frappe/frappe-bench/apps/frappe/frappe/utils/scheduler.py:
Site: pos
Queued events for site pos
[INFO] 2020-03-12 15:49:55,914 | /home/abhishek/Documents/Development/frappe/frappe-bench/apps/frappe/frappe/core/doctype/scheduled_job_type/scheduled_job_type.py:
Site: pos
Scheduled Job Start: frappe.utils.global_search.sync_global_search for pos
[INFO] 2020-03-12 15:49:55,914 | /home/abhishek/Documents/Development/frappe/frappe-bench/apps/frappe/frappe/core/doctype/scheduled_job_type/scheduled_job_type.py:
Site: pos
Scheduled Job Complete: frappe.utils.global_search.sync_global_search for pos
[INFO] 2020-03-12 15:49:55,949 | /home/abhishek/Documents/Development/frappe/frappe-bench/apps/frappe/frappe/core/doctype/scheduled_job_type/scheduled_job_type.py:
Site: pos
Scheduled Job Start: frappe.integrations.doctype.razorpay_settings.razorpay_settings.capture_payment for pos
[INFO] 2020-03-12 15:49:55,956 | /home/abhishek/Documents/Development/frappe/frappe-bench/apps/frappe/frappe/core/doctype/scheduled_job_type/scheduled_job_type.py:
Site: pos
Scheduled Job Complete: frappe.integrations.doctype.razorpay_settings.razorpay_settings.capture_payment for pos
[INFO] 2020-03-12 15:49:56,000 | /home/abhishek/Documents/Development/frappe/frappe-bench/apps/frappe/frappe/core/doctype/scheduled_job_type/scheduled_job_type.py:
Site: pos
Scheduled Job Start: frappe.email.doctype.email_account.email_account.notify_unreplied for pos
[INFO] 2020-03-12 15:49:56,034 | /home/abhishek/Documents/Development/frappe/frappe-bench/apps/frappe/frappe/core/doctype/scheduled_job_type/scheduled_job_type.py:
Site: pos
Scheduled Job Complete: frappe.email.doctype.email_account.email_account.notify_unreplied for pos
[INFO] 2020-03-12 15:49:56,070 | /home/abhishek/Documents/Development/frappe/frappe-bench/apps/frappe/frappe/core/doctype/scheduled_job_type/scheduled_job_type.py:
Site: pos
Scheduled Job Start: frappe.email.doctype.email_account.email_account.pull for pos
[INFO] 2020-03-12 15:49:56,108 | /home/abhishek/Documents/Development/frappe/frappe-bench/apps/frappe/frappe/core/doctype/scheduled_job_type/scheduled_job_type.py:
Site: pos
Scheduled Job Complete: frappe.email.doctype.email_account.email_account.pull for pos
[INFO] 2020-03-12 15:49:56,146 | /home/abhishek/Documents/Development/frappe/frappe-bench/apps/frappe/frappe/core/doctype/scheduled_job_type/scheduled_job_type.py:
Site: pos
Scheduled Job Start: frappe.email.queue.flush for pos
[INFO] 2020-03-12 15:49:56,163 | /home/abhishek/Documents/Development/frappe/frappe-bench/apps/frappe/frappe/core/doctype/scheduled_job_type/scheduled_job_type.py:
Site: pos
Scheduled Job Complete: frappe.email.queue.flush for pos
[DEBUG] 2020-03-12 15:50:56,044 | /home/abhishek/Documents/Development/frappe/frappe-bench/apps/frappe/frappe/utils/scheduler.py:
Site: pos
Queued events for site pos
[INFO] 2020-03-12 15:50:56,058 | /home/abhishek/Documents/Development/frappe/frappe-bench/apps/frappe/frappe/core/doctype/scheduled_job_type/scheduled_job_type.py:
Site: pos
Scheduled Job Start: frappe.utils.global_search.sync_global_search for pos
[INFO] 2020-03-12 15:50:56,059 | /home/abhishek/Documents/Development/frappe/frappe-bench/apps/frappe/frappe/core/doctype/scheduled_job_type/scheduled_job_type.py:
Site: pos
Scheduled Job Complete: frappe.utils.global_search.sync_global_search for pos
[INFO] 2020-03-12 15:50:56,096 | /home/abhishek/Documents/Development/frappe/frappe-bench/apps/frappe/frappe/core/doctype/scheduled_job_type/scheduled_job_type.py:
Site: pos
Scheduled Job Start: frappe.integrations.doctype.razorpay_settings.razorpay_settings.capture_payment for pos
[INFO] 2020-03-12 15:50:56,104 | /home/abhishek/Documents/Development/frappe/frappe-bench/apps/frappe/frappe/core/doctype/scheduled_job_type/scheduled_job_type.py:
Site: pos
Scheduled Job Complete: frappe.integrations.doctype.razorpay_settings.razorpay_settings.capture_payment for pos
[INFO] 2020-03-12 15:50:56,139 | /home/abhishek/Documents/Development/frappe/frappe-bench/apps/frappe/frappe/core/doctype/scheduled_job_type/scheduled_job_type.py:
Site: pos
Scheduled Job Start: frappe.email.doctype.email_account.email_account.notify_unreplied for pos
[INFO] 2020-03-12 15:50:56,171 | /home/abhishek/Documents/Development/frappe/frappe-bench/apps/frappe/frappe/core/doctype/scheduled_job_type/scheduled_job_type.py:
Site: pos
Scheduled Job Complete: frappe.email.doctype.email_account.email_account.notify_unreplied for pos
[INFO] 2020-03-12 15:50:56,208 | /home/abhishek/Documents/Development/frappe/frappe-bench/apps/frappe/frappe/core/doctype/scheduled_job_type/scheduled_job_type.py:
Site: pos
Scheduled Job Start: frappe.email.doctype.email_account.email_account.pull for pos
[INFO] 2020-03-12 15:50:56,247 | /home/abhishek/Documents/Development/frappe/frappe-bench/apps/frappe/frappe/core/doctype/scheduled_job_type/scheduled_job_type.py:
Site: pos
Scheduled Job Complete: frappe.email.doctype.email_account.email_account.pull for pos
[INFO] 2020-03-12 15:50:56,281 | /home/abhishek/Documents/Development/frappe/frappe-bench/apps/frappe/frappe/core/doctype/scheduled_job_type/scheduled_job_type.py:
Site: pos
Scheduled Job Start: frappe.email.queue.flush for pos
[INFO] 2020-03-12 15:50:56,300 | /home/abhishek/Documents/Development/frappe/frappe-bench/apps/frappe/frappe/core/doctype/scheduled_job_type/scheduled_job_type.py:
Site: pos
Scheduled Job Complete: frappe.email.queue.flush for pos
[DEBUG] 2020-03-12 15:51:56,204 | /home/abhishek/Documents/Development/frappe/frappe-bench/apps/frappe/frappe/utils/scheduler.py:
Site: pos
Queued events for site pos
[INFO] 2020-03-12 15:51:56,258 | /home/abhishek/Documents/Development/frappe/frappe-bench/apps/frappe/frappe/core/doctype/scheduled_job_type/scheduled_job_type.py:
Site: pos
Scheduled Job Start: frappe.utils.global_search.sync_global_search for pos
[INFO] 2020-03-12 15:51:56,259 | /home/abhishek/Documents/Development/frappe/frappe-bench/apps/frappe/frappe/core/doctype/scheduled_job_type/scheduled_job_type.py:
Site: pos
Scheduled Job Complete: frappe.utils.global_search.sync_global_search for pos
[INFO] 2020-03-12 15:51:56,326 | /home/abhishek/Documents/Development/frappe/frappe-bench/apps/frappe/frappe/core/doctype/scheduled_job_type/scheduled_job_type.py:
Site: pos
Scheduled Job Start: frappe.integrations.doctype.razorpay_settings.razorpay_settings.capture_payment for pos
[INFO] 2020-03-12 15:51:56,342 | /home/abhishek/Documents/Development/frappe/frappe-bench/apps/frappe/frappe/core/doctype/scheduled_job_type/scheduled_job_type.py:
Site: pos
Scheduled Job Complete: frappe.integrations.doctype.razorpay_settings.razorpay_settings.capture_payment for pos
[INFO] 2020-03-12 15:51:56,395 | /home/abhishek/Documents/Development/frappe/frappe-bench/apps/frappe/frappe/core/doctype/scheduled_job_type/scheduled_job_type.py:
Site: pos
Scheduled Job Start: frappe.email.doctype.email_account.email_account.notify_unreplied for pos
[INFO] 2020-03-12 15:51:56,477 | /home/abhishek/Documents/Development/frappe/frappe-bench/apps/frappe/frappe/core/doctype/scheduled_job_type/scheduled_job_type.py:
Site: pos
Scheduled Job Complete: frappe.email.doctype.email_account.email_account.notify_unreplied for pos
[INFO] 2020-03-12 15:51:56,533 | /home/abhishek/Documents/Development/frappe/frappe-bench/apps/frappe/frappe/core/doctype/scheduled_job_type/scheduled_job_type.py:
Site: pos
Scheduled Job Start: frappe.email.doctype.email_account.email_account.pull for pos
[INFO] 2020-03-12 15:51:56,589 | /home/abhishek/Documents/Development/frappe/frappe-bench/apps/frappe/frappe/core/doctype/scheduled_job_type/scheduled_job_type.py:
Site: pos
Scheduled Job Complete: frappe.email.doctype.email_account.email_account.pull for pos
[INFO] 2020-03-12 15:51:56,639 | /home/abhishek/Documents/Development/frappe/frappe-bench/apps/frappe/frappe/core/doctype/scheduled_job_type/scheduled_job_type.py:
Site: pos
Scheduled Job Start: frappe.email.queue.flush for pos
[INFO] 2020-03-12 15:51:56,664 | /home/abhishek/Documents/Development/frappe/frappe-bench/apps/frappe/frappe/core/doctype/scheduled_job_type/scheduled_job_type.py:
Site: pos
Scheduled Job Complete: frappe.email.queue.flush for pos
[DEBUG] 2020-03-12 15:52:56,360 | /home/abhishek/Documents/Development/frappe/frappe-bench/apps/frappe/frappe/utils/scheduler.py:
Site: pos
Queued events for site pos
[INFO] 2020-03-12 15:52:56,370 | /home/abhishek/Documents/Development/frappe/frappe-bench/apps/frappe/frappe/core/doctype/scheduled_job_type/scheduled_job_type.py:
Site: pos
Scheduled Job Start: frappe.utils.global_search.sync_global_search for pos
[INFO] 2020-03-12 15:52:56,371 | /home/abhishek/Documents/Development/frappe/frappe-bench/apps/frappe/frappe/core/doctype/scheduled_job_type/scheduled_job_type.py:
Site: pos
Scheduled Job Complete: frappe.utils.global_search.sync_global_search for pos
[INFO] 2020-03-12 15:52:56,412 | /home/abhishek/Documents/Development/frappe/frappe-bench/apps/frappe/frappe/core/doctype/scheduled_job_type/scheduled_job_type.py:
Site: pos
Scheduled Job Start: frappe.integrations.doctype.razorpay_settings.razorpay_settings.capture_payment for pos
[INFO] 2020-03-12 15:52:56,418 | /home/abhishek/Documents/Development/frappe/frappe-bench/apps/frappe/frappe/core/doctype/scheduled_job_type/scheduled_job_type.py:
Site: pos
Scheduled Job Complete: frappe.integrations.doctype.razorpay_settings.razorpay_settings.capture_payment for pos
[INFO] 2020-03-12 15:52:56,452 | /home/abhishek/Documents/Development/frappe/frappe-bench/apps/frappe/frappe/core/doctype/scheduled_job_type/scheduled_job_type.py:
Site: pos
Scheduled Job Start: frappe.email.doctype.email_account.email_account.notify_unreplied for pos
[INFO] 2020-03-12 15:52:56,483 | /home/abhishek/Documents/Development/frappe/frappe-bench/apps/frappe/frappe/core/doctype/scheduled_job_type/scheduled_job_type.py:
Site: pos
Scheduled Job Complete: frappe.email.doctype.email_account.email_account.notify_unreplied for pos
[INFO] 2020-03-12 15:52:56,517 | /home/abhishek/Documents/Development/frappe/frappe-bench/apps/frappe/frappe/core/doctype/scheduled_job_type/scheduled_job_type.py:
Site: pos
Scheduled Job Start: frappe.email.doctype.email_account.email_account.pull for pos
[INFO] 2020-03-12 15:52:56,554 | /home/abhishek/Documents/Development/frappe/frappe-bench/apps/frappe/frappe/core/doctype/scheduled_job_type/scheduled_job_type.py:
Site: pos
Scheduled Job Complete: frappe.email.doctype.email_account.email_account.pull for pos
[INFO] 2020-03-12 15:52:56,588 | /home/abhishek/Documents/Development/frappe/frappe-bench/apps/frappe/frappe/core/doctype/scheduled_job_type/scheduled_job_type.py:
Site: pos
Scheduled Job Start: frappe.email.queue.flush for pos
[INFO] 2020-03-12 15:52:56,605 | /home/abhishek/Documents/Development/frappe/frappe-bench/apps/frappe/frappe/core/doctype/scheduled_job_type/scheduled_job_type.py:
Site: pos
Scheduled Job Complete: frappe.email.queue.flush for pos
[DEBUG] 2020-03-12 15:53:56,504 | /home/abhishek/Documents/Development/frappe/frappe-bench/apps/frappe/frappe/utils/scheduler.py:
Site: pos
Queued events for site pos
[INFO] 2020-03-12 15:53:56,519 | /home/abhishek/Documents/Development/frappe/frappe-bench/apps/frappe/frappe/core/doctype/scheduled_job_type/scheduled_job_type.py:
Site: pos
Scheduled Job Start: frappe.utils.global_search.sync_global_search for pos
[INFO] 2020-03-12 15:53:56,520 | /home/abhishek/Documents/Development/frappe/frappe-bench/apps/frappe/frappe/core/doctype/scheduled_job_type/scheduled_job_type.py:
Site: pos
Scheduled Job Complete: frappe.utils.global_search.sync_global_search for pos
[INFO] 2020-03-12 15:53:56,556 | /home/abhishek/Documents/Development/frappe/frappe-bench/apps/frappe/frappe/core/doctype/scheduled_job_type/scheduled_job_type.py:
Site: pos
Scheduled Job Start: frappe.integrations.doctype.razorpay_settings.razorpay_settings.capture_payment for pos
[INFO] 2020-03-12 15:53:56,562 | /home/abhishek/Documents/Development/frappe/frappe-bench/apps/frappe/frappe/core/doctype/scheduled_job_type/scheduled_job_type.py:
Site: pos
Scheduled Job Complete: frappe.integrations.doctype.razorpay_settings.razorpay_settings.capture_payment for pos
[INFO] 2020-03-12 15:53:56,600 | /home/abhishek/Documents/Development/frappe/frappe-bench/apps/frappe/frappe/core/doctype/scheduled_job_type/scheduled_job_type.py:
Site: pos
Scheduled Job Start: frappe.email.doctype.email_account.email_account.notify_unreplied for pos
[INFO] 2020-03-12 15:53:56,634 | /home/abhishek/Documents/Development/frappe/frappe-bench/apps/frappe/frappe/core/doctype/scheduled_job_type/scheduled_job_type.py:
Site: pos
Scheduled Job Complete: frappe.email.doctype.email_account.email_account.notify_unreplied for pos
[INFO] 2020-03-12 15:53:56,669 | /home/abhishek/Documents/Development/frappe/frappe-bench/apps/frappe/frappe/core/doctype/scheduled_job_type/scheduled_job_type.py:
Site: pos
Scheduled Job Start: frappe.email.doctype.email_account.email_account.pull for pos
[INFO] 2020-03-12 15:53:56,709 | /home/abhishek/Documents/Development/frappe/frappe-bench/apps/frappe/frappe/core/doctype/scheduled_job_type/scheduled_job_type.py:
Site: pos
Scheduled Job Complete: frappe.email.doctype.email_account.email_account.pull for pos
[INFO] 2020-03-12 15:53:56,749 | /home/abhishek/Documents/Development/frappe/frappe-bench/apps/frappe/frappe/core/doctype/scheduled_job_type/scheduled_job_type.py:
Site: pos
Scheduled Job Start: frappe.email.queue.flush for pos
[INFO] 2020-03-12 15:53:56,768 | /home/abhishek/Documents/Development/frappe/frappe-bench/apps/frappe/frappe/core/doctype/scheduled_job_type/scheduled_job_type.py:
Site: pos
Scheduled Job Complete: frappe.email.queue.flush for pos
[DEBUG] 2020-03-12 15:54:56,655 | /home/abhishek/Documents/Development/frappe/frappe-bench/apps/frappe/frappe/utils/scheduler.py:
Site: pos
Queued events for site pos
[INFO] 2020-03-12 15:54:56,668 | /home/abhishek/Documents/Development/frappe/frappe-bench/apps/frappe/frappe/core/doctype/scheduled_job_type/scheduled_job_type.py:
Site: pos
Scheduled Job Start: frappe.utils.global_search.sync_global_search for pos
[INFO] 2020-03-12 15:54:56,669 | /home/abhishek/Documents/Development/frappe/frappe-bench/apps/frappe/frappe/core/doctype/scheduled_job_type/scheduled_job_type.py:
Site: pos
Scheduled Job Complete: frappe.utils.global_search.sync_global_search for pos
[INFO] 2020-03-12 15:54:56,704 | /home/abhishek/Documents/Development/frappe/frappe-bench/apps/frappe/frappe/core/doctype/scheduled_job_type/scheduled_job_type.py:
Site: pos
Scheduled Job Start: frappe.integrations.doctype.razorpay_settings.razorpay_settings.capture_payment for pos
[INFO] 2020-03-12 15:54:56,711 | /home/abhishek/Documents/Development/frappe/frappe-bench/apps/frappe/frappe/core/doctype/scheduled_job_type/scheduled_job_type.py:
Site: pos
Scheduled Job Complete: frappe.integrations.doctype.razorpay_settings.razorpay_settings.capture_payment for pos
[INFO] 2020-03-12 15:54:56,747 | /home/abhishek/Documents/Development/frappe/frappe-bench/apps/frappe/frappe/core/doctype/scheduled_job_type/scheduled_job_type.py:
Site: pos
Scheduled Job Start: frappe.email.doctype.email_account.email_account.notify_unreplied for pos
[INFO] 2020-03-12 15:54:56,778 | /home/abhishek/Documents/Development/frappe/frappe-bench/apps/frappe/frappe/core/doctype/scheduled_job_type/scheduled_job_type.py:
Site: pos
Scheduled Job Complete: frappe.email.doctype.email_account.email_account.notify_unreplied for pos
[INFO] 2020-03-12 15:54:56,814 | /home/abhishek/Documents/Development/frappe/frappe-bench/apps/frappe/frappe/core/doctype/scheduled_job_type/scheduled_job_type.py:
Site: pos
Scheduled Job Start: frappe.email.doctype.email_account.email_account.pull for pos
[INFO] 2020-03-12 15:54:56,855 | /home/abhishek/Documents/Development/frappe/frappe-bench/apps/frappe/frappe/core/doctype/scheduled_job_type/scheduled_job_type.py:
Site: pos
Scheduled Job Complete: frappe.email.doctype.email_account.email_account.pull for pos
[INFO] 2020-03-12 15:54:56,898 | /home/abhishek/Documents/Development/frappe/frappe-bench/apps/frappe/frappe/core/doctype/scheduled_job_type/scheduled_job_type.py:
Site: pos
Scheduled Job Start: frappe.email.queue.flush for pos
[INFO] 2020-03-12 15:54:56,917 | /home/abhishek/Documents/Development/frappe/frappe-bench/apps/frappe/frappe/core/doctype/scheduled_job_type/scheduled_job_type.py:
Site: pos
Scheduled Job Complete: frappe.email.queue.flush for pos
[DEBUG] 2020-03-12 15:55:56,797 | /home/abhishek/Documents/Development/frappe/frappe-bench/apps/frappe/frappe/utils/scheduler.py:
Site: pos
Queued events for site pos
[INFO] 2020-03-12 15:55:56,815 | /home/abhishek/Documents/Development/frappe/frappe-bench/apps/frappe/frappe/core/doctype/scheduled_job_type/scheduled_job_type.py:
Site: pos
Scheduled Job Start: frappe.utils.global_search.sync_global_search for pos
[INFO] 2020-03-12 15:55:56,816 | /home/abhishek/Documents/Development/frappe/frappe-bench/apps/frappe/frappe/core/doctype/scheduled_job_type/scheduled_job_type.py:
Site: pos
Scheduled Job Complete: frappe.utils.global_search.sync_global_search for pos
[INFO] 2020-03-12 15:55:56,856 | /home/abhishek/Documents/Development/frappe/frappe-bench/apps/frappe/frappe/core/doctype/scheduled_job_type/scheduled_job_type.py:
Site: pos
Scheduled Job Start: frappe.integrations.doctype.razorpay_settings.razorpay_settings.capture_payment for pos
[INFO] 2020-03-12 15:55:56,864 | /home/abhishek/Documents/Development/frappe/frappe-bench/apps/frappe/frappe/core/doctype/scheduled_job_type/scheduled_job_type.py:
Site: pos
Scheduled Job Complete: frappe.integrations.doctype.razorpay_settings.razorpay_settings.capture_payment for pos
[INFO] 2020-03-12 15:55:56,903 | /home/abhishek/Documents/Development/frappe/frappe-bench/apps/frappe/frappe/core/doctype/scheduled_job_type/scheduled_job_type.py:
Site: pos
Scheduled Job Start: frappe.email.doctype.email_account.email_account.notify_unreplied for pos
[INFO] 2020-03-12 15:55:56,941 | /home/abhishek/Documents/Development/frappe/frappe-bench/apps/frappe/frappe/core/doctype/scheduled_job_type/scheduled_job_type.py:
Site: pos
Scheduled Job Complete: frappe.email.doctype.email_account.email_account.notify_unreplied for pos
[INFO] 2020-03-12 15:55:56,979 | /home/abhishek/Documents/Development/frappe/frappe-bench/apps/frappe/frappe/core/doctype/scheduled_job_type/scheduled_job_type.py:
Site: pos
Scheduled Job Start: frappe.email.doctype.email_account.email_account.pull for pos
[INFO] 2020-03-12 15:55:57,028 | /home/abhishek/Documents/Development/frappe/frappe-bench/apps/frappe/frappe/core/doctype/scheduled_job_type/scheduled_job_type.py:
Site: pos
Scheduled Job Complete: frappe.email.doctype.email_account.email_account.pull for pos
[INFO] 2020-03-12 15:55:57,068 | /home/abhishek/Documents/Development/frappe/frappe-bench/apps/frappe/frappe/core/doctype/scheduled_job_type/scheduled_job_type.py:
Site: pos
Scheduled Job Start: frappe.email.queue.flush for pos
[INFO] 2020-03-12 15:55:57,089 | /home/abhishek/Documents/Development/frappe/frappe-bench/apps/frappe/frappe/core/doctype/scheduled_job_type/scheduled_job_type.py:
Site: pos
Scheduled Job Complete: frappe.email.queue.flush for pos
[DEBUG] 2020-03-12 15:56:56,932 | /home/abhishek/Documents/Development/frappe/frappe-bench/apps/frappe/frappe/utils/scheduler.py:
Site: pos
Queued events for site pos
[INFO] 2020-03-12 15:56:56,945 | /home/abhishek/Documents/Development/frappe/frappe-bench/apps/frappe/frappe/core/doctype/scheduled_job_type/scheduled_job_type.py:
Site: pos
Scheduled Job Start: frappe.utils.global_search.sync_global_search for pos
[INFO] 2020-03-12 15:56:56,946 | /home/abhishek/Documents/Development/frappe/frappe-bench/apps/frappe/frappe/core/doctype/scheduled_job_type/scheduled_job_type.py:
Site: pos
Scheduled Job Complete: frappe.utils.global_search.sync_global_search for pos
[INFO] 2020-03-12 15:56:56,987 | /home/abhishek/Documents/Development/frappe/frappe-bench/apps/frappe/frappe/core/doctype/scheduled_job_type/scheduled_job_type.py:
Site: pos
Scheduled Job Start: frappe.integrations.doctype.razorpay_settings.razorpay_settings.capture_payment for pos
[INFO] 2020-03-12 15:56:56,993 | /home/abhishek/Documents/Development/frappe/frappe-bench/apps/frappe/frappe/core/doctype/scheduled_job_type/scheduled_job_type.py:
Site: pos
Scheduled Job Complete: frappe.integrations.doctype.razorpay_settings.razorpay_settings.capture_payment for pos
[INFO] 2020-03-12 15:56:57,027 | /home/abhishek/Documents/Development/frappe/frappe-bench/apps/frappe/frappe/core/doctype/scheduled_job_type/scheduled_job_type.py:
Site: pos
Scheduled Job Start: frappe.email.doctype.email_account.email_account.notify_unreplied for pos
[INFO] 2020-03-12 15:56:57,059 | /home/abhishek/Documents/Development/frappe/frappe-bench/apps/frappe/frappe/core/doctype/scheduled_job_type/scheduled_job_type.py:
Site: pos
Scheduled Job Complete: frappe.email.doctype.email_account.email_account.notify_unreplied for pos
[INFO] 2020-03-12 15:56:57,093 | /home/abhishek/Documents/Development/frappe/frappe-bench/apps/frappe/frappe/core/doctype/scheduled_job_type/scheduled_job_type.py:
Site: pos
Scheduled Job Start: frappe.email.doctype.email_account.email_account.pull for pos
[INFO] 2020-03-12 15:56:57,129 | /home/abhishek/Documents/Development/frappe/frappe-bench/apps/frappe/frappe/core/doctype/scheduled_job_type/scheduled_job_type.py:
Site: pos
Scheduled Job Complete: frappe.email.doctype.email_account.email_account.pull for pos
[INFO] 2020-03-12 15:56:57,162 | /home/abhishek/Documents/Development/frappe/frappe-bench/apps/frappe/frappe/core/doctype/scheduled_job_type/scheduled_job_type.py:
Site: pos
Scheduled Job Start: frappe.email.queue.flush for pos
[INFO] 2020-03-12 15:56:57,179 | /home/abhishek/Documents/Development/frappe/frappe-bench/apps/frappe/frappe/core/doctype/scheduled_job_type/scheduled_job_type.py:
Site: pos
Scheduled Job Complete: frappe.email.queue.flush for pos
[DEBUG] 2020-03-12 15:57:57,073 | /home/abhishek/Documents/Development/frappe/frappe-bench/apps/frappe/frappe/utils/scheduler.py:
Site: pos
Queued events for site pos
[INFO] 2020-03-12 15:57:57,086 | /home/abhishek/Documents/Development/frappe/frappe-bench/apps/frappe/frappe/core/doctype/scheduled_job_type/scheduled_job_type.py:
Site: pos
Scheduled Job Start: frappe.utils.global_search.sync_global_search for pos
[INFO] 2020-03-12 15:57:57,087 | /home/abhishek/Documents/Development/frappe/frappe-bench/apps/frappe/frappe/core/doctype/scheduled_job_type/scheduled_job_type.py:
Site: pos
Scheduled Job Complete: frappe.utils.global_search.sync_global_search for pos
[INFO] 2020-03-12 15:57:57,126 | /home/abhishek/Documents/Development/frappe/frappe-bench/apps/frappe/frappe/core/doctype/scheduled_job_type/scheduled_job_type.py:
Site: pos
Scheduled Job Start: frappe.integrations.doctype.razorpay_settings.razorpay_settings.capture_payment for pos
[INFO] 2020-03-12 15:57:57,133 | /home/abhishek/Documents/Development/frappe/frappe-bench/apps/frappe/frappe/core/doctype/scheduled_job_type/scheduled_job_type.py:
Site: pos
Scheduled Job Complete: frappe.integrations.doctype.razorpay_settings.razorpay_settings.capture_payment for pos
[INFO] 2020-03-12 15:57:57,171 | /home/abhishek/Documents/Development/frappe/frappe-bench/apps/frappe/frappe/core/doctype/scheduled_job_type/scheduled_job_type.py:
Site: pos
Scheduled Job Start: frappe.email.doctype.email_account.email_account.notify_unreplied for pos
[INFO] 2020-03-12 15:57:57,203 | /home/abhishek/Documents/Development/frappe/frappe-bench/apps/frappe/frappe/core/doctype/scheduled_job_type/scheduled_job_type.py:
Site: pos
Scheduled Job Complete: frappe.email.doctype.email_account.email_account.notify_unreplied for pos
[INFO] 2020-03-12 15:57:57,241 | /home/abhishek/Documents/Development/frappe/frappe-bench/apps/frappe/frappe/core/doctype/scheduled_job_type/scheduled_job_type.py:
Site: pos
Scheduled Job Start: frappe.email.doctype.email_account.email_account.pull for pos
[INFO] 2020-03-12 15:57:57,278 | /home/abhishek/Documents/Development/frappe/frappe-bench/apps/frappe/frappe/core/doctype/scheduled_job_type/scheduled_job_type.py:
Site: pos
Scheduled Job Complete: frappe.email.doctype.email_account.email_account.pull for pos
[INFO] 2020-03-12 15:57:57,312 | /home/abhishek/Documents/Development/frappe/frappe-bench/apps/frappe/frappe/core/doctype/scheduled_job_type/scheduled_job_type.py:
Site: pos
Scheduled Job Start: frappe.email.queue.flush for pos
[INFO] 2020-03-12 15:57:57,329 | /home/abhishek/Documents/Development/frappe/frappe-bench/apps/frappe/frappe/core/doctype/scheduled_job_type/scheduled_job_type.py:
Site: pos
Scheduled Job Complete: frappe.email.queue.flush for pos
[DEBUG] 2020-03-12 15:58:57,200 | /home/abhishek/Documents/Development/frappe/frappe-bench/apps/frappe/frappe/utils/scheduler.py:
Site: pos
Queued events for site pos
[INFO] 2020-03-12 15:58:57,215 | /home/abhishek/Documents/Development/frappe/frappe-bench/apps/frappe/frappe/core/doctype/scheduled_job_type/scheduled_job_type.py:
Site: pos
Scheduled Job Start: frappe.utils.global_search.sync_global_search for pos
[INFO] 2020-03-12 15:58:57,215 | /home/abhishek/Documents/Development/frappe/frappe-bench/apps/frappe/frappe/core/doctype/scheduled_job_type/scheduled_job_type.py:
Site: pos
Scheduled Job Complete: frappe.utils.global_search.sync_global_search for pos
[INFO] 2020-03-12 15:58:57,254 | /home/abhishek/Documents/Development/frappe/frappe-bench/apps/frappe/frappe/core/doctype/scheduled_job_type/scheduled_job_type.py:
Site: pos
Scheduled Job Start: frappe.integrations.doctype.razorpay_settings.razorpay_settings.capture_payment for pos
[INFO] 2020-03-12 15:58:57,261 | /home/abhishek/Documents/Development/frappe/frappe-bench/apps/frappe/frappe/core/doctype/scheduled_job_type/scheduled_job_type.py:
Site: pos
Scheduled Job Complete: frappe.integrations.doctype.razorpay_settings.razorpay_settings.capture_payment for pos
[INFO] 2020-03-12 15:58:57,296 | /home/abhishek/Documents/Development/frappe/frappe-bench/apps/frappe/frappe/core/doctype/scheduled_job_type/scheduled_job_type.py:
Site: pos
Scheduled Job Start: frappe.email.doctype.email_account.email_account.notify_unreplied for pos
[INFO] 2020-03-12 15:58:57,328 | /home/abhishek/Documents/Development/frappe/frappe-bench/apps/frappe/frappe/core/doctype/scheduled_job_type/scheduled_job_type.py:
Site: pos
Scheduled Job Complete: frappe.email.doctype.email_account.email_account.notify_unreplied for pos
[INFO] 2020-03-12 15:58:57,368 | /home/abhishek/Documents/Development/frappe/frappe-bench/apps/frappe/frappe/core/doctype/scheduled_job_type/scheduled_job_type.py:
Site: pos
Scheduled Job Start: frappe.email.doctype.email_account.email_account.pull for pos
[INFO] 2020-03-12 15:58:57,406 | /home/abhishek/Documents/Development/frappe/frappe-bench/apps/frappe/frappe/core/doctype/scheduled_job_type/scheduled_job_type.py:
Site: pos
Scheduled Job Complete: frappe.email.doctype.email_account.email_account.pull for pos
[INFO] 2020-03-12 15:58:57,441 | /home/abhishek/Documents/Development/frappe/frappe-bench/apps/frappe/frappe/core/doctype/scheduled_job_type/scheduled_job_type.py:
Site: pos
Scheduled Job Start: frappe.email.queue.flush for pos
[INFO] 2020-03-12 15:58:57,458 | /home/abhishek/Documents/Development/frappe/frappe-bench/apps/frappe/frappe/core/doctype/scheduled_job_type/scheduled_job_type.py:
Site: pos
Scheduled Job Complete: frappe.email.queue.flush for pos
[DEBUG] 2020-03-12 15:59:57,346 | /home/abhishek/Documents/Development/frappe/frappe-bench/apps/frappe/frappe/utils/scheduler.py:
Site: pos
Queued events for site pos
[INFO] 2020-03-12 15:59:57,357 | /home/abhishek/Documents/Development/frappe/frappe-bench/apps/frappe/frappe/core/doctype/scheduled_job_type/scheduled_job_type.py:
Site: pos
Scheduled Job Start: frappe.utils.global_search.sync_global_search for pos
[INFO] 2020-03-12 15:59:57,358 | /home/abhishek/Documents/Development/frappe/frappe-bench/apps/frappe/frappe/core/doctype/scheduled_job_type/scheduled_job_type.py:
Site: pos
Scheduled Job Complete: frappe.utils.global_search.sync_global_search for pos
[INFO] 2020-03-12 15:59:57,394 | /home/abhishek/Documents/Development/frappe/frappe-bench/apps/frappe/frappe/core/doctype/scheduled_job_type/scheduled_job_type.py:
Site: pos
Scheduled Job Start: frappe.integrations.doctype.razorpay_settings.razorpay_settings.capture_payment for pos
[INFO] 2020-03-12 15:59:57,401 | /home/abhishek/Documents/Development/frappe/frappe-bench/apps/frappe/frappe/core/doctype/scheduled_job_type/scheduled_job_type.py:
Site: pos
Scheduled Job Complete: frappe.integrations.doctype.razorpay_settings.razorpay_settings.capture_payment for pos
[INFO] 2020-03-12 15:59:57,441 | /home/abhishek/Documents/Development/frappe/frappe-bench/apps/frappe/frappe/core/doctype/scheduled_job_type/scheduled_job_type.py:
Site: pos
Scheduled Job Start: frappe.email.doctype.email_account.email_account.notify_unreplied for pos
[INFO] 2020-03-12 15:59:57,473 | /home/abhishek/Documents/Development/frappe/frappe-bench/apps/frappe/frappe/core/doctype/scheduled_job_type/scheduled_job_type.py:
Site: pos
Scheduled Job Complete: frappe.email.doctype.email_account.email_account.notify_unreplied for pos
[INFO] 2020-03-12 15:59:57,509 | /home/abhishek/Documents/Development/frappe/frappe-bench/apps/frappe/frappe/core/doctype/scheduled_job_type/scheduled_job_type.py:
Site: pos
Scheduled Job Start: frappe.email.doctype.email_account.email_account.pull for pos
[INFO] 2020-03-12 15:59:57,546 | /home/abhishek/Documents/Development/frappe/frappe-bench/apps/frappe/frappe/core/doctype/scheduled_job_type/scheduled_job_type.py:
Site: pos
Scheduled Job Complete: frappe.email.doctype.email_account.email_account.pull for pos
[INFO] 2020-03-12 15:59:57,583 | /home/abhishek/Documents/Development/frappe/frappe-bench/apps/frappe/frappe/core/doctype/scheduled_job_type/scheduled_job_type.py:
Site: pos
Scheduled Job Start: frappe.email.queue.flush for pos
[INFO] 2020-03-12 15:59:57,600 | /home/abhishek/Documents/Development/frappe/frappe-bench/apps/frappe/frappe/core/doctype/scheduled_job_type/scheduled_job_type.py:
Site: pos
Scheduled Job Complete: frappe.email.queue.flush for pos
[INFO] 2020-03-12 16:00:57,492 | /home/abhishek/Documents/Development/frappe/frappe-bench/apps/frappe/frappe/core/doctype/scheduled_job_type/scheduled_job_type.py:
Site: pos
Scheduled Job Start: frappe.integrations.doctype.google_calendar.google_calendar.sync for pos
[DEBUG] 2020-03-12 16:00:57,526 | /home/abhishek/Documents/Development/frappe/frappe-bench/apps/frappe/frappe/utils/scheduler.py:
Site: pos
Queued events for site pos
