[INFO] 2020-03-12 20:51:11,305 | /home/abhishek/Documents/Development/frappe/frappe-bench/apps/frappe/frappe/core/doctype/scheduled_job_type/scheduled_job_type.py:
Site: pos
Scheduled Job Complete: frappe.utils.global_search.sync_global_search for pos
[INFO] 2020-03-12 20:51:11,341 | /home/abhishek/Documents/Development/frappe/frappe-bench/apps/frappe/frappe/core/doctype/scheduled_job_type/scheduled_job_type.py:
Site: pos
Scheduled Job Start: frappe.integrations.doctype.razorpay_settings.razorpay_settings.capture_payment for pos
[INFO] 2020-03-12 20:51:11,347 | /home/abhishek/Documents/Development/frappe/frappe-bench/apps/frappe/frappe/core/doctype/scheduled_job_type/scheduled_job_type.py:
Site: pos
Scheduled Job Complete: frappe.integrations.doctype.razorpay_settings.razorpay_settings.capture_payment for pos
[INFO] 2020-03-12 20:51:11,382 | /home/abhishek/Documents/Development/frappe/frappe-bench/apps/frappe/frappe/core/doctype/scheduled_job_type/scheduled_job_type.py:
Site: pos
Scheduled Job Start: frappe.email.doctype.email_account.email_account.notify_unreplied for pos
[INFO] 2020-03-12 20:51:11,410 | /home/abhishek/Documents/Development/frappe/frappe-bench/apps/frappe/frappe/core/doctype/scheduled_job_type/scheduled_job_type.py:
Site: pos
Scheduled Job Complete: frappe.email.doctype.email_account.email_account.notify_unreplied for pos
[INFO] 2020-03-12 20:51:11,445 | /home/abhishek/Documents/Development/frappe/frappe-bench/apps/frappe/frappe/core/doctype/scheduled_job_type/scheduled_job_type.py:
Site: pos
Scheduled Job Start: frappe.email.doctype.email_account.email_account.pull for pos
[INFO] 2020-03-12 20:51:11,479 | /home/abhishek/Documents/Development/frappe/frappe-bench/apps/frappe/frappe/core/doctype/scheduled_job_type/scheduled_job_type.py:
Site: pos
Scheduled Job Complete: frappe.email.doctype.email_account.email_account.pull for pos
[INFO] 2020-03-12 20:51:11,514 | /home/abhishek/Documents/Development/frappe/frappe-bench/apps/frappe/frappe/core/doctype/scheduled_job_type/scheduled_job_type.py:
Site: pos
Scheduled Job Start: frappe.email.queue.flush for pos
[INFO] 2020-03-12 20:51:11,529 | /home/abhishek/Documents/Development/frappe/frappe-bench/apps/frappe/frappe/core/doctype/scheduled_job_type/scheduled_job_type.py:
Site: pos
Scheduled Job Complete: frappe.email.queue.flush for pos
[INFO] 2020-03-12 20:52:11,442 | /home/abhishek/Documents/Development/frappe/frappe-bench/apps/frappe/frappe/core/doctype/scheduled_job_type/scheduled_job_type.py:
Site: pos
Scheduled Job Start: frappe.utils.global_search.sync_global_search for pos
[INFO] 2020-03-12 20:52:11,442 | /home/abhishek/Documents/Development/frappe/frappe-bench/apps/frappe/frappe/core/doctype/scheduled_job_type/scheduled_job_type.py:
Site: pos
Scheduled Job Complete: frappe.utils.global_search.sync_global_search for pos
[INFO] 2020-03-12 20:52:11,476 | /home/abhishek/Documents/Development/frappe/frappe-bench/apps/frappe/frappe/core/doctype/scheduled_job_type/scheduled_job_type.py:
Site: pos
Scheduled Job Start: frappe.integrations.doctype.razorpay_settings.razorpay_settings.capture_payment for pos
[INFO] 2020-03-12 20:52:11,482 | /home/abhishek/Documents/Development/frappe/frappe-bench/apps/frappe/frappe/core/doctype/scheduled_job_type/scheduled_job_type.py:
Site: pos
Scheduled Job Complete: frappe.integrations.doctype.razorpay_settings.razorpay_settings.capture_payment for pos
[INFO] 2020-03-12 20:52:11,517 | /home/abhishek/Documents/Development/frappe/frappe-bench/apps/frappe/frappe/core/doctype/scheduled_job_type/scheduled_job_type.py:
Site: pos
Scheduled Job Start: frappe.email.doctype.email_account.email_account.notify_unreplied for pos
[INFO] 2020-03-12 20:52:11,546 | /home/abhishek/Documents/Development/frappe/frappe-bench/apps/frappe/frappe/core/doctype/scheduled_job_type/scheduled_job_type.py:
Site: pos
Scheduled Job Complete: frappe.email.doctype.email_account.email_account.notify_unreplied for pos
[INFO] 2020-03-12 20:52:11,580 | /home/abhishek/Documents/Development/frappe/frappe-bench/apps/frappe/frappe/core/doctype/scheduled_job_type/scheduled_job_type.py:
Site: pos
Scheduled Job Start: frappe.email.doctype.email_account.email_account.pull for pos
[INFO] 2020-03-12 20:52:11,615 | /home/abhishek/Documents/Development/frappe/frappe-bench/apps/frappe/frappe/core/doctype/scheduled_job_type/scheduled_job_type.py:
Site: pos
Scheduled Job Complete: frappe.email.doctype.email_account.email_account.pull for pos
[INFO] 2020-03-12 20:52:11,648 | /home/abhishek/Documents/Development/frappe/frappe-bench/apps/frappe/frappe/core/doctype/scheduled_job_type/scheduled_job_type.py:
Site: pos
Scheduled Job Start: frappe.email.queue.flush for pos
[INFO] 2020-03-12 20:52:11,664 | /home/abhishek/Documents/Development/frappe/frappe-bench/apps/frappe/frappe/core/doctype/scheduled_job_type/scheduled_job_type.py:
Site: pos
Scheduled Job Complete: frappe.email.queue.flush for pos
