{
 "actions": [],
 "creation": "2020-02-27 15:05:43.123817",
 "doctype": "DocType",
 "editable_grid": 1,
 "engine": "InnoDB",
 "field_order": [
  "invoice_no",
  "order_status",
  "date_of_bill",
  "time_of_bill",
  "billing_from",
  "type_of_order",
  "customer_name",
  "phone_no",
  "order_ref",
  "sub_total",
  "discount",
  "service_charges",
  "tax",
  "grand_total",
  "customer_paid_amt",
  "change_due"
 ],
 "fields": [
  {
   "fieldname": "invoice_no",
   "fieldtype": "Data",
   "in_list_view": 1,
   "label": "Invoice Number",
   "reqd": 1
  },
  {
   "fieldname": "order_status",
   "fieldtype": "Data",
   "in_list_view": 1,
   "label": "Order Status",
   "reqd": 1
  },
  {
   "fieldname": "date_of_bill",
   "fieldtype": "Date",
   "in_list_view": 1,
   "label": "Date of Billing",
   "reqd": 1
  },
  {
   "fieldname": "time_of_bill",
   "fieldtype": "Time",
   "in_list_view": 1,
   "label": "Time of Billing",
   "reqd": 1
  },
  {
   "fieldname": "billing_from",
   "fieldtype": "Data",
   "label": "Billing from",
   "reqd": 1
  },
  {
   "fieldname": "type_of_order",
   "fieldtype": "Data",
   "label": "Type of Order",
   "reqd": 1
  },
  {
   "fetch_from": "customer_name.customer_name",
   "fieldname": "customer_name",
   "fieldtype": "Link",
   "label": "Customer Name",
   "options": "Customer",
   "reqd": 1
  },
  {
   "fieldname": "order_ref",
   "fieldtype": "Data",
   "label": "Order reference",
   "reqd": 1
  },
  {
   "fieldname": "sub_total",
   "fieldtype": "Currency",
   "label": "Sub Total",
   "reqd": 1
  },
  {
   "fieldname": "discount",
   "fieldtype": "Percent",
   "label": "Discount",
   "reqd": 1
  },
  {
   "fieldname": "service_charges",
   "fieldtype": "Currency",
   "label": "Service Charges",
   "reqd": 1
  },
  {
   "fieldname": "tax",
   "fieldtype": "Percent",
   "label": "Tax",
   "reqd": 1
  },
  {
   "fieldname": "grand_total",
   "fieldtype": "Currency",
   "label": "Grand Total",
   "reqd": 1
  },
  {
   "fieldname": "customer_paid_amt",
   "fieldtype": "Currency",
   "label": "Customer Paid Amount",
   "reqd": 1
  },
  {
   "fieldname": "change_due",
   "fieldtype": "Currency",
   "label": "Change Due",
   "reqd": 1
  },
  {
   "fetch_from": "phone_no.phone_no",
   "fieldname": "phone_no",
   "fieldtype": "Link",
   "label": "Customer Phone",
   "options": "Customer",
   "reqd": 1
  }
 ],
 "links": [],
 "modified": "2020-02-27 15:13:52.678764",
 "modified_by": "Administrator",
 "module": "Invoice",
 "name": "Invoice",
 "owner": "Administrator",
 "permissions": [
  {
   "create": 1,
   "delete": 1,
   "email": 1,
   "export": 1,
   "print": 1,
   "read": 1,
   "report": 1,
   "role": "System Manager",
   "share": 1,
   "write": 1
  }
 ],
 "quick_entry": 1,
 "sort_field": "modified",
 "sort_order": "DESC",
 "track_changes": 1
}